Division,WeightClassKg,Place,Name,Team,BodyweightKg,Best3SquatKg,Best3BenchKg,Best3DeadliftKg,TotalKg,Equipment,Event,Sex
Girls,44.23,1,Natalie Morgan,Bandera,40.82,72.57,72.57,83.91,229.06,Single-ply,SBD,F
Girls,44.23,2,Stephanie Zapater-Vega,San Antonio Southside,44.18,90.72,43.09,95.25,229.06,Single-ply,SBD,F
Girls,47.85,1,Caitlin Watson,Bandera,47.26,113.4,61.23,120.2,294.84,Single-ply,SBD,F
Girls,47.85,2,Caitlyn Thrasher,Bandera,45.9,108.86,49.9,113.4,272.16,Single-ply,SBD,F
Girls,47.85,3,Alina Escamilla,Poteet,47.81,113.4,54.43,104.33,272.16,Single-ply,SBD,F
Girls,47.85,4,Xeauna Rodriguez,Bandera,47.72,99.79,58.97,111.13,269.89,Single-ply,SBD,F
Girls,47.85,5,Alexandra Avalos,San Antonio Southside,47.17,106.59,45.36,104.33,256.28,Single-ply,SBD,F
Girls,47.85,6,Marissa Rios,Runge,47.36,77.11,40.82,99.79,217.72,Single-ply,SBD,F
Girls,47.85,7,Zaylee Zimmerle,Devine,47.54,81.65,45.36,90.72,217.72,Single-ply,SBD,F
Girls,47.85,8,Adisyn Utter,Bandera,44.91,88.45,31.75,95.25,215.46,Single-ply,SBD,F
Girls,47.85,9,Trinity Garza,Devine,46.36,79.38,38.56,86.18,204.12,Single-ply,SBD,F
Girls,47.85,DQ,Michelle Linson,Bandera,47.72,58.97,38.56,,,Single-ply,SBD,F
Girls,47.85,DQ,Brianna Aguinaga,San Antonio Southside,47.81,102.06,56.7,,,Single-ply,SBD,F
Girls,51.94,1,Regan Boissiere,Universal City Randolph,51.8,111.13,61.23,133.81,306.17,Single-ply,SBD,F
Girls,51.94,2,Sonia Trevino,San Antonio Southside,51.71,124.74,54.43,115.67,294.84,Single-ply,SBD,F
Girls,51.94,3,Ally Garcia,Poth,51.75,108.86,58.97,106.59,274.42,Single-ply,SBD,F
Girls,51.94,4,Edna Herschberger,Pettus,51.35,108.86,58.97,104.33,272.16,Single-ply,SBD,F
Girls,51.94,5,Raven Boissiere,Universal City Randolph,51.89,102.06,52.16,113.4,267.62,Single-ply,SBD,F
Girls,51.94,6,Gabrielle Martiniez,Kenedy,50.8,88.45,47.63,90.72,226.8,Single-ply,SBD,F
Girls,51.94,7,Alexis Shook,Devine,49.17,90.72,45.36,86.18,222.26,Single-ply,SBD,F
Girls,51.94,8,Mikayla Williams,Yorktown,50.89,79.38,34.02,88.45,201.85,Single-ply,SBD,F
Girls,56.02,1,Phaidra Malcher,Poth,54.93,136.08,79.38,122.47,337.93,Single-ply,SBD,F
Girls,56.02,2,Kimberly Salinas,Bandera,52.53,138.35,47.63,122.47,308.44,Single-ply,SBD,F
Girls,56.02,3,Serenity Alaniz,Karnes City,55.16,133.81,54.43,117.93,306.17,Single-ply,SBD,F
Girls,56.02,4,Journey Shoemake,Devine,53.71,102.06,63.5,111.13,276.69,Single-ply,SBD,F
Girls,56.02,DQ,Penelope Cruz,Devine,56.02,,,,,Single-ply,SBD,F
Girls,60.1,1,Emma Johnson,Poth,59.42,127.01,72.57,127.01,326.59,Single-ply,SBD,F
Girls,60.1,2,Brooke Gisler,Karnes City,59.33,138.35,58.97,113.4,310.71,Single-ply,SBD,F
Girls,60.1,3,Brittany Kelley,Karnes City,58.51,142.88,49.9,115.67,308.44,Single-ply,SBD,F
Girls,60.1,4,Jessica Ayala,Stockdale,58.06,122.47,68.04,115.67,306.17,Single-ply,SBD,F
Girls,60.1,5,Kaylin Yanta,Poth,58.92,120.2,56.7,117.93,294.84,Single-ply,SBD,F
Girls,60.1,6,Casey Mathis,Karnes City,60.06,111.13,49.9,122.47,283.5,Single-ply,SBD,F
Girls,60.1,7,Loretta Nieto,San Antonio Southside,58.6,115.67,45.36,117.93,278.96,Single-ply,SBD,F
Girls,60.1,8,Aimsley Blank,Yorktown,58.97,95.25,49.9,104.33,249.48,Single-ply,SBD,F
Girls,60.1,9,Emma Kenny,Universal City Randolph,58.69,92.99,43.09,95.25,231.33,Single-ply,SBD,F
Girls,60.1,DQ,Amia Skeet-King,Universal City Randolph,59.87,,,,,Single-ply,SBD,F
Girls,60.1,DQ,Fiona Waid,Bandera,57.33,,,,,Single-ply,SBD,F
Girls,60.1,DQ,Clarissa Ybanez,Devine,57.06,,,,,Single-ply,SBD,F
Girls,67.36,1,Haley Sharp,Pettus,65.41,165.56,90.72,127.01,383.29,Single-ply,SBD,F
Girls,67.36,2,Kayci Molina,Runge,64.41,145.15,63.5,145.15,353.8,Single-ply,SBD,F
Girls,67.36,3,Lee Ramirez,Karnes City,66.41,140.61,63.5,131.54,335.66,Single-ply,SBD,F
Girls,67.36,4,Lauryn Campos,Yorktown,65.5,136.08,52.16,142.88,331.12,Single-ply,SBD,F
Girls,67.36,5,Jessie Ramirez,Devine,65.68,120.2,54.43,122.47,297.1,Single-ply,SBD,F
Girls,67.36,6,Samantha Ramos,Poteet,65.95,115.67,52.16,129.27,297.1,Single-ply,SBD,F
Girls,67.36,7,Paige Nance,Yorktown,62.14,122.47,52.16,113.4,288.03,Single-ply,SBD,F
Girls,67.36,8,Isabella Rodriguez,Stockdale,64.32,117.93,52.16,115.67,285.76,Single-ply,SBD,F
Girls,67.36,9,Tatianna Trevino,Bandera,66.68,108.86,58.97,111.13,278.96,Single-ply,SBD,F
Girls,67.36,10,Ashlynn Morin,Pettus,66.32,106.59,52.16,108.86,267.62,Single-ply,SBD,F
Girls,67.36,11,Nicole Duve,Yorktown,61.51,97.52,38.56,97.52,233.6,Single-ply,SBD,F
Girls,67.36,12,Estefania Osorio Cervantes,Yorktown,67.31,79.38,34.02,97.52,210.92,Single-ply,SBD,F
Girls,67.36,13,Rihana Herrera,Poteet,67.31,72.57,52.16,86.18,210.92,Single-ply,SBD,F
Girls,67.36,14,Amanda Ramos,Kenedy,60.69,65.77,29.48,65.77,161.03,Single-ply,SBD,F
Girls,67.36,DQ,Alena Davis,Universal City Randolph,67.13,,,,,Single-ply,SBD,F
Girls,67.36,DQ,Anna Freeman,Bandera,67.22,115.67,72.57,,,Single-ply,SBD,F
Girls,75.07,1,Tatianna Castillo,Nixon Smiley,74.48,124.74,68.04,129.27,322.05,Single-ply,SBD,F
Girls,75.07,2,Anna Bonnet,Karnes City,71.03,111.13,54.43,108.86,274.42,Single-ply,SBD,F
Girls,75.07,3,Kyra Garcia,Poteet,68.95,90.72,43.09,117.93,251.74,Single-ply,SBD,F
Girls,75.07,4,Mikayla Moore,Bandera,72.03,113.4,43.09,88.45,244.94,Single-ply,SBD,F
Girls,75.07,5,Kristiana Hernandez,Runge,72.76,79.38,31.75,97.52,208.65,Single-ply,SBD,F
Girls,75.07,DQ,Isabella Garcia,San Antonio Southside,69.4,115.67,58.97,,,Single-ply,SBD,F
Girls,75.07,DQ,Frances Bernal,San Antonio Southside,74.93,,,,,Single-ply,SBD,F
Girls,82.33,1,Cassie Castro,Poth,79.06,172.37,68.04,158.76,399.16,Single-ply,SBD,F
Girls,82.33,2,Paige Cote,Devine,79.2,149.69,99.79,136.08,385.55,Single-ply,SBD,F
Girls,82.33,3,Kamryn Gutierrez,Runge,82.1,108.86,45.36,99.79,254.01,Single-ply,SBD,F
Girls,82.33,DQ,Rosa Lara,San Antonio Southside,80.83,,,,,Single-ply,SBD,F
Girls,90.04,1,Larissa Miller,Kenedy,82.46,147.42,74.84,158.76,381.02,Single-ply,SBD,F
Girls,90.04,2,Ariel Rocha,Yoakum,86.73,136.08,70.31,129.27,335.66,Single-ply,SBD,F
Girls,90.04,3,Khali Key,Devine,83.19,111.13,72.57,136.08,319.78,Single-ply,SBD,F
Girls,90.04,4,Kayla Alvarado,Yoakum,89.18,88.45,52.16,95.25,235.87,Single-ply,SBD,F
Girls,90.04,DQ,Olivia Monsevais,Karnes City,87.91,,,,,Single-ply,SBD,F
Girls,90.04,DQ,Elizabeth Emerson,George West,88.81,,,,,Single-ply,SBD,F
Girls,90.04,DQ,Jazlynn Lewis,Bandera,86.45,,,,,Single-ply,SBD,F
Girls,100.02,1,Amberosia Aleman,Kenedy,96.71,181.44,90.72,158.76,430.91,Single-ply,SBD,F
Girls,100.02,2,Victoria Trevino,San Antonio Southside,91.44,172.37,90.72,151.95,415.04,Single-ply,SBD,F
Girls,100.02,3,Felicity Diaz,Devine,95.98,136.08,70.31,131.54,337.93,Single-ply,SBD,F
Girls,100.02,4,Darian De los Santos,Karnes City,96.98,97.52,52.16,117.93,267.62,Single-ply,SBD,F
Girls,100.02,DQ,Jaida White,Universal City Randolph,92.62,108.86,56.7,,,Single-ply,SBD,F
Girls,117.71,1,Charity Holland,Universal City Randolph,103.96,138.35,68.04,131.54,337.93,Single-ply,SBD,F
Girls,117.71,2,Esmeralda Rojas,Yoakum,103.96,142.88,52.16,131.54,326.59,Single-ply,SBD,F
Girls,117.71+,1,Aracely Nieto,George West,124.28,129.27,61.23,136.08,326.59,Single-ply,SBD,F
Girls,,NS,Cheyann Johnson,Bandera,,,,,,Single-ply,SBD,F
Girls,,NS,Lauren Davila,Bandera,,,,,,Single-ply,SBD,F
Girls,,NS,Alexa Carbajal,Karnes City,,,,,,Single-ply,SBD,F
Girls,,NS,Ana Lopez,Karnes City,,,,,,Single-ply,SBD,F
Girls,,NS,Alena Swan,Bandera,,,,,,Single-ply,SBD,F
Girls,,NS,Caitlin Casas,Devine,,,,,,Single-ply,SBD,F
Girls,,NS,Kayla Glaspie,Universal City Randolph,,,,,,Single-ply,SBD,F
Girls,,NS,Majesty Holland,Universal City Randolph,,,,,,Single-ply,SBD,F
Girls,,NS,Vanessa Garza,Yoakum,,,,,,Single-ply,SBD,F
Girls,,NS,Melyna Torres,Yoakum,,,,,,Single-ply,SBD,F
Girls,,NS,Amara Davis,Universal City Randolph,,,,,,Single-ply,SBD,F
Girls,,NS,Breann Garza,Yoakum,,,,,,Single-ply,SBD,F
Girls,,NS,Alexis Longoria,Yorktown,,,,,,Single-ply,SBD,F
Girls,,NS,Robin Naranjo,Yorktown,,,,,,Single-ply,SBD,F
Girls,,NS,Lauryn Brynelsen,Runge,,,,,,Single-ply,SBD,F
Girls,,NS,Amanda Rivera,Poteet,,,,,,Single-ply,SBD,F
Girls,,NS,Jacqie Flores,San Antonio Southside,,,,,,Single-ply,SBD,F
