Division,WeightClassKg,Place,Name,Team,BodyweightKg,Best3SquatKg,Best3BenchKg,Best3DeadliftKg,TotalKg,Equipment,Event,Sex
Boys,55.79,1,Raul Rodriguez,Diboll,54.43,140.61,77.11,138.35,356.07,Single-ply,SBD,M
Boys,67.13,1,Hunter Mayes,Huntington,66.45,154.22,97.52,181.44,433.18,Single-ply,SBD,M
Boys,67.13,2,Jakrihyon Whitaker,Nacogdoches,62.6,151.95,81.65,154.22,387.82,Single-ply,SBD,M
Boys,67.13,3,Esteban Orozco,Pollok Central,65.32,145.15,83.91,158.76,387.82,Single-ply,SBD,M
Boys,67.13,4,Daniel White,Huntington,66.68,133.81,95.25,158.76,387.82,Single-ply,SBD,M
Boys,67.13,5,Pedro Bahena,San Augustine,67.13,131.54,72.57,142.88,347,Single-ply,SBD,M
Boys,67.13,6,Brayden Williams,Chireno,62.14,92.99,61.23,158.76,312.98,Single-ply,SBD,M
Boys,67.13,7,Garrett Rice,Pollok Central,61.69,63.5,43.09,99.79,206.38,Single-ply,SBD,M
Boys,67.13,8,Blake Brown,Huntington,63.05,,70.31,136.08,206.38,Single-ply,BD,M
Boys,74.84,1,Chase Tamez,Diboll,72.57,170.1,106.59,183.7,460.4,Single-ply,SBD,M
Boys,74.84,2,Wilson Jesse,Pollok Central,74.39,165.56,102.06,185.97,453.59,Single-ply,SBD,M
Boys,74.84,3,Caleb Ridgeway,Shelbyville,72.12,163.29,83.91,183.7,430.91,Single-ply,SBD,M
Boys,74.84,4,Andrew Quick,Huntington,74.16,154.22,72.57,163.29,390.09,Single-ply,SBD,M
Boys,74.84,5,Hugo Cepeda,Diboll,70.76,154.22,79.38,151.95,385.55,Single-ply,SBD,M
Boys,74.84,6,Garrett Basey,Huntington,71.67,151.95,72.57,145.15,369.68,Single-ply,SBD,M
Boys,82.1,1,Christian Arthur,Lufkin,81.19,206.38,111.13,226.8,544.31,Single-ply,SBD,M
Boys,82.1,2,Tyveon Williams,Diboll,79.38,204.12,102.06,204.12,510.29,Single-ply,SBD,M
Boys,82.1,3,Victor Ayala,Diboll,75.3,199.58,108.86,185.97,494.42,Single-ply,SBD,M
Boys,82.1,4,Glenn Young,Nacogdoches,81.19,188.24,86.18,190.51,464.93,Single-ply,SBD,M
Boys,82.1,5,Isaac Concha,Diboll,81.65,179.17,102.06,181.44,462.66,Single-ply,SBD,M
Boys,82.1,6,Peyton Goodwin,Chireno,79.38,154.22,104.33,195.04,453.59,Single-ply,SBD,M
Boys,82.1,7,Julian Acevaedo,Diboll,75.75,161.03,104.33,167.83,433.18,Single-ply,SBD,M
Boys,82.1,8,Keshawn Holmes,Nacogdoches,78.93,149.69,90.72,188.24,428.64,Single-ply,SBD,M
Boys,82.1,9,Dawson Windham,Shelbyville,78.02,158.76,83.91,181.44,424.11,Single-ply,SBD,M
Boys,82.1,10,Hagen Crumpton,Shelbyville,78.02,136.08,77.11,172.37,385.55,Single-ply,SBD,M
Boys,82.1,11,Austin Massingill,Pollok Central,77.56,124.74,83.91,136.08,344.73,Single-ply,SBD,M
Boys,82.1,12,Kyle Coleman,Pollok Central,80.29,104.33,58.97,131.54,294.84,Single-ply,SBD,M
Boys,89.81,1,Cole Seaman,Diboll,87.09,229.06,129.27,204.12,562.45,Single-ply,SBD,M
Boys,89.81,2,Keshawn Clark,Lufkin,85.73,204.12,108.86,217.72,530.7,Single-ply,SBD,M
Boys,89.81,3,Jamarcus Ingram,Lufkin,88,208.65,97.52,215.46,521.63,Single-ply,SBD,M
Boys,89.81,4,John Dee Johnson,Huntington,87.09,183.7,79.38,174.63,437.72,Single-ply,SBD,M
Boys,89.81,5,Carlos Acosta,San Augustine,89.81,151.95,88.45,176.9,417.3,Single-ply,SBD,M
Boys,89.81,6,Mikeal Garrett,Huntington,84.37,127.01,63.5,142.88,333.39,Single-ply,SBD,M
Boys,89.81,7,Carson Smith,Pollok Central,89.81,120.2,56.7,133.81,310.71,Single-ply,SBD,M
Boys,89.81,8,Ugur Ensahin,Huntington,88,86.18,56.7,136.08,278.96,Single-ply,SBD,M
Boys,99.79,1,Justin Patton,Lufkin,99.34,258.55,127.01,235.87,621.42,Single-ply,SBD,M
Boys,99.79,2,Hayden McLeroy,Diboll,97.07,233.6,127.01,219.99,580.6,Single-ply,SBD,M
Boys,99.79,3,Kayson Elijah,Lufkin,99.79,192.78,136.08,226.8,555.65,Single-ply,SBD,M
Boys,99.79,4,Wilburn Smallwood,Lufkin,99.79,163.29,99.79,195.04,458.13,Single-ply,SBD,M
Boys,99.79,5,Aiden Henson,Huntington,98.88,158.76,106.59,174.63,439.98,Single-ply,SBD,M
Boys,99.79,6,Camorian Thacker,Nacogdoches,90.26,167.83,92.99,176.9,437.72,Single-ply,SBD,M
Boys,99.79,DQ,Quay Burleigh,Nacogdoches,99.34,,,,,Single-ply,SBD,M
Boys,109.77,1,Eli Taylor,Shelbyville,103.42,226.8,102.06,195.04,523.9,Single-ply,SBD,M
Boys,109.77,2,Noah Ross,Huntington,103.87,192.78,95.25,210.92,498.95,Single-ply,SBD,M
Boys,109.77,3,Devin Luker,Huntington,102.97,197.31,102.06,197.31,496.68,Single-ply,SBD,M
Boys,109.77,4,Ethan Neal,Pollok Central,107.5,174.63,92.99,183.7,451.32,Single-ply,SBD,M
Boys,109.77,5,Tanner Ross,Pollok Central,106.14,158.76,92.99,165.56,417.3,Single-ply,SBD,M
Boys,109.77,6,Adron Capps,Huntington,101.15,129.27,83.91,167.83,381.02,Single-ply,SBD,M
Boys,109.77,7,Dawson Jackson,Shelbyville,103.87,136.08,77.11,149.69,362.87,Single-ply,SBD,M
Boys,109.77,8,Hezekiah Freeman,Diboll,107.95,204.12,,,204.12,Single-ply,S,M
Boys,124.74,1,Zykee Allen,Lufkin,120.66,247.21,156.49,263.08,666.78,Single-ply,SBD,M
Boys,124.74,2,Mike Jones,Nacogdoches,112.94,231.33,129.27,206.38,566.99,Single-ply,SBD,M
Boys,124.74,3,Zhadestian Griffen,Lufkin,119.29,219.99,106.59,219.99,546.58,Single-ply,SBD,M
Boys,124.74,4,Nash Jones,Nacogdoches,118.39,195.04,115.67,204.12,514.83,Single-ply,SBD,M
Boys,124.74,5,Billy Leverett,Diboll,110.22,190.51,113.4,195.04,498.95,Single-ply,SBD,M
Boys,124.74,6,Dario Garcia,Nacogdoches,115.67,199.58,108.86,190.51,498.95,Single-ply,SBD,M
Boys,124.74,7,Kedaren Holman,Lufkin,117.93,183.7,102.06,206.38,492.15,Single-ply,SBD,M
Boys,124.74,8,Kaleb Douglass,Nacogdoches,118.84,192.78,95.25,181.44,469.47,Single-ply,SBD,M
Boys,124.74,9,Josiah Smith,Nacogdoches,119.29,190.51,102.06,167.83,460.4,Single-ply,SBD,M
Boys,124.74,10,Kyle Bridges,Pollok Central,112.49,120.2,56.7,136.08,312.98,Single-ply,SBD,M
Boys,124.74+,1,Carl Williams,Lufkin,159.66,310.71,174.63,317.51,802.86,Single-ply,SBD,M
Boys,124.74+,2,Jordan Payne,Huntington,151.05,265.35,115.67,217.72,598.74,Single-ply,SBD,M
Boys,124.74+,3,Jacolten Jones,Lufkin,138.8,215.46,136.08,206.38,557.92,Single-ply,SBD,M
Boys,124.74+,4,Ricardo Harrison,Diboll,125.65,210.92,124.74,201.85,537.51,Single-ply,SBD,M
Boys,124.74+,5,Seth Stephens,San Augustine,153.31,219.99,127.01,183.7,530.7,Single-ply,SBD,M
Boys,124.74+,6,Alex Pruitt,Lufkin,134.72,185.97,117.93,222.26,526.17,Single-ply,SBD,M
Boys,124.74+,7,Trey Cartwright,Shelbyville,134.26,204.12,102.06,188.24,494.42,Single-ply,SBD,M
