Place,Name,State,WeightClassKg,BodyweightKg,Age,Best3SquatKg,Best3BenchKg,Best3DeadliftKg,TotalKg,Sex,Division,Equipment,Deadlift4Kg,Squat4Kg,Bench4Kg,Event
1,Lexi Henderson,AL,48,45.65,15,75,42.5,95,212.5,F,Juniors 13-15,Raw,,,,SBD
1,Sydney Farris,AL,52,50,15,90,37.5,117.5,245,F,Juniors 13-15,Raw,,,,SBD
1,Natalie Banda,AL,56,54.05,18,72.5,37.5,110,220,F,Juniors 18-19,Raw,,,,SBD
1,Rebekah Heiland,AL,56,52.95,23,120,50,117.5,287.5,F,Juniors 20-23,Raw,,,,SBD
1,Courtney Easterling,MS,67.5,62.6,21,112.5,65,140,317.5,F,Juniors 20-23,Raw,,,,SBD
2,Hunter Credeur,LA,67.5,63.65,20,102.5,45,122.5,270,F,Juniors 20-23,Raw,,,,SBD
1,Victoria Avery,AL,75,73.8,20,122.5,67.5,150,340,F,Juniors 20-23,Raw,,,,SBD
1,Kelsey Douglas,AL,52,50.6,27,105,52.5,127.5,285,F,Open,Raw,,,,SBD
2,Sydney Farris,AL,52,50,15,90,37.5,117.5,245,F,Open,Raw,,,,SBD
3,Vidhya Narayanan,GA,52,50.4,37,82.5,42.5,105,230,F,Open,Raw,,,,SBD
1,Alexandra García,AL,56,55.1,16,87.5,45,120,252.5,F,Open,Raw,,,,SBD
2,Natalie Banda,AL,56,54.05,18,72.5,37.5,110,220,F,Open,Raw,,,,SBD
1,Jenna Beckerich,AL,60,58.5,34,117.5,75,137.5,330,F,Open,Raw,,,,SBD
2,Crystal Elmore,AL,60,56.9,35,130,62.5,125,317.5,F,Open,Raw,,,,SBD
3,Jessica Ingalls,AL,60,58.45,26,117.5,70,130,317.5,F,Open,Raw,,,,SBD
1,Whitney Hall,AL,67.5,63.3,31,100,62.5,130,292.5,F,Open,Raw,,,,SBD
2,Evalynn Amabile,AL,67.5,65.35,25,102.5,50,112.5,265,F,Open,Raw,,,,SBD
1,Abria Queen,AL,75,74.95,35,150,90,182.5,422.5,F,Open,Raw,,,,SBD
2,Victoria Avery,AL,75,73.8,20,122.5,67.5,150,340,F,Open,Raw,,,,SBD
3,Coby Collins,AL,75,73.95,32,125,60,137.5,322.5,F,Open,Raw,,,,SBD
4,Grace Kue,AL,75,72.7,28,100,42.5,135,277.5,F,Open,Raw,,,,SBD
1,Valeria Anderson,AL,82.5,80.35,44,107.5,70,162.5,340,F,Open,Raw,,,,SBD
1,Melanie Quillens,LA,90+,108.4,39,137.5,75,165,377.5,F,Open,Raw,,,,SBD
1,Vidhya Narayanan,GA,52,50.4,37,82.5,42.5,105,230,F,Submasters 35-39,Raw,,,,SBD
1,Abria Queen,AL,75,74.95,35,150,90,182.5,422.5,F,Submasters 35-39,Raw,,,,SBD
1,Tracy Perkins,AL,48,47.1,46,50,32.5,92.5,175,F,Masters 45-49,Raw,97.5,,,SBD
1,Valeria Anderson,AL,82.5,80.35,44,107.5,70,162.5,340,F,Masters 40-44,Raw,,,,SBD
1,Tania Wilkes,AL,82.5,79.15,55,82.5,72.5,120,275,F,Masters 55-59,Raw,,,,SBD
1,Jan Owen,AL,90+,92.2,52,87.5,47.5,97.5,232.5,F,Masters 50-54,Raw,102.5,,,SBD
1,Cole Cates,AL,75,73.15,18,182.5,112.5,195,490,M,Juniors 18-19,Raw,200,,,SBD
2,Slade Smith,AL,75,73.6,19,177.5,112.5,180,470,M,Juniors 18-19,Raw,,,,SBD
3,Jason Lambert,FL,75,71.1,18,160,95,195,450,M,Juniors 18-19,Raw,,,,SBD
1,Josafath Landaverde,AL,75,72.4,20,157.5,107.5,192.5,457.5,M,Juniors 20-23,Raw,,,,SBD
DQ,Samuel Morrison,AL,75,72.5,23,137.5,,182.5,,M,Juniors 20-23,Raw,,,,SBD
1,Alex Moore,AL,82.5,76,18,185,112.5,220,517.5,M,Juniors 18-19,Raw,,,,SBD
G,Jacob McGinty,AL,82.5,82.5,18,175,92.5,190,457.5,M,Juniors 18-19,Raw,,,,SBD
1,Kery Danh,AL,82.5,80.5,20,227.5,160,260,647.5,M,Juniors 20-23,Raw,,,,SBD
2,Ty Corbett,AL,82.5,81,23,180,125,192.5,497.5,M,Juniors 20-23,Raw,,,,SBD
1,Keegan Allen,AL,90,87.85,18,220,132.5,227.5,580,M,Juniors 18-19,Raw,,,,SBD
1,Seth Redden,AL,100,92.05,21,240,152.5,272.5,665,M,Juniors 20-23,Raw,,,,SBD
1,Keith Saffold,AL,110,100.5,21,220,157.5,230,607.5,M,Juniors 20-23,Raw,237.5,,,SBD
1,Hawkeye Fousek,AL,60,58.8,18,67.5,55,110,232.5,M,Open,Raw,,,,SBD
1,Christopher Hancock,AL,67.5,64.8,26,160,112.5,190,462.5,M,Open,Raw,,,,SBD
2,Christopher Stokes,AL,67.5,64.4,29,130,92.5,167.5,390,M,Open,Raw,170,,,SBD
3,Brandon Stephens #2,AL,67.5,62.4,31,125,77.5,170,372.5,M,Open,Raw,,,,SBD
1,Brandon Maddox,AL,75,73.85,25,255,192.5,267.5,715,M,Open,Raw,,,,SBD
2,Mike Polis,AL,75,72,28,210,145,252.5,607.5,M,Open,Raw,,,,SBD
3,Chris Lentini,AL,75,73.05,41,205,157.5,235,597.5,M,Open,Raw,,,,SBD
4,Mu Tsai Fang,AL,75,74.1,33,170,142.5,230,542.5,M,Open,Raw,,,,SBD
5,Cole Cates,AL,75,73.15,18,182.5,112.5,195,490,M,Open,Raw,200,,,SBD
6,Slade Smith,AL,75,73.6,19,177.5,112.5,180,470,M,Open,Raw,,,,SBD
7,Josafath Landaverde,AL,75,72.4,20,157.5,107.5,192.5,457.5,M,Open,Raw,,,,SBD
DQ,Samuel Morrison,AL,75,72.5,23,137.5,,182.5,,M,Open,Raw,,,,SBD
1,Kery Danh,AL,82.5,80.5,20,227.5,160,260,647.5,M,Open,Raw,,,,SBD
2,Mitchell Hughes,AL,82.5,76.6,27,207.5,163,227.5,598,M,Open,Raw,,,,SBD
3,Mark Bertella,AL,82.5,80.6,27,182.5,142.5,252.5,577.5,M,Open,Raw,,,,SBD
4,Connor Robinson,AL,82.5,79.9,30,190,130,215,535,M,Open,Raw,,,,SBD
G,Jacob McGinty,AL,82.5,82.5,18,175,92.5,190,457.5,M,Open,Raw,,,,SBD
DQ,John Norris,AL,82.5,82.4,26,190,,227.5,,M,Open,Raw,,,,SBD
DQ,Michael Nixon,AL,82.5,80.5,52,,130,,,M,Open,Raw,,,,SBD
1,Michael Morgan,AL,90,85.8,45,187.5,125,247.5,560,M,Open,Raw,,,,SBD
2,Colin Odle,LA,90,83,25,192.5,125,207.5,525,M,Open,Raw,,,,SBD
1,Brandon Whitfield,AL,100,96.1,26,245,187.5,257.5,690,M,Open,Raw,,,,SBD
2,Seth Redden,AL,100,92.05,21,240,152.5,272.5,665,M,Open,Raw,,,,SBD
3,Hayden Williams,AL,100,94,25,222.5,137.5,272.5,632.5,M,Open,Raw,279,,,SBD
1,Nic Oliver,AL,110,106.4,32,240,182.5,307.5,730,M,Open,Raw,,,,SBD
2,Derek Thorne,AL,110,102.8,36,232.5,170,247.5,650,M,Open,Raw,,,,SBD
3,Bryant Wood,AL,110,105.15,25,192.5,135,240,567.5,M,Open,Raw,,,,SBD
1,Tyler Frost,AL,125,112,32,235,130,300,665,M,Open,Raw,,,,SBD
2,Dustin Joiner,AL,125,120.75,27,197.5,167.5,252.5,617.5,M,Open,Raw,,,,SBD
3,Michael Johnson,LA,125,114.3,26,182.5,175,222.5,580,M,Open,Raw,,,,SBD
1,James Bonner,AL,140+,210,34,215,165,222.5,602.5,M,Open,Raw,,,,SBD
DQ,Jake England,AL,140+,164.2,31,175,,232.5,,M,Open,Raw,,,,SBD
1,Chris Pihakis,AL,90,87.8,36,157.5,112.5,220,490,M,Submasters 35-39,Raw,,,,SBD
1,Jon Hendrickson,AL,140,127.4,36,220,127.5,240,587.5,M,Submasters 35-39,Raw,,,,SBD
1,Chris Lentini,AL,75,73.05,41,205,157.5,235,597.5,M,Masters 40-44,Raw,,,,SBD
1,Curtis Hubbard,AL,82.5,77.95,69,150,70,160,380,M,Masters 65-69,Raw,,,,SBD
1,Michael Morgan,AL,90,85.8,45,187.5,125,247.5,560,M,Masters 45-49,Raw,,,,SBD
1,Dee Grimes,AL,90,86.1,55,160,105,170,435,M,Masters 55-59,Raw,,,,SBD
1,Juan Carlos García,AL,100,97.7,46,197.5,130,215,542.5,M,Masters 45-49,Raw,,,,SBD
1,Scott Rutherford,AL,110,105.3,45,220,155,220,595,M,Masters 45-49,Raw,,,,SBD
2,Mike Fife,AL,110,103.7,46,175,127.5,200,502.5,M,Masters 45-49,Raw,,,,SBD
1,Leslie Traeger,AL,52,51.45,26,90,45,67.5,202.5,F,Open,Wraps,,,,SBD
1,Madelaine Nation,AL,67.5,62.85,19,140,60,152.5,352.5,F,Open,Wraps,,,,SBD
1,Kurtis Brawner,AL,90,87.5,22,240,182.5,262.5,685,M,Juniors 20-23,Wraps,,,,SBD
2,Les Keyes,AL,90,84.1,22,212.5,125,227.5,565,M,Juniors 20-23,Wraps,,,,SBD
1,Chace Matthews,AL,110,108.65,21,272.5,145,300,717.5,M,Juniors 20-23,Wraps,,,,SBD
1,Nate Montgomery,AL,82.5,78.5,29,202.5,142.5,227.5,572.5,M,Open,Wraps,,,,SBD
2,Alexander Dockery,AL,82.5,78.6,26,182.5,105,212.5,500,M,Open,Wraps,,,,SBD
3,Roger Kitchen Jr,AL,82.5,78.8,47,162.5,110,197.5,470,M,Open,Wraps,,,,SBD
1,Kurtis Brawner,AL,90,87.5,22,240,182.5,262.5,685,M,Open,Wraps,,,,SBD
2,Ben Remington,AL,90,82.8,21,227.5,147.5,232.5,607.5,M,Open,Wraps,,,,SBD
3,Les Keyes,AL,90,84.1,22,212.5,125,227.5,565,M,Open,Wraps,,,,SBD
1,Quintin Arnold,AL,100,97.9,29,287.5,190,320,797.5,M,Open,Wraps,,,,SBD
2,Matthew Burgett,AL,100,94.9,34,290,192.5,260,742.5,M,Open,Wraps,,,,SBD
3,Daniel Arena,TN,100,95.5,31,265,160,295,720,M,Open,Wraps,,,,SBD
4,Anthony Stewart,AL,100,96.5,36,250,150,265,665,M,Open,Wraps,,,,SBD
1,Austin Blair,AL,110,105.15,21,282.5,180,272.5,735,M,Open,Wraps,,,,SBD
2,Greg Hicks,AL,110,103,33,272.5,182.5,267.5,722.5,M,Open,Wraps,,,,SBD
3,Mason Turner,AL,110,106.45,25,182.5,137.5,210,530,M,Open,Wraps,,,,SBD
1,Anthony Stewart,AL,100,96.5,36,250,150,265,665,M,Submasters 35-39,Wraps,,,,SBD
1,Cris White,AL,82.5,80.85,41,180,135,187.5,502.5,M,Masters 40-44,Wraps,,185,137.5,SBD
1,Roger Kitchen Jr,AL,82.5,78.8,47,162.5,110,197.5,470,M,Masters 45-49,Wraps,,,,SBD
1,Jeffrey Edwards,MS,110,105.25,45,277.5,200,270,747.5,M,Masters 45-49,Wraps,,,,SBD
1,Sydney Farris,AL,52,50,15,,37.5,,37.5,F,Juniors 13-15,Raw,,,,B
1,Sydney Farris,AL,52,50,15,,37.5,,37.5,F,Open,Raw,,,,B
1,Tania Wilkes,AL,82.5,79.15,55,,72.5,,72.5,F,Masters 55-59,Raw,,,,B
1,Jan Owen,AL,90+,92.2,52,,47.5,,47.5,F,Masters 50-54,Raw,,,,B
DQ,Samuel Morrison,AL,75,72.5,23,,,,,M,Juniors 20-23,Raw,,,,B
1,Alex Moore,AL,82.5,76,18,,112.5,,112.5,M,Juniors 18-19,Raw,,,,B
1,Ty Corbett,AL,82.5,81,23,,125,,125,M,Juniors 20-23,Raw,,,,B
1,Zarrick Jenkins,AL,90,86.65,21,,162.5,,162.5,M,Juniors 20-23,Raw,,,,B
1,Mitch Deaton,AL,125,122.7,23,,210,,210,M,Juniors 20-23,Raw,,,,B
DQ,Samuel Morrison,AL,75,72.5,23,,,,,M,Open,Raw,,,,B
1,Mitchell Hughes,AL,82.5,76.6,27,,163,,163,M,Open,Raw,,,,B
DQ,Rhys Mcfarland,AL,82.5,79.9,30,,,,,M,Open,Raw,,,,B
1,Teddy Courcy,AL,100,95.2,45,,195,,195,M,Open,Raw,,,197.5,B
1,Mitch Deaton,AL,125,122.7,23,,210,,210,M,Open,Raw,,,,B
2,Joe Franklin,GA,125,119.9,46,,187.5,,187.5,M,Open,Raw,,,,B
3,Dustin Joiner,AL,125,120.75,27,,167.5,,167.5,M,Open,Raw,,,,B
1,Steve Workman,AL,82.5,79.2,52,,140,,140,M,Masters 50-54,Raw,,,,B
1,Greg Baggett,AL,90,88.05,49,,125,,125,M,Masters 45-49,Raw,,,,B
1,Teddy Courcy,AL,100,95.2,45,,195,,195,M,Masters 45-49,Raw,,,197.5,B
1,Jeffrey Edwards,MS,110,105.25,45,,200,,200,M,Masters 45-49,Raw,,,,B
1,Joe Franklin,GA,125,119.9,46,,187.5,,187.5,M,Masters 45-49,Raw,,,,B
1,Phil Deaton,AL,140,129.55,53,,155,,155,M,Masters 50-54,Raw,,,,B
1,Sydney Farris,AL,52,50,15,,,117.5,117.5,F,Juniors 13-15,Raw,,,,D
1,Sydney Farris,AL,52,50,15,,,117.5,117.5,F,Open,Raw,,,,D
1,Carley Smith,AL,67.5,66.55,26,,,172.5,172.5,F,Open,Raw,,,,D
1,Tracy Perkins,AL,48,47.1,46,,,92.5,92.5,F,Masters 45-49,Raw,97.5,,,D
1,Jan Owen,AL,90+,92.2,52,,,97.5,97.5,F,Masters 50-54,Raw,102.5,,,D
1,Samuel Morrison,AL,75,72.5,23,,,182.5,182.5,M,Juniors 20-23,Raw,,,,D
1,Alex Moore,AL,82.5,76,18,,,220,220,M,Juniors 18-19,Raw,,,,D
1,Zarrick Jenkins,AL,90,86.65,21,,,245,245,M,Juniors 20-23,Raw,,,,D
1,Samuel Morrison,AL,75,72.5,23,,,182.5,182.5,M,Open,Raw,,,,D
1,Michael Morgan,AL,90,85.8,45,,,247.5,247.5,M,Open,Raw,,,,D
1,Hayden Williams,AL,100,94,25,,,272.5,272.5,M,Open,Raw,279,,,D
2,Anthony Stewart,AL,100,96.5,36,,,265,265,M,Open,Raw,,,,D
1,Tyler Frost,AL,125,112,32,,,300,300,M,Open,Raw,,,,D
1,Jake England,AL,140+,164.2,31,,,232.5,232.5,M,Open,Raw,,,,D
1,Anthony Stewart,AL,100,96.5,36,,,265,265,M,Submasters 35-39,Raw,,,,D
1,Michael Morgan,AL,90,85.8,45,,,247.5,247.5,M,Masters 45-49,Raw,,,,D
1,Phil Deaton,AL,140,129.55,53,,,195,195,M,Masters 50-54,Raw,,,,D
