Division,WeightClassKg,Place,Name,Team,BodyweightKg,Best3SquatKg,Best3BenchKg,Best3DeadliftKg,TotalKg,Equipment,Event,Sex
Boys,51.71,1,Anthony Lara,Wolfforth Frenship,50.35,127.01,68.04,149.69,344.73,Single-ply,SBD,M
Boys,51.71,2,Edwin Garcia,Friona,51.66,136.08,70.31,129.27,335.66,Single-ply,SBD,M
Boys,51.71,3,Marin Santiago,Friona,51.53,113.4,52.16,136.08,301.64,Single-ply,SBD,M
Boys,51.71,4,Dalton Benson,Clarendon,50.98,111.13,58.97,117.93,288.03,Single-ply,SBD,M
Boys,51.71,5,Joseph Jenkins,Perryton,50.89,99.79,65.77,117.93,283.5,Single-ply,SBD,M
Boys,51.71,6,Matt Perez,Ralls,48.17,102.06,52.16,122.47,276.69,Single-ply,SBD,M
Boys,51.71,7,Andrew Luna,Perryton,48.26,111.13,43.09,95.25,249.48,Single-ply,SBD,M
Boys,55.79,1,Kordell Lawrence,Dalhart,55.52,161.03,68.04,151.95,381.02,Single-ply,SBD,M
Boys,55.79,2,Kevin Nguyen #8,Amarillo Highland Park,54.98,142.88,68.04,158.76,369.68,Single-ply,SBD,M
Boys,55.79,3,Billy Lee,Amarillo Highland Park,54.61,124.74,79.38,149.69,353.8,Single-ply,SBD,M
Boys,55.79,4,Hunter Weaver,Canyon Randall,54.61,133.81,68.04,149.69,351.53,Single-ply,SBD,M
Boys,55.79,5,Charles Clark,Ralls,55.16,102.06,77.11,124.74,303.91,Single-ply,SBD,M
Boys,55.79,6,Trevor Bennett,Perryton,55.7,111.13,56.7,124.74,292.57,Single-ply,SBD,M
Boys,55.79,7,Erick Soltero,Hart,52.44,79.38,61.23,79.38,219.99,Single-ply,SBD,M
Boys,59.87,1,Luis Trejo,Friona,59.87,192.78,115.67,188.24,496.68,Single-ply,SBD,M
Boys,59.87,2,Dominic Longoria,Levelland,58.79,183.7,95.25,185.97,464.93,Single-ply,SBD,M
Boys,59.87,3,Ray Jaramillo,Clarendon,59.87,161.03,102.06,176.9,439.98,Single-ply,SBD,M
Boys,59.87,4,Adrian Velasquez,Wolfforth Frenship,57.97,161.03,95.25,181.44,437.72,Single-ply,SBD,M
Boys,59.87,5,Salvador Santiago,Friona,59.78,167.83,88.45,170.1,426.38,Single-ply,SBD,M
Boys,59.87,6,Cameron Arellano,Wolfforth Frenship,59.78,149.69,86.18,183.7,419.57,Single-ply,SBD,M
Boys,59.87,7,Miguel Vasquez,Farwell,59.42,154.22,99.79,163.29,417.3,Single-ply,SBD,M
Boys,59.87,8,Evan Paez,Muleshoe,56.25,149.69,88.45,167.83,405.97,Single-ply,SBD,M
Boys,59.87,9,Bryan de la Torre,Bovina,59.87,163.29,79.38,163.29,405.97,Single-ply,SBD,M
Boys,59.87,10,Isaiah Zavala,Ralls,58.97,140.61,86.18,140.61,367.41,Single-ply,SBD,M
Boys,59.87,11,Caio Zacharias,Dalhart,59.69,136.08,79.38,142.88,358.34,Single-ply,SBD,M
Boys,59.87,12,Ceasar Luther,Perryton,59.87,117.93,79.38,136.08,333.39,Single-ply,SBD,M
Boys,59.87,13,Matthew Cano,Perryton,56.97,111.13,72.57,145.15,328.85,Single-ply,SBD,M
Boys,59.87,14,Izac Anthony,Levelland,56.15,113.4,56.7,138.35,308.44,Single-ply,SBD,M
Boys,67.13,1,Chris Chavarria,Floydada,67.04,181.44,102.06,195.04,478.54,Single-ply,SBD,M
Boys,67.13,2,Michael Lopez,Levelland,62.87,183.7,88.45,192.78,464.93,Single-ply,SBD,M
Boys,67.13,3,John Lugo,Ralls,66.68,172.37,99.79,161.03,433.18,Single-ply,SBD,M
Boys,67.13,4,Kaiden Summerville,Perryton,63.78,158.76,102.06,165.56,426.38,Single-ply,SBD,M
Boys,67.13,5,Jayden Shaver,Panhandle,63.59,145.15,83.91,142.88,371.95,Single-ply,SBD,M
Boys,67.13,6,Zach Walser,Canyon Randall,61.69,142.88,81.65,145.15,369.68,Single-ply,SBD,M
Boys,67.13,7,Hayden McCalib,Wolfforth Frenship,63.41,142.88,61.23,161.03,365.14,Single-ply,SBD,M
Boys,67.13,8,Mario Banos,Perryton,67.13,131.54,83.91,149.69,365.14,Single-ply,SBD,M
Boys,67.13,9,Michael Salinas,Ralls,65.86,127.01,79.38,117.93,324.32,Single-ply,SBD,M
Boys,67.13,10,Ross Rendon,Ralls,66.04,90.72,72.57,106.59,269.89,Single-ply,SBD,M
Boys,67.13,DQ,Peyton Ledbetter,Farwell,66.86,170.1,,,,Single-ply,SBD,M
Boys,74.84,1,Garron Weber,Borger,73.39,174.63,117.93,222.26,514.83,Single-ply,SBD,M
Boys,74.84,2,Tylor Genn,Memphis,72.48,165.56,124.74,158.76,449.06,Single-ply,SBD,M
Boys,74.84,3,Jesus Villarreal,Ralls,73.66,145.15,120.2,172.37,437.72,Single-ply,SBD,M
Boys,74.84,4,Estevan Gonzales,Dimmitt,74.39,151.95,86.18,197.31,435.45,Single-ply,SBD,M
Boys,74.84,5,Brad Scott,Canyon Randall,70.4,154.22,106.59,170.1,430.91,Single-ply,SBD,M
Boys,74.84,6,Jorge Martinez,Dimmitt,70.94,145.15,92.99,185.97,424.11,Single-ply,SBD,M
Boys,74.84,7,Oswaldo Snyder,Bovina,73.84,127.01,92.99,158.76,378.75,Single-ply,SBD,M
Boys,74.84,8,Miguel Rochel,Bovina,69.85,149.69,83.91,136.08,369.68,Single-ply,SBD,M
Boys,74.84,9,Julian Cruz,Friona,69.4,138.35,72.57,127.01,337.93,Single-ply,SBD,M
Boys,74.84,10,Abraham Navarro,Dimmitt,69.85,129.27,83.91,97.52,310.71,Single-ply,SBD,M
Boys,74.84,DQ,Marco Sanchez,Bovina,74.66,,,,,Single-ply,SBD,M
Boys,74.84,DQ,Diamond Drone,Amarillo Highland Park,73.66,,,,,Single-ply,SBD,M
Boys,74.84,DQ,Carson Gross,Amarillo River Road,67.95,,,,,Single-ply,SBD,M
Boys,74.84,DQ,CJ McDaniel,Borger,68.86,188.24,95.25,,,Single-ply,SBD,M
Boys,74.84,DQ,Matt Lopez,Ralls,71.21,,,,,Single-ply,SBD,M
Boys,74.84,DQ,Henry Torres,Perryton,74.84,,,,,Single-ply,SBD,M
Boys,82.1,1,Cutter Paris,Canyon Randall,81.37,195.04,115.67,188.24,498.95,Single-ply,SBD,M
Boys,82.1,2,DJ Petties,Dalhart,80.2,183.7,88.45,224.53,496.68,Single-ply,SBD,M
Boys,82.1,3,Michael Marquez,Levelland,79.56,181.44,99.79,176.9,458.13,Single-ply,SBD,M
Boys,82.1,4,Armando Ramos,Levelland,82.1,167.83,106.59,183.7,458.13,Single-ply,SBD,M
Boys,82.1,5,Omar Soto,Farwell,82.01,154.22,102.06,185.97,442.25,Single-ply,SBD,M
Boys,82.1,6,Quinten Johnson,Wolfforth Frenship,80.65,147.42,88.45,188.24,424.11,Single-ply,SBD,M
Boys,82.1,7,RJ Young,Wolfforth Frenship,77.75,158.76,90.72,161.03,410.5,Single-ply,SBD,M
Boys,82.1,8,Cameron Flores,Bovina,77.93,145.15,83.91,170.1,399.16,Single-ply,SBD,M
Boys,82.1,9,Edgar Granados,Perryton,79.83,142.88,81.65,170.1,394.63,Single-ply,SBD,M
Boys,82.1,10,Erick Prieto,Friona,82.01,111.13,79.38,127.01,317.51,Single-ply,SBD,M
Boys,82.1,11,Andrew Cigarroa,Friona,81.65,124.74,61.23,111.13,297.1,Single-ply,SBD,M
Boys,82.1,12,Jace Barnett,Panhandle,77.84,90.72,63.5,104.33,258.55,Single-ply,SBD,M
Boys,82.1,DQ,Jonathon Hernandez,Friona,82.01,124.74,,,,Single-ply,SBD,M
Boys,82.1,DQ,Gabriel Chico,Friona,80.92,,,,,Single-ply,SBD,M
Boys,82.1,DQ,Daniel Olivas,Hart,81.19,,,,,Single-ply,SBD,M
Boys,82.1,DQ,Alvaro Gardea,Friona,80.74,136.08,,172.37,,Single-ply,SBD,M
Boys,82.1,DQ,Cody Alexander,Dalhart,79.74,,,,,Single-ply,SBD,M
Boys,82.1,DQ,Pedro Villarreal,Ralls,76.75,163.29,106.59,,,Single-ply,SBD,M
Boys,89.81,1,Roy Flores,Levelland,84.82,226.8,142.88,238.14,607.81,Single-ply,SBD,M
Boys,89.81,2,Wesley Ward,Borger,86.91,185.97,104.33,204.12,494.42,Single-ply,SBD,M
Boys,89.81,3,Christian Perez,Levelland,87.63,174.63,97.52,204.12,476.27,Single-ply,SBD,M
Boys,89.81,4,Jacob Quesada,Bovina,84.28,161.03,104.33,195.04,460.4,Single-ply,SBD,M
Boys,89.81,5,Josh Garcia,Hart,85.09,158.76,106.59,181.44,446.79,Single-ply,SBD,M
Boys,89.81,6,Isaiah Williams,Wolfforth Frenship,87.82,149.69,102.06,183.7,435.45,Single-ply,SBD,M
Boys,89.81,7,Collin Barthlow,Panhandle,85.28,90.72,54.43,102.06,247.21,Single-ply,SBD,M
Boys,89.81,DQ,Cesar Olvera,Muleshoe,86.91,,,,,Single-ply,SBD,M
Boys,89.81,DQ,Adam Delgado,Wolfforth Frenship,85,156.49,,,,Single-ply,SBD,M
Boys,89.81,DQ,Joel Cigarroa,Friona,89.81,204.12,,,,Single-ply,SBD,M
Boys,99.79,1,Paul Ochoa,Levelland,98.97,285.76,183.7,219.99,689.46,Single-ply,SBD,M
Boys,99.79,2,Bolton Huerta,Wolfforth Frenship,97.07,224.53,115.67,231.33,571.53,Single-ply,SBD,M
Boys,99.79,3,Reyes Ferrusquia,Memphis,92.44,226.8,136.08,204.12,566.99,Single-ply,SBD,M
Boys,99.79,4,Asher Robinson,Wolfforth Frenship,99.79,192.78,131.54,231.33,555.65,Single-ply,SBD,M
Boys,99.79,5,Gage Alexander,Panhandle,98.61,199.58,127.01,219.99,546.58,Single-ply,SBD,M
Boys,99.79,6,Rey Dominguez,Plainview,99.43,204.12,120.2,210.92,535.24,Single-ply,SBD,M
Boys,99.79,7,Caden Lafever,Canyon Randall,92.44,190.51,129.27,208.65,528.44,Single-ply,SBD,M
Boys,99.79,8,Jose Morin,Memphis,98.16,165.56,158.76,204.12,528.44,Single-ply,SBD,M
Boys,99.79,9,Bradley Coward,Borger,95.89,195.04,147.42,183.7,526.17,Single-ply,SBD,M
Boys,99.79,10,Ezequiel Porras,Borger,97.34,219.99,127.01,172.37,519.36,Single-ply,SBD,M
Boys,99.79,11,Victor Del Fierro,Canyon Randall,99.79,190.51,133.81,181.44,505.76,Single-ply,SBD,M
Boys,99.79,12,Braden Price,Levelland,94.8,172.37,102.06,217.72,492.15,Single-ply,SBD,M
Boys,99.79,13,Uriel Hernandez,Perryton,97.52,199.58,99.79,183.7,483.08,Single-ply,SBD,M
Boys,99.79,14,Lance Lee,Wolfforth Frenship,93.44,149.69,106.59,222.26,478.54,Single-ply,SBD,M
Boys,99.79,15,Mario Becerrill,Perryton,99.16,192.78,104.33,179.17,476.27,Single-ply,SBD,M
Boys,99.79,16,Gage Morgan,Wolfforth Frenship,93.08,181.44,90.72,201.85,474,Single-ply,SBD,M
Boys,99.79,17,Israel Uribe,Perryton,98.16,190.51,77.11,204.12,471.74,Single-ply,SBD,M
Boys,99.79,18,Antonio Covarrubias,Perryton,96.62,176.9,104.33,185.97,467.2,Single-ply,SBD,M
Boys,99.79,19,Jose Salas,Dimmitt,95.98,158.76,104.33,192.78,455.86,Single-ply,SBD,M
Boys,99.79,20,Caleb Reynoso,Ralls,99.79,181.44,83.91,165.56,430.91,Single-ply,SBD,M
Boys,99.79,21,Jose Valles,Wolfforth Frenship,95.53,145.15,90.72,181.44,417.3,Single-ply,SBD,M
Boys,99.79,DQ,Hayden Putnam,Amarillo River Road,95.8,185.97,,,,Single-ply,SBD,M
Boys,99.79,DQ,Andrew Vasquez,Perryton,98.7,213.19,133.81,,,Single-ply,SBD,M
Boys,109.77,1,Octavius Vera,Plainview,104.96,249.48,129.27,210.92,589.67,Single-ply,SBD,M
Boys,109.77,2,Dakota McWhorter,Panhandle,105.14,233.6,138.35,215.46,587.4,Single-ply,SBD,M
Boys,109.77,3,Gage Holmes,Wolfforth Frenship,109.32,219.99,108.86,229.06,557.92,Single-ply,SBD,M
Boys,109.77,4,Eric Vela,Muleshoe,105.23,208.65,142.88,204.12,555.65,Single-ply,SBD,M
Boys,109.77,5,Jordan Hernandez,Wolfforth Frenship,102.06,183.7,108.86,183.7,476.27,Single-ply,SBD,M
Boys,109.77,6,Brady Cooke,Panhandle,108.41,199.58,95.25,158.76,453.59,Single-ply,SBD,M
Boys,109.77,7,Alejandro Simental,Perryton,106.23,183.7,90.72,170.1,444.52,Single-ply,SBD,M
Boys,109.77,8,Zach Morgan,Wolfforth Frenship,109.59,163.29,90.72,170.1,424.11,Single-ply,SBD,M
Boys,109.77,9,Mayson Dompe,Borger,109.32,136.08,77.11,142.88,356.07,Single-ply,SBD,M
Boys,109.77,DQ,Jesus Cervantes,Perryton,107.5,,,,,Single-ply,SBD,M
Boys,124.74,1,Camilo DeLaRosa,Bovina,122.11,258.55,147.42,238.14,644.1,Single-ply,SBD,M
Boys,124.74,2,Tomas Vidales,Levelland,122.74,242.67,147.42,219.99,610.08,Single-ply,SBD,M
Boys,124.74,3,Seth Greer,Clarendon,118.84,206.38,156.49,238.14,601.01,Single-ply,SBD,M
Boys,124.74,4,Marcos Bribiesca,Canyon Randall,124.47,238.14,136.08,226.8,601.01,Single-ply,SBD,M
Boys,124.74,5,Daniel Carrillo,Amarillo Highland Park,119.11,240.4,115.67,226.8,582.87,Single-ply,SBD,M
Boys,124.74,6,Damian Provencio,Borger,118.93,235.87,129.27,210.92,576.06,Single-ply,SBD,M
Boys,124.74,7,Lucas Flores,Wolfforth Frenship,113.94,222.26,111.13,213.19,546.58,Single-ply,SBD,M
Boys,124.74,8,Tytus Williams,Borger,114.31,206.38,113.4,158.76,478.54,Single-ply,SBD,M
Boys,124.74,9,Dillan Allen,Wolfforth Frenship,112.94,183.7,95.25,174.63,453.59,Single-ply,SBD,M
Boys,124.74,10,Miguel Davila,Friona,117.39,190.51,104.33,154.22,449.06,Single-ply,SBD,M
Boys,124.74,11,Dane Lewis,Wolfforth Frenship,113.94,158.76,86.18,183.7,428.64,Single-ply,SBD,M
Boys,124.74,DQ,Steven Noriega,Bovina,112.22,,,,,Single-ply,SBD,M
Boys,124.74,DQ,Britton Milbern,Amarillo River Road,115.58,,,,,Single-ply,SBD,M
Boys,124.74+,1,Stephen Mosier,Memphis,128.37,249.48,136.08,204.12,589.67,Single-ply,SBD,M
Boys,124.74+,2,Casey Stewart,Dalhart,125.37,249.48,138.35,197.31,585.13,Single-ply,SBD,M
Boys,124.74+,3,Justin Perez,Farwell,125.1,204.12,140.61,190.51,535.24,Single-ply,SBD,M
Boys,124.74+,4,Misael Grado,Dimmitt,145.78,208.65,120.2,188.24,517.1,Single-ply,SBD,M
Boys,124.74+,5,Jose Duran,Memphis,153.31,142.88,79.38,156.49,378.75,Single-ply,SBD,M
Boys,124.74+,6,Daniel Munoz,Memphis,135.71,142.88,74.84,149.69,367.41,Single-ply,SBD,M
Boys,124.74+,DQ,Vincent Romero,Levelland,125.46,204.12,,,,Single-ply,SBD,M
Boys,124.74+,DQ,Colby Roach,Panhandle,142.97,,,,,Single-ply,SBD,M
