Division,WeightClassKg,Place,Name,Team,BodyweightKg,Best3SquatKg,Best3BenchKg,Best3DeadliftKg,TotalKg,Equipment,Event,Sex
Girls,47.85,1,Megan Bailey,Karnes City,47.17,108.86,47.63,113.4,269.89,Single-ply,SBD,F
Girls,47.85,2,Alina Escamilla,Poteet,47.81,104.33,52.16,99.79,256.28,Single-ply,SBD,F
Girls,47.85,DQ,Alexia Dy,San Antonio Cole,46.72,122.47,,,,Single-ply,SBD,F
Girls,51.94,1,Regan Boissiere,Universal City Randolph,51.62,106.59,52.16,120.2,278.96,Single-ply,SBD,F
Girls,51.94,2,Raven Boissiere,Universal City Randolph,51.62,99.79,49.9,102.06,251.74,Single-ply,SBD,F
Girls,51.94,3,Ally Garcia,Poth,51.89,102.06,54.43,95.25,251.74,Single-ply,SBD,F
Girls,51.94,4,Kahlia Rodriguez,San Antonio Memorial,48.9,77.11,29.48,83.91,190.51,Single-ply,SBD,F
Girls,51.94,5,Aubry Reyes,Geronimo Navarro,48.26,68.04,34.02,63.5,165.56,Single-ply,SBD,F
Girls,51.94,6,Madyson Shad,Marion,51.94,49.9,29.48,68.04,147.42,Single-ply,SBD,F
Girls,51.94,DQ,Laura De Leon,San Antonio Cole,51.53,83.91,,,,Single-ply,SBD,F
Girls,56.02,1,Phaidra Malcher,Poth,55.07,127.01,77.11,117.93,322.05,Single-ply,SBD,F
Girls,56.02,2,Destinie Small,San Antonio Cole,52.98,129.27,58.97,131.54,319.78,Single-ply,SBD,F
Girls,56.02,3,Yesenia Rocha,San Antonio Cole,54.07,120.2,56.7,131.54,308.44,Single-ply,SBD,F
Girls,56.02,4,Serenity Alaniz,Karnes City,55.16,124.74,49.9,122.47,297.1,Single-ply,SBD,F
Girls,56.02,5,Gracelyn Snider,Castroville Medina Valley,55.79,106.59,49.9,104.33,260.82,Single-ply,SBD,F
Girls,56.02,6,Alex Petrie,Marion,55.7,90.72,49.9,99.79,240.4,Single-ply,SBD,F
Girls,56.02,DQ,Emma Baumi,Castroville Medina Valley,55.97,,,,,Single-ply,SBD,F
Girls,60.1,1,Emma Johnson,Poth,59.78,113.4,70.31,124.74,308.44,Single-ply,SBD,F
Girls,60.1,2,Brittany Kelley,Karnes City,58.42,127.01,54.43,113.4,294.84,Single-ply,SBD,F
Girls,60.1,3,Jessica Ayala,Stockdale,58.15,108.86,61.23,111.13,281.23,Single-ply,SBD,F
Girls,60.1,4,Kaylin Yanta,Poth,58.88,111.13,52.16,113.4,276.69,Single-ply,SBD,F
Girls,60.1,5,Casey Mathis,Karnes City,59.96,102.06,49.9,115.67,267.62,Single-ply,SBD,F
Girls,60.1,6,Marcella Johnson,Castroville Medina Valley,58.69,90.72,40.82,117.93,249.48,Single-ply,SBD,F
Girls,60.1,7,Jazmin Munoz,Geronimo Navarro,57.79,90.72,49.9,102.06,242.67,Single-ply,SBD,F
Girls,60.1,8,Lyzette Cruz,Castroville Medina Valley,58.06,92.99,45.36,95.25,233.6,Single-ply,SBD,F
Girls,60.1,9,Cassandra McHaney,Geronimo Navarro,57.15,88.45,40.82,92.99,222.26,Single-ply,SBD,F
Girls,60.1,10,Emma Kenny,Universal City Randolph,58.51,86.18,43.09,92.99,222.26,Single-ply,SBD,F
Girls,60.1,11,Ana Lopez,Karnes City,58.6,74.84,38.56,90.72,204.12,Single-ply,SBD,F
Girls,60.1,12,Nayeli Luna,San Antonio Memorial,56.79,63.5,,,63.5,Single-ply,S,F
Girls,67.36,1,Meranda Segura,Karnes City,63.14,131.54,61.23,131.54,324.32,Single-ply,SBD,F
Girls,67.36,2,Monique Avalos,Geronimo Navarro,63.41,111.13,58.97,122.47,292.57,Single-ply,SBD,F
Girls,67.36,3,Lee Ramirez,Karnes City,66.86,113.4,58.97,106.59,278.96,Single-ply,SBD,F
Girls,67.36,4,Samantha Ramos,Poteet,64.5,113.4,40.82,117.93,272.16,Single-ply,SBD,F
Girls,67.36,5,Imani Vincent,Geronimo Navarro,65.23,104.33,43.09,111.13,258.55,Single-ply,SBD,F
Girls,67.36,6,Brynn Stadtmueler,Geronimo Navarro,67.22,97.52,49.9,102.06,249.48,Single-ply,SBD,F
Girls,67.36,7,Isabella Rodriguez,Stockdale,64.5,99.79,43.09,104.33,247.21,Single-ply,SBD,F
Girls,67.36,8,Annaliese Andersen,Marion,66.41,97.52,40.82,108.86,247.21,Single-ply,SBD,F
Girls,67.36,9,Amara Davis,Universal City Randolph,66.5,90.72,43.09,106.59,240.4,Single-ply,SBD,F
Girls,67.36,10,Elizbeth Britt,Marion,65.68,97.52,36.29,92.99,226.8,Single-ply,SBD,F
Girls,67.36,11,Rihana Herrera,Poteet,66.86,65.77,49.9,83.91,199.58,Single-ply,SBD,F
Girls,67.36,12,Delaney Regalado,Stockdale,64.5,65.77,34.02,79.38,179.17,Single-ply,SBD,F
Girls,67.36,DQ,Patrisha Johnson,San Antonio Cole,66.86,92.99,,,,Single-ply,SBD,F
Girls,67.36,DQ,Amia Skeete,Universal City Randolph,65.32,,,,,Single-ply,SBD,F
Girls,75.07,1,T'Nia Sample,San Antonio Cole,68.13,170.1,77.11,165.56,412.77,Single-ply,SBD,F
Girls,75.07,2,Kinley Liska,Karnes City,74.39,136.08,81.65,131.54,349.27,Single-ply,SBD,F
Girls,75.07,3,Bianca Jijon,Castroville Medina Valley,73.3,129.27,54.43,145.15,328.85,Single-ply,SBD,F
Girls,75.07,4,Kayla DeLeon,Geronimo Navarro,74.66,106.59,54.43,113.4,274.42,Single-ply,SBD,F
Girls,75.07,5,Alyssa Gutierrez,Marion,73.03,102.06,43.09,108.86,254.01,Single-ply,SBD,F
Girls,75.07,6,Alena Davis,Universal City Randolph,68.04,95.25,56.7,99.79,251.74,Single-ply,SBD,F
Girls,75.07,7,Kyra Garcia,Poteet,69.76,90.72,47.63,113.4,251.74,Single-ply,SBD,F
Girls,75.07,8,Angela Hill,Marion,74.84,83.91,29.48,90.72,204.12,Single-ply,SBD,F
Girls,75.07,9,Mariah Vela,Stockdale,75.02,65.77,34.02,70.31,170.1,Single-ply,SBD,F
Girls,75.07,10,Amberlee Valadez,Stockdale,75.02,54.43,29.48,79.38,163.29,Single-ply,SBD,F
Girls,75.07,DQ,Jessica Stein,Castroville Medina Valley,72.48,,,,,Single-ply,SBD,F
Girls,82.33,1,Audrey Gonzales,Geronimo Navarro,79.11,149.69,72.57,156.49,378.75,Single-ply,SBD,F
Girls,82.33,2,Amanda Rivera,Poteet,78.65,170.1,58.97,124.74,353.8,Single-ply,SBD,F
Girls,82.33,3,Cassie Castro,Poth,80.29,161.03,61.23,122.47,344.73,Single-ply,SBD,F
Girls,82.33,4,Analiza Noguez,Stockdale,80.65,106.59,49.9,111.13,267.62,Single-ply,SBD,F
Girls,82.33,5,Lauryn Robledo,Geronimo Navarro,82.28,106.59,45.36,115.67,267.62,Single-ply,SBD,F
Girls,82.33,6,Lisa Vigil,San Antonio Memorial,76.66,81.65,45.36,104.33,231.33,Single-ply,SBD,F
Girls,90.04,1,Olivia Monsevais,Karnes City,88.63,133.81,70.31,131.54,335.66,Single-ply,SBD,F
Girls,90.04,2,Kassandra Luna,San Antonio Memorial,83.1,129.27,58.97,127.01,315.25,Single-ply,SBD,F
Girls,90.04,3,Regan Person,Geronimo Navarro,84.91,106.59,49.9,127.01,283.5,Single-ply,SBD,F
Girls,100.02,1,Jaylen Felan,Castroville Medina Valley,97.43,129.27,61.23,122.47,312.98,Single-ply,SBD,F
Girls,100.02,2,Darian De los Santos,Karnes City,96.98,92.99,45.36,120.2,258.55,Single-ply,SBD,F
Girls,100.02,3,Regina Alaniz,Castroville Medina Valley,94.98,95.25,58.97,102.06,256.28,Single-ply,SBD,F
Girls,100.02,4,Jenna Brady,San Antonio Memorial,99.06,90.72,40.82,120.2,251.74,Single-ply,SBD,F
Girls,100.02,5,Aurora Medrano,San Antonio Memorial,94.71,90.72,52.16,81.65,224.53,Single-ply,SBD,F
Girls,100.02,6,Sadie Tristan,Karnes City,96.34,79.38,43.09,86.18,208.65,Single-ply,SBD,F
Girls,100.02,DQ,Jaida White,Universal City Randolph,90.9,,,,,Single-ply,SBD,F
Girls,117.71,1,Charity Holland,Universal City Randolph,103.6,127.01,65.77,122.47,315.25,Single-ply,SBD,F
Girls,117.71,2,Sonya Sanchez,San Antonio Memorial,106.14,99.79,45.36,90.72,235.87,Single-ply,SBD,F
Girls,117.71,3,Kaylah Glaspie,Universal City Randolph,102.6,83.91,47.63,99.79,231.33,Single-ply,SBD,F
Girls,117.71+,DQ,Ana Santos,San Antonio Memorial,117.93,,,,,Single-ply,SBD,F
