Place,Name,CyrillicName,BirthYear,BodyweightKg,Sex,WeightClassKg,Best3SquatKg,Best3BenchKg,Best3DeadliftKg,TotalKg,Event,Equipment,Division
1,Valentina Vermenyuk,Валентина Верменюк,1986,46.35,F,48,165,92.5,165,422.5,SBD,Single-ply,Open
2,Yuliya Kovzalova,Юлия Ковзалова,1982,47.95,F,48,175,85,157.5,417.5,SBD,Single-ply,Open
3,Kadriya Murtazina,Кадрия Муртазина,1986,47.65,F,48,147.5,85,157.5,390,SBD,Single-ply,Open
4,Marina Nikiforova,Марина Никифорова,1983,47.7,F,48,155,80,127.5,362.5,SBD,Single-ply,Open
5,Oksana Ryzhenko,Оксана Рыженко,1975,45.05,F,48,142.5,85,132.5,360,SBD,Single-ply,Open
6,Anastasya Strufa,Анастасия Струфа,1986,44.75,F,48,140,70,125,335,SBD,Single-ply,Open
DQ,Marina Melyokhina,Марина Мелёхина,1986,47.75,F,48,142.5,,,,SBD,Single-ply,Open
DQ,Lyubov Potanina,Любовь Потанина,1984,47.9,F,48,155,,,,SBD,Single-ply,Open
1,Oksana Belova,Оксана Белова,1975,51.75,F,52,185,105,197.5,487.5,SBD,Single-ply,Open
2,Natalia Salnikova,Наталья Сальникова,1986,51.3,F,52,192.5,115,177.5,485,SBD,Single-ply,Open
3,Anna Komlaeva,Анна Комлаева,1979,51.5,F,52,190,95,170,455,SBD,Single-ply,Open
4,Alyona Maltseva,Алёна Мальцева,1984,52,F,52,175,90,160,425,SBD,Single-ply,Open
5,Irina Klishina,Ирина Клишина,1989,51.95,F,52,162.5,90,155,407.5,SBD,Single-ply,Open
6,Yuliya Vavilova,Юлия Вавилова,1979,51.75,F,52,155,85,160,400,SBD,Single-ply,Open
7,Tamara Ufimtseva,Тамара Уфимцева,1977,51.45,F,52,172.5,82.5,125,380,SBD,Single-ply,Open
8,Irina Ignatovich,Ирина Игнатович,1982,51.6,F,52,155,80,140,375,SBD,Single-ply,Open
9,Elena Shorokhova,Елена Шорохова,1985,51.95,F,52,137.5,70,135,342.5,SBD,Single-ply,Open
1,Anna Ryzhkova,Анна Рыжкова,1986,55.8,F,56,215,115,205,535,SBD,Single-ply,Open
2,Inna Filimonova #1,Инна Филимонова,1976,55.85,F,56,232.5,110,192.5,535,SBD,Single-ply,Open
3,Olga Kabanova,Ольга Кабанова,1978,56,F,56,192.5,115,170,477.5,SBD,Single-ply,Open
4,Marina Shevchenko,Марина Шевченко,1974,55.85,F,56,180,100,182.5,462.5,SBD,Single-ply,Open
5,Elena Kaneva,Елена Канева,1980,55.45,F,56,170,85,160,415,SBD,Single-ply,Open
6,Marina May,Марина Май,1986,55.15,F,56,140,60,130,330,SBD,Single-ply,Open
DQ,Maria Dubenskaya,Мария Дубенская,1988,55.95,F,56,162.5,87.5,,,SBD,Single-ply,Open
DQ,Olga Tysyachnaya,Ольга Тысячная,1981,55.65,F,56,170,,,,SBD,Single-ply,Open
DQ,Evgeniya Petrova,Евгения Петрова,1982,55.7,F,56,160,,,,SBD,Single-ply,Open
DQ,Nina Kondrashova,Нина Кондрашова,1960,56,F,56,170,,,,SBD,Single-ply,Open
DQ,Zinfira Islamova,Зинфира Исламова,1982,55.35,F,56,165,,,,SBD,Single-ply,Open
1,Irina Poletaeva,Ирина Полетаева,1982,59.75,F,60,227.5,160,197.5,585,SBD,Single-ply,Open
2,Yulia Lukina,Юлия Лукина,1988,60,F,60,217.5,140,200,557.5,SBD,Single-ply,Open
3,Kira Pavlovskaya,Кира Павловская,1983,59.95,F,60,207.5,122.5,210,540,SBD,Single-ply,Open
4,Tatyana Eltsova,Татьяна Ельцова,1978,59.15,F,60,207.5,130,185,522.5,SBD,Single-ply,Open
5,Viktoriya Nechaeva,Виктория Нечаева,1983,60,F,60,202.5,100,177.5,480,SBD,Single-ply,Open
6,Olga Rusanova,Ольга Русанова,1986,59.95,F,60,197.5,100,165,462.5,SBD,Single-ply,Open
7,Tatyana Pavlovskaya,Татьяна Павловская,1983,60,F,60,190,100,165,455,SBD,Single-ply,Open
8,Natalya Seryogina,Наталья Серёгина,1979,59.8,F,60,175,85,170,430,SBD,Single-ply,Open
9,Karina Alshevskaya,Карина Альшевская,1984,59.3,F,60,165,90,170,425,SBD,Single-ply,Open
10,Elvira Fattakhova,Эльвира Фаттахова,1988,60,F,60,175,85,155,415,SBD,Single-ply,Open
11,Natalya Arlyapova,Наталья Арляпова,1986,58.5,F,60,130,75,135,340,SBD,Single-ply,Open
DQ,Anastasiya Goch,Анастасия Гоч,1987,59.95,F,60,165,110,,,SBD,Single-ply,Open
1,Galina Potselueva,Галина Поцелуева,1980,67.45,F,67.5,260,152.5,222.5,635,SBD,Single-ply,Open
2,Marina Kudinova,Марина Кудинова,1977,67.4,F,67.5,250,135,215,600,SBD,Single-ply,Open
3,Maria Revva,Мария Ревва,1977,67.3,F,67.5,210,140,215,565,SBD,Single-ply,Open
4,Kseniya Petrova,Ксения Петрова,1981,67.1,F,67.5,205,130,190,525,SBD,Single-ply,Open
5,Olga Chuvilyova,Ольга Чувилёва,1979,66.6,F,67.5,217.5,110,175,502.5,SBD,Single-ply,Open
6,Lyubov Sosnovskaya,Любовь Сосновская,1986,67.2,F,67.5,197.5,107.5,167.5,472.5,SBD,Single-ply,Open
7,Irina Volkova,Ирина Волкова,1975,65.75,F,67.5,175,90,170,435,SBD,Single-ply,Open
8,Viktoriya Poltoratskaya,Виктория Полторацкая,1981,66.75,F,67.5,175,95,150,420,SBD,Single-ply,Open
9,Anna Ivanova,Анна Іванова,1987,66.9,F,67.5,150,70,145,365,SBD,Single-ply,Open
NS,Valentina Nelyubova,Валентина Нелюбова,1966,,F,67.5,,,,,SBD,Single-ply,Open
1,Olga Pantina,Ольга Пантина,1979,73.7,F,75,240,145,195,580,SBD,Single-ply,Open
2,Lyudmila Roshchina,Людмила Рощина,1983,74.2,F,75,200,102.5,170,472.5,SBD,Single-ply,Open
DQ,Zhanna Gorunovskaya,Жанна Горуновская,1983,72.3,F,75,205,,180,,SBD,Single-ply,Open
DQ,Yuliya Erogova,Юлия Ерогова,1982,73.4,F,75,180,,,,SBD,Single-ply,Open
1,Svetlana Dedyulya,Светлана Дедюля,1975,82.5,F,82.5,271,195,235,701,SBD,Single-ply,Open
2,Nadezhda Sindikas,Надежда Синдикас,1986,75.5,F,82.5,240,120,195,555,SBD,Single-ply,Open
3,Olesya Filipchuk,Олеся Филипчук,1974,81.4,F,82.5,210,130,210,550,SBD,Single-ply,Open
4,Evgeniya Dukachyova,Евгения Дукачёва,1983,80.45,F,82.5,225,122.5,200,547.5,SBD,Single-ply,Open
5,Anastasiya Kerbenko,Анастасия Кербенко,1990,79.95,F,82.5,180,92.5,157.5,430,SBD,Single-ply,Open
DQ,Svetlana Tsvetkova,Светлана Цветкова,1980,76.8,F,82.5,220,,230,,SBD,Single-ply,Open
NS,Larisa Yastrebova,Лариса Ястребова,1985,,F,82.5,,,,,SBD,Single-ply,Open
1,Valeria Shcheglova,Валерия Щеглова,1983,90,F,90,282.5,186,235,703.5,SBD,Single-ply,Open
2,Alina Polyanskaya,Алина Полянская,1984,86.85,F,90,252.5,115,212.5,580,SBD,Single-ply,Open
3,Evgeniya Shabanova,Евгения Шабанова,1977,82.55,F,90,202.5,135,180,517.5,SBD,Single-ply,Open
4,Nataliya Savinykh,Наталия Савиных,1985,82.95,F,90,215,110,170,495,SBD,Single-ply,Open
1,Irina Lugovaya,Ирина Луговая,1974,108.9,F,90+,285,200,245,730,SBD,Single-ply,Open
2,Galina Karpova,Галина Карпова,1968,126.75,F,90+,300,192.5,230,722.5,SBD,Single-ply,Open
3,Mariya Zyryanova,Мария Зырянова,1983,121,F,90+,175,135,190,500,SBD,Single-ply,Open
DQ,Tatyana Grigor,Татьяна Григорь,1970,104.25,F,90+,,170,,,SBD,Single-ply,Open
1,Sergey Fedosienko,Сергей Федосиенко,1982,54,M,56,285,165,260,710,SBD,Single-ply,Open
2,Andrey Svistunov,Андрей Свистунов,1977,55.8,M,56,215,132.5,215,562.5,SBD,Single-ply,Open
3,Veniamin Kurakin,Вениамин Куракин,1988,55.5,M,56,207.5,125,210,542.5,SBD,Single-ply,Open
4,Vladimir Druzhinin,Владимир Дружинин,1985,55.35,M,56,217.5,140,175,532.5,SBD,Single-ply,Open
5,Aleksey Korepanov,Алексей Корепанов,1989,55.4,M,56,187.5,125,170,482.5,SBD,Single-ply,Open
1,Konstantin Danilov,Константин Данилов,1986,59.35,M,60,287.5,170,275,732.5,SBD,Single-ply,Open
2,Sergey Gladkikh,Сергей Гладких,1989,59.95,M,60,280,180,265,725,SBD,Single-ply,Open
3,Alexander Kolbin,Александр Колбин,1987,59.8,M,60,275,162.5,275,712.5,SBD,Single-ply,Open
4,Mikhail Andryukhin,Михаил Андрюхин,1970,60,M,60,265,162.5,275,702.5,SBD,Single-ply,Open
1,Dmitriy Makarov,Дмитрий Макаров,1988,67.05,M,67.5,292.5,195,280,767.5,SBD,Single-ply,Open
2,Anton Krasilnikov,Антон Красильников,1987,66.8,M,67.5,305,195,257.5,757.5,SBD,Single-ply,Open
3,Nikolay Sokolov,Николай Соколов,1979,67.3,M,67.5,300,190,260,750,SBD,Single-ply,Open
4,Dmitriy Alekseev,Дмитрий Алексеев,1983,66.15,M,67.5,295,170,225,690,SBD,Single-ply,Open
5,Vitaliy Poberezhnyy,Виталий Побережный,1984,66.8,M,67.5,280,180,230,690,SBD,Single-ply,Open
6,Evgeniy Manyanov,Евгений Манянов,1988,67.25,M,67.5,275,165,250,690,SBD,Single-ply,Open
7,Pavel Chernikov,Павел Черников,1973,67.4,M,67.5,275,162.5,240,677.5,SBD,Single-ply,Open
8,Dmitriy Shkurnik,Дмитрий Шкурник,1987,67.05,M,67.5,250,175,250,675,SBD,Single-ply,Open
9,Ivan Mylnikov,Иван Мыльников,1986,64.8,M,67.5,275,165,220,660,SBD,Single-ply,Open
10,Aleksey Khankhaldov,Алексей Ханхалдов,1987,67.2,M,67.5,260,150,245,655,SBD,Single-ply,Open
11,Ilya Kolesov,Илья Колесов,1977,67.25,M,67.5,247.5,140,230,617.5,SBD,Single-ply,Open
DQ,Ivan Davydov,Иван Давыдов,1989,67.4,M,67.5,265,,,,SBD,Single-ply,Open
1,Pavel Ozerov,Павел Озеров,1980,74.95,M,75,325,215,305,845,SBD,Single-ply,Open
2,Alexander Govorin,Александр Говорин,1985,74.7,M,75,327.5,175,325,827.5,SBD,Single-ply,Open
3,Aleksandr Gromov,Александр Громов,1981,74.1,M,75,335,230,260,825,SBD,Single-ply,Open
4,Artyom Korotygin,Артём Коротыгин,1980,74.75,M,75,330,215,260,805,SBD,Single-ply,Open
5,Artyom Suvorov,Артём Суворов,1983,74.9,M,75,310,190,290,790,SBD,Single-ply,Open
6,Ilya Khariton,Илья Харитон,1987,74.4,M,75,315,180,275,770,SBD,Single-ply,Open
7,Denis Varyukhin,Денис Варюхин,1986,74.45,M,75,310,200,260,770,SBD,Single-ply,Open
8,Evgeniy Yatsyuk,Евгений Яцюк,1986,74.85,M,75,317.5,195,240,752.5,SBD,Single-ply,Open
9,Maksim Nurutdinov,Максим Нурутдинов,1982,72.85,M,75,315,170,265,750,SBD,Single-ply,Open
10,Konstantin Konyaev,Константин Коняев,1986,75,M,75,305,165,280,750,SBD,Single-ply,Open
11,Aleksandr Bykov,Александр Быков,1982,74.7,M,75,300,165,265,730,SBD,Single-ply,Open
12,Ivan Nesterov,Иван Нестеров,1988,73.2,M,75,290,160,260,710,SBD,Single-ply,Open
DQ,Sergey Bakhtin,Сергей Бахтин,1985,74.3,M,75,270,,,,SBD,Single-ply,Open
DQ,Konstantin Girin,Константин Гирин,1981,74.8,M,75,,,,,SBD,Single-ply,Open
1,Gennadiy Eryomin,Геннадий Ерёмин,1977,82.05,M,82.5,335,247.5,300,882.5,SBD,Single-ply,Open
2,Aleksey Ernandes-Ortega,Алексей Эрнандес-Ортега,1984,82.5,M,82.5,335,235,307.5,877.5,SBD,Single-ply,Open
3,Sergey Bogdanov,Сергей Богданов,1985,82.5,M,82.5,335,240,300,875,SBD,Single-ply,Open
4,Oleg Turov,Олег Туров,1979,82.4,M,82.5,345,200,315,860,SBD,Single-ply,Open
5,Anton Poptsov,Антон Попцов,1982,82.3,M,82.5,325,182.5,302.5,810,SBD,Single-ply,Open
6,Artyom Zaytsev,Артём Зайцев,1985,82.5,M,82.5,315,185,290,790,SBD,Single-ply,Open
7,Ruslan Sorokin,Руслан Сорокин,1983,81.4,M,82.5,300,190,280,770,SBD,Single-ply,Open
DQ,Aleksey Krivonogov,Алексей Кривоногов,1980,82.1,M,82.5,330,202.5,,,SBD,Single-ply,Open
DQ,Sergey Saranskiy,Сергей Саранский,1979,82.05,M,82.5,335,,,,SBD,Single-ply,Open
1,Andrey Belyaev,Андрей Беляев,1983,90,M,90,380,260,370,1010,SBD,Single-ply,Open
2,Dmitriy Stepanov,Дмитрий Степанов,1982,89.55,M,90,335,220,330,885,SBD,Single-ply,Open
3,Aleksandr Kokornov,Александр Кокорнов,1964,87.55,M,90,315,205,295,815,SBD,Single-ply,Open
4,Aleksandr Glushakov,Александр Глушаков,1979,89.95,M,90,300,205,300,805,SBD,Single-ply,Open
5,Gennadiy Danilov,Геннадій Данилов,1978,89.95,M,90,305,190,305,800,SBD,Single-ply,Open
6,Levon Tavakalov,Левон Тавакалов,1988,89.15,M,90,290,210,290,790,SBD,Single-ply,Open
DQ,Sergey Sukhodolin,Сергей Суходолин,1989,88.1,M,90,330,,,,SBD,Single-ply,Open
DQ,Igor Rudnev,Игорь Руднев,1983,87.8,M,90,320,,,,SBD,Single-ply,Open
DQ,Stepan Olennikov,Степан Оленников,1985,89.95,M,90,,,,,SBD,Single-ply,Open
NS,Valeriy Mameev,Валерий Мамеев,1988,,M,90,,,,,SBD,Single-ply,Open
DD,Dmitriy Belozyorov,Дмитрий Белозёров,1987,90,M,90,337.5,185,327.5,,SBD,Single-ply,Open
1,Konstantin Lebedko,Константин Лебедко,1981,98.4,M,100,365,275,350,990,SBD,Single-ply,Open
2,Andrey Tarasenko,Андрей Тарасенко,1975,94,M,100,387.5,252.5,340,980,SBD,Single-ply,Open
3,Aleksey Malunin,Алексей Малунин,1978,99.7,M,100,370,260,320,950,SBD,Single-ply,Open
4,Ivan Solovyov,Иван Соловьёв,1984,99.9,M,100,375,240,320,935,SBD,Single-ply,Open
5,Dmitriy Popov,Дмитрий Попов,1987,99.3,M,100,340,237.5,300,877.5,SBD,Single-ply,Open
6,Nikolay Uglyankin,Николай Углянкин,1967,99.05,M,100,340,225,300,865,SBD,Single-ply,Open
DQ,Anatoliy Arkhangelskiy,Анатолий Архангельский,1979,98,M,100,372.5,,,,SBD,Single-ply,Open
DQ,Viktor Koltakov,Виктор Колтаков,1981,98.95,M,100,,,,,SBD,Single-ply,Open
DQ,Pavel Golovko,Павел Головко,1976,98.95,M,100,312.5,,,,SBD,Single-ply,Open
DQ,Vitaliy Svininov,Виталий Свининов,1986,95.2,M,100,325,,,,SBD,Single-ply,Open
1,Maxim Barkhatov,Максим Бархатов,1981,109.15,M,110,400,245,370,1015,SBD,Single-ply,Open
2,Evgeniy Kovalkov,Евгений Ковальков,1982,108.9,M,110,370,245,340,955,SBD,Single-ply,Open
3,Dmitriy Reshetov,Дмитрий Решетов,1974,109.25,M,110,315,257.5,322.5,895,SBD,Single-ply,Open
4,Mikhail Chukhontsev,Михаил Чухонцев,1979,105.15,M,110,330,225,310,865,SBD,Single-ply,Open
5,Evgeniy Kurtsev,Евгений Курцев,1971,109.5,M,110,330,240,280,850,SBD,Single-ply,Open
6,Dmitriy Usov,Дмитрий Усов,1990,107.6,M,110,305,170,280,755,SBD,Single-ply,Open
DQ,Andrey Shurbenkov,Андрей Шурбенков,1979,109.15,M,110,,260,345,,SBD,Single-ply,Open
DQ,Vladimir Kondratovich,Владимир Кондратович,1983,100.6,M,110,,250,,,SBD,Single-ply,Open
DQ,Maksim Salnikov,Максим Сальников,1981,108.95,M,110,,,,,SBD,Single-ply,Open
DD,Renad Akhmetov,Ренад Ахметов,1961,109.9,M,110,310,230,300,,SBD,Single-ply,Open
1,Igor Gagin,Игорь Гагин,1969,124,M,125,420,270,350,1040,SBD,Single-ply,Open
2,Nikolay Suslov,Николай Суслов,1979,117.3,M,125,400,275,345,1020,SBD,Single-ply,Open
3,Tamerlan Bashkhadzhiev,Тамерлан Башхаджиев,1978,123,M,125,390,270,350,1010,SBD,Single-ply,Open
4,Timur Gadiev,Тимур Гадиев,1985,123.7,M,125,370,250,315,935,SBD,Single-ply,Open
5,Yuriy Musikhin,Юрий Мусихин,1984,122.45,M,125,355,225,345,925,SBD,Single-ply,Open
6,Mikhail Viasovskiy,Михаил Виасовский,1984,123.45,M,125,365,220,320,905,SBD,Single-ply,Open
7,Evgeniy Aybulatov,Евгений Айбулатов,1979,118.9,M,125,370,200,310,880,SBD,Single-ply,Open
8,Aleksandr Chervyakov,Александр Червяков,1988,111.95,M,125,310,217.5,320,847.5,SBD,Single-ply,Open
DQ,Igor Prokhorov,Игорь Прохоров,1976,116.45,M,125,355,,,,SBD,Single-ply,Open
DQ,Aleksey Lipatov,Алексей Липатов,1976,114.5,M,125,,,,,SBD,Single-ply,Open
1,Andrey Malanichev,Андрей Маланичев,1977,128.1,M,125+,430,290,402.5,1122.5,SBD,Single-ply,Open
2,Anton Kibirev,Антон Кибирев,1982,137.9,M,125+,420,275,350,1045,SBD,Single-ply,Open
3,Oleg Gagin,Олег Гагин,1975,163.2,M,125+,420,275,322.5,1017.5,SBD,Single-ply,Open
4,Sergey Surov,Сергей Суров,1974,135,M,125+,405,295,315,1015,SBD,Single-ply,Open
5,Sergey Melnikov,Сергей Мельников,1985,142.1,M,125+,402.5,215,330,947.5,SBD,Single-ply,Open
6,Dmitriy Ivanov,Дмитрий Иванов,1984,147.6,M,125+,387.5,220,320,927.5,SBD,Single-ply,Open
7,Aleksey Mikhalyov,Алексей Михалёв,1984,142.8,M,125+,350,260,285,895,SBD,Single-ply,Open
8,Aleksandr Berezin,Александр Березин,1974,141.3,M,125+,220,305,240,765,SBD,Single-ply,Open
9,Dmitriy Chechurin,Дмитрий Чечурин,1977,135.65,M,125+,200,275,260,735,SBD,Single-ply,Open
NS,Andrey Reshetnyak,Андрей Решетняк,1979,,M,125+,,,,,SBD,Single-ply,Open
