Division,WeightClassKg,Place,Name,Team,BodyweightKg,Best3SquatKg,Best3BenchKg,Best3DeadliftKg,TotalKg,Equipment,Event,Sex
Boys,51.71,1,Anthony Garcia,Weslaco,50.85,158.76,97.52,174.63,430.91,Single-ply,SBD,M
Boys,51.71,2,Leo Alaniz,Brownsville Lopez,51.53,142.88,92.99,165.56,401.43,Single-ply,SBD,M
Boys,51.71,3,Alex Mena,Weslaco,51.71,142.88,77.11,145.15,365.14,Single-ply,SBD,M
Boys,51.71,4,Bradley Salinas,Brownsville Porter,51.17,136.08,83.91,136.08,356.07,Single-ply,SBD,M
Boys,51.71,5,Rey Martinez,Santa Rosa,51.62,124.74,74.84,154.22,353.8,Single-ply,SBD,M
Boys,51.71,6,Devon Vela,Edinburg Vela,51.71,99.79,61.23,136.08,297.1,Single-ply,SBD,M
Boys,51.71,7,Cristobal DeLeon,La Villa,47.22,54.43,29.48,63.5,147.42,Single-ply,SBD,M
Boys,51.71,DQ,Isaiah Trevino,McAllen,51.35,99.79,,,,Single-ply,SBD,M
Boys,55.79,1,Alex Berrones,Brownsville Lopez,53.16,161.03,102.06,210.92,474,Single-ply,SBD,M
Boys,55.79,2,Joel Sanchez,Brownsville Veterans Memorial,55.43,176.9,88.45,185.97,451.32,Single-ply,SBD,M
Boys,55.79,3,Misael Marquez,Brownsville Pace,55.25,179.17,102.06,149.69,430.91,Single-ply,SBD,M
Boys,55.79,4,Joseph Serino,Brownsville Hanna,55.57,149.69,95.25,156.49,401.43,Single-ply,SBD,M
Boys,55.79,5,Jose Quintero,Brownsville Lopez,55.47,142.88,90.72,151.95,385.55,Single-ply,SBD,M
Boys,55.79,6,Ivan Tafolla,Weslaco,52.71,136.08,65.77,149.69,351.53,Single-ply,SBD,M
Boys,55.79,7,Josue Morin,PSJA North,55.34,113.4,81.65,138.35,333.39,Single-ply,SBD,M
Boys,55.79,8,Anthony Soriano,Brownsville Porter,54.3,124.74,63.5,142.88,331.12,Single-ply,SBD,M
Boys,55.79,9,Ruben Saenz III,McAllen Rowe,53.71,81.65,54.43,102.06,238.14,Single-ply,SBD,M
Boys,55.79,DQ,Christian Vega,Edinburg Vela,54.39,,,,,Single-ply,SBD,M
Boys,55.79,DQ,Zeke Rocha,Rio Hondo,54.88,124.74,61.23,,,Single-ply,SBD,M
Boys,55.79,DQ,Alexis Galindo,McAllen Memorial,55.02,,,,,Single-ply,SBD,M
Boys,59.87,1,Juan Rivera,Los Fresnos,59.74,213.19,142.88,229.06,585.13,Single-ply,SBD,M
Boys,59.87,2,Jose Alvarado #2,Brownsville Lopez,59.06,215.46,120.2,197.31,532.97,Single-ply,SBD,M
Boys,59.87,3,Damien Palomo,Weslaco,59.47,151.95,79.38,185.97,417.3,Single-ply,SBD,M
Boys,59.87,4,Angel Reyes,Brownsville Porter,58.06,129.27,77.11,183.7,390.09,Single-ply,SBD,M
Boys,59.87,5,Saul Dominguez,Edinburg Vela,59.87,111.13,86.18,158.76,356.07,Single-ply,SBD,M
Boys,59.87,6,Adrian Guerrero,Brownsville Porter,59.87,122.47,70.31,156.49,349.27,Single-ply,SBD,M
Boys,59.87,7,Denilson Guevara,PSJA North,57.11,108.86,86.18,149.69,344.73,Single-ply,SBD,M
Boys,59.87,8,Mike Cardoza,Brownsville Veterans Memorial,59.24,124.74,70.31,147.42,342.46,Single-ply,SBD,M
Boys,59.87,9,Christopher Payen,McAllen Memorial,56.25,102.06,86.18,136.08,324.32,Single-ply,SBD,M
Boys,59.87,10,Jesus Rosillo,McAllen,56.7,102.06,58.97,106.59,267.62,Single-ply,SBD,M
Boys,59.87,DQ,Jacob Zuniga,San Benito,59.1,,,,,Single-ply,SBD,M
Boys,59.87,DQ,Francisco Guevara,Edinburg Vela,57.61,,,,,Single-ply,SBD,M
Boys,67.13,1,Danny Diaz,Brownsville Lopez,65.45,242.67,142.88,233.6,619.15,Single-ply,SBD,M
Boys,67.13,2,Hugo Salas,Brownsville Lopez,66.5,231.33,120.2,219.99,571.53,Single-ply,SBD,M
Boys,67.13,3,Sammy Cruz,Los Fresnos,66.41,188.24,120.2,208.65,517.1,Single-ply,SBD,M
Boys,67.13,4,Mike Reyes,Brownsville Porter,66.22,172.37,117.93,199.58,489.88,Single-ply,SBD,M
Boys,67.13,5,Gerardo Segura,Brownsville Pace,67,192.78,102.06,195.04,489.88,Single-ply,SBD,M
Boys,67.13,6,Jesus Sandoval,Brownsville Pace,66.13,161.03,115.67,183.7,460.4,Single-ply,SBD,M
Boys,67.13,7,Ricky Cuellar,Brownsville Pace,60.83,165.56,95.25,161.03,421.84,Single-ply,SBD,M
Boys,67.13,8,Juan Arredondo,McAllen Memorial,66.81,151.95,97.52,172.37,421.84,Single-ply,SBD,M
Boys,67.13,9,Marcelo Pintos,McAllen Memorial,67.13,165.56,95.25,156.49,417.3,Single-ply,SBD,M
Boys,67.13,10,Eddie Castillo,Brownsville Veterans Memorial,66.5,147.42,92.99,167.83,408.23,Single-ply,SBD,M
Boys,67.13,11,Tony Barrera,Weslaco,65.63,142.88,86.18,172.37,401.43,Single-ply,SBD,M
Boys,67.13,12,Kiplin Calahan,McAllen,67.09,142.88,83.91,158.76,385.55,Single-ply,SBD,M
Boys,67.13,13,Jesse Pena,San Benito,66,147.42,92.99,138.35,378.75,Single-ply,SBD,M
Boys,67.13,14,Santiago Salinas,Santa Rosa,63.41,113.4,92.99,133.81,340.19,Single-ply,SBD,M
Boys,67.13,DQ,Eric Tong,Brownsville Hanna,67.13,,,,,Single-ply,SBD,M
Boys,74.84,1,Jacob Gracia,Weslaco,73.62,226.8,133.81,238.14,598.74,Single-ply,SBD,M
Boys,74.84,2,Arturo Mancias,Brownsville Hanna,72.76,224.53,129.27,231.33,585.13,Single-ply,SBD,M
Boys,74.84,3,Frank Marin,Weslaco,70.49,201.85,122.47,204.12,528.44,Single-ply,SBD,M
Boys,74.84,4,Edward Alvarez,San Benito,74.57,195.04,127.01,183.7,505.76,Single-ply,SBD,M
Boys,74.84,5,John Acuna,Brownsville Porter,73.48,165.56,104.33,192.78,462.66,Single-ply,SBD,M
Boys,74.84,6,Francisco Gutierrez,McAllen,72.3,170.1,117.93,172.37,460.4,Single-ply,SBD,M
Boys,74.84,7,Dominic Ramos,Rio Hondo,69.72,165.56,115.67,174.63,455.86,Single-ply,SBD,M
Boys,74.84,8,Roman Villarreal,McAllen Rowe,72.53,163.29,115.67,165.56,444.52,Single-ply,SBD,M
Boys,74.84,9,Steven Hernan,San Benito,68.04,145.15,92.99,181.44,419.57,Single-ply,SBD,M
Boys,74.84,10,Jonathan Elizondo,Santa Rosa,68.04,140.61,99.79,176.9,417.3,Single-ply,SBD,M
Boys,74.84,11,Jose Barrera,McAllen Rowe,67.36,117.93,104.33,154.22,376.48,Single-ply,SBD,M
Boys,74.84,12,Chris Hill,Edinburg Vela,69.22,102.06,92.99,163.29,358.34,Single-ply,SBD,M
Boys,74.84,13,Jacob Rodriguez,Brownsville Veterans Memorial,70.53,104.33,61.23,145.15,310.71,Single-ply,SBD,M
Boys,74.84,DQ,Joshua Trevino,Santa Rosa,70.9,129.27,,,,Single-ply,SBD,M
Boys,74.84,DQ,Israel Estrada,PSJA North,74.84,,,,,Single-ply,SBD,M
Boys,74.84,DQ,Julian Hernandez,McAllen Memorial,72.94,,,,,Single-ply,SBD,M
Boys,74.84,DQ,John Salazar,Los Fresnos,71.67,,,,,Single-ply,SBD,M
Boys,74.84,DQ,Rogelio Pulido,Brownsville Lopez,74.66,,,,,Single-ply,SBD,M
Boys,74.84,DQ,David Belland,Edinburg Idea College Prep,70.13,122.47,,,,Single-ply,SBD,M
Boys,74.84,DQ,Nacho Guevarra,Brownsville Pace,73.8,,,,,Single-ply,SBD,M
Boys,74.84,DQ,Israel Vasquez,Santa Rosa,71.3,,,,,Single-ply,SBD,M
Boys,82.1,1,Fabian Rodriguez,Los Fresnos,81.19,249.48,149.69,251.74,650.91,Single-ply,SBD,M
Boys,82.1,2,Ramon Delgado,Brownsville Hanna,82.1,244.94,129.27,222.26,596.47,Single-ply,SBD,M
Boys,82.1,3,Felix Garza,Edinburg Vela,81.42,174.63,138.35,215.46,528.44,Single-ply,SBD,M
Boys,82.1,4,Gio Martinez,Brownsville Porter,80.29,188.24,115.67,219.99,523.9,Single-ply,SBD,M
Boys,82.1,5,Bryan Leal,Weslaco,82.1,192.78,124.74,195.04,512.56,Single-ply,SBD,M
Boys,82.1,6,Andrew Leija,PSJA North,81.42,181.44,120.2,204.12,505.76,Single-ply,SBD,M
Boys,82.1,7,Richard Reza,San Benito,79.11,188.24,124.74,183.7,496.68,Single-ply,SBD,M
Boys,82.1,8,Sergio Vela,Brownsville Veterans Memorial,81.28,201.85,117.93,176.9,496.68,Single-ply,SBD,M
Boys,82.1,9,Justin Flores,Rio Hondo,82.1,174.63,124.74,172.37,471.74,Single-ply,SBD,M
Boys,82.1,10,Albert Zurita,Brownsville Pace,82.05,170.1,99.79,185.97,455.86,Single-ply,SBD,M
Boys,82.1,11,Justin Rodriguez,Santa Rosa,78.29,172.37,99.79,172.37,444.52,Single-ply,SBD,M
Boys,82.1,12,Jose Cayetano,Port Isabel,82.01,165.56,92.99,183.7,442.25,Single-ply,SBD,M
Boys,82.1,13,Juan Sanchez,Brownsville Porter,80.74,183.7,86.18,167.83,437.72,Single-ply,SBD,M
Boys,82.1,14,Julian Rodriguez,Edinburg Idea College Prep,80.24,88.45,77.11,117.93,283.5,Single-ply,SBD,M
Boys,82.1,15,John Contreras,La Villa,77.25,79.38,45.36,86.18,210.92,Single-ply,SBD,M
Boys,82.1,DQ,Tagan Wise Herring,Port Isabel,77.52,,,,,Single-ply,SBD,M
Boys,82.1,DQ,Gaston Castellanos,Rio Hondo,80.97,,,,,Single-ply,SBD,M
Boys,89.81,1,Danny Ramos,Brownsville Lopez,89.45,260.82,149.69,251.74,662.24,Single-ply,SBD,M
Boys,89.81,2,Pablo Garza,Brownsville Pace,85.73,244.94,151.95,226.8,623.69,Single-ply,SBD,M
Boys,89.81,3,Alexis Olalde,Brownsville Lopez,88.77,240.4,124.74,235.87,601.01,Single-ply,SBD,M
Boys,89.81,4,John Ray Martinez,Port Isabel,87.14,242.67,147.42,206.38,596.47,Single-ply,SBD,M
Boys,89.81,5,Juan Aguirre,San Benito,89.81,204.12,140.61,235.87,580.6,Single-ply,SBD,M
Boys,89.81,6,Robert Rivas,Brownsville Porter,86.45,217.72,131.54,222.26,571.53,Single-ply,SBD,M
Boys,89.81,7,Javier Sanchez,Weslaco,86.45,215.46,131.54,219.99,566.99,Single-ply,SBD,M
Boys,89.81,8,Jesse Luna,Brownsville Lopez,87.77,217.72,120.2,192.78,530.7,Single-ply,SBD,M
Boys,89.81,9,Mario Cervantes,McAllen Rowe,89.04,172.37,113.4,208.65,494.42,Single-ply,SBD,M
Boys,89.81,10,Tristan Nino,Edinburg Vela,85.59,183.7,127.01,179.17,489.88,Single-ply,SBD,M
Boys,89.81,11,Sanden Yarto,McAllen,88.04,183.7,115.67,185.97,485.34,Single-ply,SBD,M
Boys,89.81,12,Alex Gonzalez,Brownsville Veterans Memorial,88.54,213.19,102.06,165.56,480.81,Single-ply,SBD,M
Boys,89.81,13,Ernest Ortiz,Brownsville Veterans Memorial,84.37,181.44,90.72,197.31,469.47,Single-ply,SBD,M
Boys,89.81,14,Antonio Rodriguez,McAllen,88.13,174.63,104.33,183.7,462.66,Single-ply,SBD,M
Boys,89.81,15,Jose Rangel,La Villa,87.09,179.17,86.18,154.22,419.57,Single-ply,SBD,M
Boys,89.81,16,Steven Flores-Smith,McAllen Rowe,84.28,131.54,131.54,154.22,417.3,Single-ply,SBD,M
Boys,89.81,DQ,Esai Camacho,Port Isabel,87.18,,,,,Single-ply,SBD,M
Boys,89.81,DQ,John Belmares,San Benito,88.68,,,,,Single-ply,SBD,M
Boys,89.81,DQ,Nathan Silva,Brownsville Hanna,88.13,,,,,Single-ply,SBD,M
Boys,99.79,1,Leo Gonzalez,Brownsville Hanna,92.99,240.4,142.88,251.74,635.03,Single-ply,SBD,M
Boys,99.79,2,Rafa Pena,Brownsville Hanna,97.39,267.62,136.08,215.46,619.15,Single-ply,SBD,M
Boys,99.79,3,Matt Torres,San Benito,94.35,249.48,142.88,222.26,614.62,Single-ply,SBD,M
Boys,99.79,4,David Cardenas,Brownsville Pace,95.21,247.21,122.47,235.87,605.55,Single-ply,SBD,M
Boys,99.79,5,Ricky Arreola,Brownsville Hanna,97.93,240.4,147.42,195.04,582.87,Single-ply,SBD,M
Boys,99.79,6,Ryan Elizondo,San Benito,98.61,258.55,113.4,199.58,571.53,Single-ply,SBD,M
Boys,99.79,7,Daniel Gonzalez,Brownsville Pace,99.2,263.08,127.01,181.44,571.53,Single-ply,SBD,M
Boys,99.79,8,Ralph Montemayor,Edinburg Vela,97.61,210.92,142.88,210.92,564.72,Single-ply,SBD,M
Boys,99.79,9,Eddie Galvan,Brownsville Hanna,95.16,208.65,113.4,183.7,505.76,Single-ply,SBD,M
Boys,99.79,10,Lupe Garcia,Rio Hondo,99.56,192.78,102.06,210.92,505.76,Single-ply,SBD,M
Boys,99.79,11,Christian Badillo,Santa Rosa,92.76,190.51,90.72,192.78,474,Single-ply,SBD,M
Boys,99.79,12,Lee Lozano,Brownsville Porter,91.76,199.58,92.99,179.17,471.74,Single-ply,SBD,M
Boys,99.79,13,Eric Curiel,San Benito,96.21,188.24,113.4,158.76,460.4,Single-ply,SBD,M
Boys,99.79,14,Amadeo Salinas,McAllen,92.76,165.56,127.01,165.56,458.13,Single-ply,SBD,M
Boys,99.79,15,Lorenzo Ortiz,Santa Rosa,98.52,176.9,111.13,163.29,451.32,Single-ply,SBD,M
Boys,99.79,16,Sergio Valdez,McAllen Rowe,99.52,147.42,113.4,174.63,435.45,Single-ply,SBD,M
Boys,99.79,17,Norberto Salinas,McAllen Rowe,96.8,136.08,111.13,165.56,412.77,Single-ply,SBD,M
Boys,99.79,18,Victor Torres,Santa Rosa,93.85,136.08,79.38,138.35,353.8,Single-ply,SBD,M
Boys,99.79,DQ,Jose Hernandez,La Villa,98.07,147.42,,,,Single-ply,SBD,M
Boys,99.79,DQ,Joey Ramirez,La Villa,95.93,147.42,,,,Single-ply,SBD,M
Boys,109.77,1,Diego Lopez,PSJA North,109.5,244.94,142.88,238.14,625.96,Single-ply,SBD,M
Boys,109.77,2,Jonas Garza,Brownsville Pace,106.87,240.4,136.08,215.46,591.94,Single-ply,SBD,M
Boys,109.77,3,Jonathan Ojeda,Brownsville Pace,107.41,254.01,117.93,213.19,585.13,Single-ply,SBD,M
Boys,109.77,4,Wally Santamaria,Los Fresnos,106.23,217.72,124.74,229.06,571.53,Single-ply,SBD,M
Boys,109.77,5,Alan Hernandez #2,McAllen Rowe,109.04,197.31,140.61,217.72,555.65,Single-ply,SBD,M
Boys,109.77,6,Victor Garza,Santa Rosa,107.32,185.97,102.06,199.58,487.61,Single-ply,SBD,M
Boys,109.77,7,Ernie Cantu,Edinburg Vela,109.68,165.56,117.93,183.7,467.2,Single-ply,SBD,M
Boys,109.77,8,Francisco Barcenas,Brownsville Veterans Memorial,105.19,142.88,117.93,190.51,451.32,Single-ply,SBD,M
Boys,109.77,9,Hiram Chavez,McAllen Rowe,104.78,145.15,108.86,156.49,410.5,Single-ply,SBD,M
Boys,109.77,10,Adrian Moreno,Santa Rosa,103.15,115.67,83.91,136.08,335.66,Single-ply,SBD,M
Boys,109.77,DQ,Freddy Martinez,Los Fresnos,108.77,,,,,Single-ply,SBD,M
Boys,124.74,1,Virgil Munoz,Los Fresnos,120.75,274.42,165.56,219.99,659.98,Single-ply,SBD,M
Boys,124.74,2,Rudy De La Torre,Weslaco,122.38,285.76,136.08,213.19,635.03,Single-ply,SBD,M
Boys,124.74,3,Sammy De Leon,Brownsville Veterans Memorial,112.85,249.48,161.03,222.26,632.76,Single-ply,SBD,M
Boys,124.74,4,Ramiro Reza,San Benito,124.74,267.62,158.76,204.12,630.49,Single-ply,SBD,M
Boys,124.74,5,Adrian Arredondo,Brownsville Hanna,114.53,256.28,156.49,215.46,628.23,Single-ply,SBD,M
Boys,124.74,6,Pablo Trevino,Edinburg Vela,121.29,226.8,151.95,226.8,605.55,Single-ply,SBD,M
Boys,124.74,7,Jaime Longoria,Los Fresnos,121.29,267.62,127.01,206.38,601.01,Single-ply,SBD,M
Boys,124.74,8,Andres Alaniz,Rio Hondo,116.39,210.92,136.08,238.14,585.13,Single-ply,SBD,M
Boys,124.74,9,Juan Mireles,Port Isabel,116.03,238.14,133.81,206.38,578.33,Single-ply,SBD,M
Boys,124.74,10,Ian Torres,Port Isabel,112.4,215.46,140.61,215.46,571.53,Single-ply,SBD,M
Boys,124.74,11,Aaron Hernandez,Port Isabel,112.94,206.38,142.88,192.78,542.04,Single-ply,SBD,M
Boys,124.74,12,Arturo Ochoa,McAllen,122.02,215.46,147.42,174.63,537.51,Single-ply,SBD,M
Boys,124.74,13,Sam Olivarez,Santa Rosa,115.67,215.46,113.4,204.12,532.97,Single-ply,SBD,M
Boys,124.74,14,Alex Gonzalez,Edinburg Vela,117.66,204.12,124.74,201.85,530.7,Single-ply,SBD,M
Boys,124.74,15,Troy Macias,Rio Hondo,118.57,192.78,124.74,204.12,521.63,Single-ply,SBD,M
Boys,124.74,16,Gerardo Lopez,McAllen,114.21,204.12,124.74,142.88,471.74,Single-ply,SBD,M
Boys,124.74,17,Ben Flores,Rio Hondo,120.84,174.63,104.33,158.76,437.72,Single-ply,SBD,M
Boys,124.74+,1,Jimmy De Leon,Brownsville Veterans Memorial,171,340.19,174.63,249.48,764.3,Single-ply,SBD,M
Boys,124.74+,2,Josh Trevino,Brownsville Lopez,141.48,281.23,174.63,256.28,712.14,Single-ply,SBD,M
Boys,124.74+,3,Brandon Perez,Weslaco,158.94,278.96,154.22,229.06,662.24,Single-ply,SBD,M
Boys,124.74+,4,Aaron Rivera,McAllen Rowe,164.65,217.72,172.37,224.53,614.62,Single-ply,SBD,M
Boys,124.74+,5,Zach Hettler,McAllen,136.89,165.56,133.81,142.88,442.25,Single-ply,SBD,M
