Division,WeightClassKg,Place,Name,Team,BodyweightKg,Best3SquatKg,Best3BenchKg,Best3DeadliftKg,TotalKg,Equipment,Event,Sex
Boys,51.71,1,Cooper Macaulay,Everman,50.53,104.33,63.5,120.2,288.03,Single-ply,SBD,M
Boys,51.71,2,Jameson Donahue,Carrollton Turner,50.94,90.72,58.97,108.86,258.55,Single-ply,SBD,M
Boys,51.71,3,Brandon Horst,Sanger,45,102.06,52.16,95.25,249.48,Single-ply,SBD,M
Boys,51.71,4,Lucky Del Valle,Hurst Bell,51.17,86.18,54.43,99.79,240.4,Single-ply,SBD,M
Boys,51.71,5,Ace Conde,Carrollton Turner,37.15,36.29,29.48,34.02,99.79,Single-ply,SBD,M
Boys,51.71,DQ,Matthew Pezoa,Carrollton Turner,51.57,127.01,,,,Single-ply,SBD,M
Boys,55.79,1,Michael Parsons,Bishop Lynch,54.61,147.42,79.38,151.95,378.75,Single-ply,SBD,M
Boys,55.79,2,Anthony Nixon,Everman,53.8,133.81,63.5,161.03,358.34,Single-ply,SBD,M
Boys,55.79,3,Ivan Shepherd,Cedar Hill,53.98,129.27,79.38,149.69,358.34,Single-ply,SBD,M
Boys,55.79,4,Jeremy Cuellor,Denison,54.02,115.67,79.38,136.08,331.12,Single-ply,SBD,M
Boys,55.79,5,Treavon Jones,Carrollton Turner,55.57,77.11,63.5,92.99,233.6,Single-ply,SBD,M
Boys,59.87,1,Edgar Aguirre,Everman,56.93,133.81,86.18,163.29,383.29,Single-ply,SBD,M
Boys,59.87,2,Dacion Brown,Fort Worth Arlington Heights,56.7,136.08,95.25,149.69,381.02,Single-ply,SBD,M
Boys,59.87,3,Joseph Terrance,Mansfield Timberview,56.15,127.01,86.18,145.15,358.34,Single-ply,SBD,M
Boys,59.87,4,Adrian Tostado,Sanger,59.19,138.35,81.65,133.81,353.8,Single-ply,SBD,M
Boys,59.87,5,Tyler Watts,Sanger,58.92,131.54,81.65,138.35,351.53,Single-ply,SBD,M
Boys,67.13,1,Grant Carter,Sanger,65.68,179.17,124.74,195.04,498.95,Single-ply,SBD,M
Boys,67.13,2,Ja'Rod Bedford,Cedar Hill,67.13,217.72,95.25,181.44,494.42,Single-ply,SBD,M
Boys,67.13,3,Jett Ertle,Keller,66.27,181.44,97.52,188.24,467.2,Single-ply,SBD,M
Boys,67.13,4,Garret McGuire,Cedar Hill,67,181.44,92.99,190.51,464.93,Single-ply,SBD,M
Boys,67.13,5,Brandon Blond,Mansfield Timberview,66.04,188.24,104.33,167.83,460.4,Single-ply,SBD,M
Boys,67.13,6,Leo Sustaita,Gainesville,65.54,163.29,95.25,185.97,444.52,Single-ply,SBD,M
Boys,67.13,7,Eli Shields,Bonham,66.9,170.1,95.25,172.37,437.72,Single-ply,SBD,M
Boys,67.13,8,Jesus Marban,Carrollton Turner,66.68,151.95,90.72,172.37,415.04,Single-ply,SBD,M
Boys,67.13,9,Isaiah Upshaw,Duncanville,66.41,142.88,99.79,142.88,385.55,Single-ply,SBD,M
Boys,67.13,10,Isaiah Pollard,Hurst Bell,66.09,140.61,70.31,158.76,369.68,Single-ply,SBD,M
Boys,67.13,11,Genesis Solomon,Carrollton Turner,64.68,92.99,63.5,102.06,258.55,Single-ply,SBD,M
Boys,67.13,DQ,Tyler Sutton,Fort Worth Western Hills,62.23,,,,,Single-ply,SBD,M
Boys,74.84,1,Cody Oliver,Keller,74.57,197.31,138.35,190.51,526.17,Single-ply,SBD,M
Boys,74.84,2,Hennon Cooper,Cedar Hill,70.9,183.7,115.67,219.99,519.36,Single-ply,SBD,M
Boys,74.84,3,Austin Ballard,Bonham,71.85,195.04,106.59,213.19,514.83,Single-ply,SBD,M
Boys,74.84,4,Ivan Treylor,Hurst Bell,71.62,188.24,115.67,195.04,498.95,Single-ply,SBD,M
Boys,74.84,5,Michael Wallace,Sherman,72.08,190.51,95.25,190.51,476.27,Single-ply,SBD,M
Boys,74.84,6,Elias Sanchez,Carrollton Turner,72.17,167.83,106.59,183.7,458.13,Single-ply,SBD,M
Boys,74.84,7,DeVante Clayton,Sherman,69.76,170.1,97.52,185.97,453.59,Single-ply,SBD,M
Boys,74.84,8,Brett Carter,Sanger,72.35,163.29,102.06,161.03,426.38,Single-ply,SBD,M
Boys,74.84,9,Lorenzo Nunez,Fort Worth Paschal,73.12,140.61,102.06,176.9,419.57,Single-ply,SBD,M
Boys,74.84,10,Gabriel Gomez,Fort Worth Western Hills,70.35,113.4,99.79,161.03,374.21,Single-ply,SBD,M
Boys,74.84,DQ,Santos Bazan,Fort Worth Western Hills,74.48,142.88,,,,Single-ply,SBD,M
Boys,82.1,1,Dalton Anderson,Lake Dallas,81.33,215.46,127.01,226.8,569.26,Single-ply,SBD,M
Boys,82.1,2,Caleb Scott,Cedar Hill,81.28,219.99,117.93,213.19,551.11,Single-ply,SBD,M
Boys,82.1,3,Noe Navejar,Mansfield Timberview,78.88,204.12,129.27,208.65,542.04,Single-ply,SBD,M
Boys,82.1,4,Steven Lucas,Mansfield Timberview,82.01,181.44,122.47,226.8,530.7,Single-ply,SBD,M
Boys,82.1,5,Kam Peterson,Duncanville,80.06,183.7,115.67,213.19,512.56,Single-ply,SBD,M
Boys,82.1,6,Caleb Ledoux,Bonham,80.2,199.58,111.13,181.44,492.15,Single-ply,SBD,M
Boys,82.1,7,Billy Goff,Sanger,81.28,183.7,115.67,192.78,492.15,Single-ply,SBD,M
Boys,82.1,8,Eduardo Hernandez,Fort Worth Paschal,78.2,158.76,102.06,188.24,449.06,Single-ply,SBD,M
Boys,82.1,9,Jake Valdez,Fort Worth Arlington Heights,78.74,154.22,102.06,165.56,421.84,Single-ply,SBD,M
Boys,82.1,10,Joshua Bejavano,Carrollton Turner,81.51,142.88,97.52,170.1,410.5,Single-ply,SBD,M
Boys,82.1,11,Julian Ramos,Fort Worth Arlington Heights,77.02,151.95,86.18,163.29,401.43,Single-ply,SBD,M
Boys,82.1,12,Angel Ramirez,Carrollton Turner,80.97,138.35,77.11,149.69,365.14,Single-ply,SBD,M
Boys,89.81,1,Jaylin Nelson,Duncanville,89.72,222.26,131.54,242.67,596.47,Single-ply,SBD,M
Boys,89.81,2,Brenden Buggage,Fort Worth Western Hills,88.45,215.46,124.74,238.14,578.33,Single-ply,SBD,M
Boys,89.81,3,Keilon Elder,Duncanville,88.68,208.65,115.67,249.48,573.79,Single-ply,SBD,M
Boys,89.81,4,Jaylon Sparks,Everman,87.68,204.12,136.08,181.44,521.63,Single-ply,SBD,M
Boys,89.81,5,Hunter Bigelow,Denison,86,170.1,111.13,208.65,489.88,Single-ply,SBD,M
Boys,89.81,6,SomDipto Das,Carrollton Turner,85.14,183.7,115.67,188.24,487.61,Single-ply,SBD,M
Boys,89.81,7,Trevor Buckaloo,Bonham,85.09,195.04,99.79,174.63,469.47,Single-ply,SBD,M
Boys,89.81,DQ,Isaac Ewegbeje,Mansfield Timberview,84.82,172.37,122.47,,,Single-ply,SBD,M
Boys,99.79,1,Raylon Jones,Fort Worth Arlington Heights,92.08,204.12,147.42,238.14,589.67,Single-ply,SBD,M
Boys,99.79,2,Ezekial Veal,Everman,98.52,240.4,127.01,215.46,582.87,Single-ply,SBD,M
Boys,99.79,3,Mauricio Rojas,Carrollton Turner,94.89,231.33,117.93,226.8,576.06,Single-ply,SBD,M
Boys,99.79,4,Brendyn Hodges,Duncanville,93.67,215.46,113.4,235.87,564.72,Single-ply,SBD,M
Boys,99.79,5,Jacob Biggerstaff,Lake Dallas,98.16,201.85,140.61,222.26,564.72,Single-ply,SBD,M
Boys,99.79,6,Marcus Mosley,Duncanville,98.07,188.24,113.4,226.8,528.44,Single-ply,SBD,M
Boys,99.79,7,Victor Benavides,Carrollton Turner,99.06,226.8,106.59,190.51,523.9,Single-ply,SBD,M
Boys,99.79,8,Colby Hall,Carrollton Turner,99.11,185.97,127.01,190.51,503.49,Single-ply,SBD,M
Boys,99.79,9,Daniel Hernandez,Everman,96.98,206.38,99.79,188.24,494.42,Single-ply,SBD,M
Boys,99.79,10,Cruz Villegas,Everman,96.57,158.76,95.25,215.46,469.47,Single-ply,SBD,M
Boys,99.79,11,Blake Thomas,Duncanville,94.21,172.37,97.52,195.04,464.93,Single-ply,SBD,M
Boys,99.79,12,Ben Boswell,Sherman,92.76,163.29,99.79,174.63,437.72,Single-ply,SBD,M
Boys,99.79,13,Malyk Newsome,Everman,93.94,170.1,95.25,170.1,435.45,Single-ply,SBD,M
Boys,99.79,14,Sam Salas,Everman,98.34,167.83,97.52,167.83,433.18,Single-ply,SBD,M
Boys,99.79,15,Emmanuel Reyes,Fort Worth Arlington Heights,91.22,149.69,95.25,167.83,412.77,Single-ply,SBD,M
Boys,99.79,DQ,Miquon Mayes,Duncanville,97.2,192.78,,,,Single-ply,SBD,M
Boys,109.77,1,John McWilliams,Duncanville,107.05,217.72,122.47,254.01,594.21,Single-ply,SBD,M
Boys,109.77,2,Justin Wheeler,Arlington Seguin,100.24,233.6,145.15,206.38,585.13,Single-ply,SBD,M
Boys,109.77,3,Brandon Miller,Bonham,104.42,217.72,117.93,222.26,557.92,Single-ply,SBD,M
Boys,109.77,4,Asael Lagos,Gainesville,107.82,231.33,117.93,208.65,557.92,Single-ply,SBD,M
Boys,109.77,5,Justin Nichols,Sherman,102.06,219.99,136.08,199.58,555.65,Single-ply,SBD,M
Boys,109.77,6,Wilson Tran,Gainesville,109.09,217.72,122.47,206.38,546.58,Single-ply,SBD,M
Boys,109.77,7,Hayden Hayes,Sherman,109.45,185.97,131.54,213.19,530.7,Single-ply,SBD,M
Boys,109.77,8,Garrett Holcombe,Denison,107.95,190.51,131.54,176.9,498.95,Single-ply,SBD,M
Boys,109.77,9,Palmer Moynihan,Fort Worth Arlington Heights,108.77,185.97,127.01,181.44,494.42,Single-ply,SBD,M
Boys,109.77,10,Brian Gallegos,Carrollton Turner,105.82,183.7,97.52,190.51,471.74,Single-ply,SBD,M
Boys,109.77,11,Julian Zavala,Fort Worth Arlington Heights,100.43,170.1,99.79,192.78,462.66,Single-ply,SBD,M
Boys,109.77,12,Dominique Spencer,Carrollton Turner,101.06,136.08,97.52,147.42,381.02,Single-ply,SBD,M
Boys,109.77,DQ,Myles Newsome,Everman,107.95,127.01,,,,Single-ply,SBD,M
Boys,109.77,DQ,Tristin Lafreniere,Carrollton Turner,107.59,,,,,Single-ply,SBD,M
Boys,124.74,1,Daniel Dowling,Bonham,118.43,254.01,147.42,190.51,591.94,Single-ply,SBD,M
Boys,124.74,2,Donovan Brown,Duncanville,113.04,231.33,120.2,204.12,555.65,Single-ply,SBD,M
Boys,124.74,3,Benjamin Calhoun,Mansfield Timberview,117.03,213.19,154.22,188.24,555.65,Single-ply,SBD,M
Boys,124.74,4,Justin Smith #8,Duncanville,120.88,204.12,127.01,215.46,546.58,Single-ply,SBD,M
Boys,124.74,5,Eric Herronn,Hurst Bell,118.84,190.51,145.15,204.12,539.77,Single-ply,SBD,M
Boys,124.74,6,Joseph Torres,Hurst Bell,116.71,215.46,127.01,181.44,523.9,Single-ply,SBD,M
Boys,124.74,7,Carlos Zamora,Fort Worth Western Hills,114.89,181.44,117.93,176.9,476.27,Single-ply,SBD,M
Boys,124.74,8,Kyle Brooks,Denison,122.29,167.83,106.59,158.76,433.18,Single-ply,SBD,M
Boys,124.74,9,Rudy Vasquez,Sherman,114.62,167.83,95.25,158.76,421.84,Single-ply,SBD,M
Boys,124.74,DQ,Josh Schnitker,Sherman,121.43,208.65,158.76,,,Single-ply,SBD,M
Boys,124.74+,1,Lazerrick Bowie,Hurst Bell,140.43,272.16,127.01,208.65,607.81,Single-ply,SBD,M
Boys,124.74+,2,Caleb Reed,Everman,134.22,249.48,147.42,204.12,601.01,Single-ply,SBD,M
Boys,124.74+,3,Terrance Newman,Duncanville,127.64,231.33,131.54,231.33,594.21,Single-ply,SBD,M
Boys,124.74+,4,Te Vita Ahio,Hurst Bell,159.48,226.8,131.54,204.12,562.45,Single-ply,SBD,M
Boys,124.74+,5,Chris McKinney,Denison,160.21,190.51,136.08,226.8,553.38,Single-ply,SBD,M
Boys,124.74+,6,Aresu Sitole,Hurst Bell,139.25,201.85,129.27,208.65,539.77,Single-ply,SBD,M
Boys,124.74+,7,Jaden Forbes,Denison,155.26,190.51,117.93,195.04,503.49,Single-ply,SBD,M
Boys,124.74+,DQ,Dwight Tylor,Duncanville,131.59,,,,,Single-ply,SBD,M
Boys,124.74+,DQ,Cruz Tobar,Sherman,156.44,197.31,106.59,,,Single-ply,SBD,M
Boys,124.74+,DQ,Damon Lippert,Sherman,131.54,,,,,Single-ply,SBD,M
Boys,124.74+,DQ,Brandon Resendiz,Carrollton Turner,133.17,204.12,120.2,,,Single-ply,SBD,M
