Division,WeightClassKg,Place,Name,Team,BodyweightKg,Best3SquatKg,Best3BenchKg,Best3DeadliftKg,TotalKg,Equipment,Event,Sex
Girls,44.23,1,Destiny Barrientez,Kenedy,43.73,83.91,54.43,108.86,247.21,Single-ply,SBD,F
Girls,44.23,2,Denae Garcia,Karnes City,41.64,65.77,27.22,74.84,167.83,Single-ply,SBD,F
Girls,47.85,1,Megan Bailey,Karnes City,45.63,120.2,65.77,124.74,310.71,Single-ply,SBD,F
Girls,47.85,2,Jennifer Valdez,Goliad,46.54,104.33,38.56,111.13,254.01,Single-ply,SBD,F
Girls,47.85,3,Ashley Lopez,Three Rivers,45.45,83.91,34.02,95.25,213.19,Single-ply,SBD,F
Girls,47.85,DQ,Ava Blevins,Goliad,47.63,83.91,,,,Single-ply,SBD,F
Girls,51.94,1,Edna Herschberger,Pettus,51.26,124.74,74.84,145.15,344.73,Single-ply,SBD,F
Girls,51.94,2,Regan Boissiere,Universal City Randolph,51.35,111.13,58.97,138.35,308.44,Single-ply,SBD,F
Girls,51.94,3,Raven Boissiere,Universal City Randolph,50.89,95.25,52.16,127.01,274.42,Single-ply,SBD,F
Girls,51.94,4,Gabrielle Martinez,Kenedy,50.26,95.25,47.63,106.59,249.48,Single-ply,SBD,F
Girls,51.94,5,Kiara Johnson,Karnes City,50.62,74.84,29.48,83.91,188.24,Single-ply,SBD,F
Girls,51.94,6,Brenna Sims,Refugio,49.9,54.43,36.29,92.99,183.7,Single-ply,SBD,F
Girls,51.94,7,Ashlynn Hagemeyer,Stockdale,51.44,54.43,31.75,74.84,161.03,Single-ply,SBD,F
Girls,51.94,DQ,Hope Carroll,George West,51.94,63.5,29.48,,,Single-ply,SBD,F
Girls,56.02,1,Phaidra Malcher,Poth,54.61,138.35,79.38,140.61,358.34,Single-ply,SBD,F
Girls,56.02,2,Serenity Alaniz,Karnes City,55.25,129.27,58.97,122.47,310.71,Single-ply,SBD,F
Girls,56.02,3,Daniela Sierra,Goliad,55.7,102.06,47.63,115.67,265.35,Single-ply,SBD,F
Girls,56.02,4,Autumn Guerra,Pleasanton,55.97,92.99,56.7,108.86,258.55,Single-ply,SBD,F
Girls,56.02,5,Alexa Carbajal,Karnes City,55.25,92.99,43.09,108.86,244.94,Single-ply,SBD,F
Girls,56.02,6,Stephanie Guajardo,George West,53.34,72.57,38.56,65.77,176.9,Single-ply,SBD,F
Girls,56.02,7,Krischelle Rodriguez,Refugio,55.16,47.63,27.22,65.77,140.61,Single-ply,SBD,F
Girls,56.02,DQ,Aubrey Williamson,Goliad,53.61,117.93,,,,Single-ply,SBD,F
Girls,60.1,1,Brittany Kelley,Karnes City,58.88,149.69,58.97,138.35,347,Single-ply,SBD,F
Girls,60.1,2,Viviana Hernandez,Goliad,57.52,131.54,68.04,136.08,335.66,Single-ply,SBD,F
Girls,60.1,3,Emma Johnson,Poth,58.33,124.74,77.11,124.74,326.59,Single-ply,SBD,F
Girls,60.1,4,Brooke Gisler,Karnes City,59.78,129.27,65.77,127.01,322.05,Single-ply,SBD,F
Girls,60.1,5,Jerrilyn Gonzales,Karnes City,58.24,131.54,58.97,129.27,319.78,Single-ply,SBD,F
Girls,60.1,6,Jessica Ayala,Stockdale,57.79,120.2,68.04,127.01,315.25,Single-ply,SBD,F
Girls,60.1,7,Telleah Jackson,Goliad,57.97,108.86,61.23,120.2,290.3,Single-ply,SBD,F
Girls,60.1,8,Sophie Lindlan,Universal City Randolph,58.42,113.4,56.7,113.4,283.5,Single-ply,SBD,F
Girls,60.1,9,Fe Vielma,Pleasanton,59.24,102.06,52.16,113.4,267.62,Single-ply,SBD,F
Girls,60.1,10,Judi Garza,Poth,59.33,95.25,52.16,92.99,240.4,Single-ply,SBD,F
Girls,60.1,11,Allison Stevens,Universal City Randolph,57.15,90.72,43.09,97.52,231.33,Single-ply,SBD,F
Girls,60.1,12,Michelle Heyliger,Three Rivers,58.33,74.84,31.75,74.84,181.44,Single-ply,SBD,F
Girls,60.1,DQ,Aubrey Blevins,Goliad,58.51,,,,,Single-ply,SBD,F
Girls,67.36,1,Meranda Segura,Karnes City,66.32,151.95,70.31,140.61,362.87,Single-ply,SBD,F
Girls,67.36,2,Lee Ramirez,Karnes City,66.41,138.35,65.77,131.54,335.66,Single-ply,SBD,F
Girls,67.36,3,Miranda Ovalle,Pleasanton,66.22,136.08,61.23,129.27,326.59,Single-ply,SBD,F
Girls,67.36,4,Kaylin Yanta,Poth,65.32,127.01,63.5,127.01,317.51,Single-ply,SBD,F
Girls,67.36,5,Isabella Rodriguez,Stockdale,66.04,117.93,61.23,136.08,315.25,Single-ply,SBD,F
Girls,67.36,6,Casey Mathis,Karnes City,61.69,102.06,54.43,129.27,285.76,Single-ply,SBD,F
Girls,67.36,7,Madeline Dougherty,Skidmore-Tynan,63.59,102.06,58.97,124.74,285.76,Single-ply,SBD,F
Girls,67.36,8,Erica Santee,Pleasanton,63.05,102.06,58.97,113.4,274.42,Single-ply,SBD,F
Girls,67.36,9,Alexis Serenil,Karnes City,63.87,99.79,43.09,115.67,258.55,Single-ply,SBD,F
Girls,67.36,10,Lexi Cumberland,Pleasanton,66.86,92.99,54.43,111.13,258.55,Single-ply,SBD,F
Girls,67.36,11,Rihana Herrera,Poteet,65.14,88.45,43.09,102.06,233.6,Single-ply,SBD,F
Girls,67.36,12,Jade-Lynne Lewis,Refugio,65.95,68.04,40.82,117.93,226.8,Single-ply,SBD,F
Girls,67.36,13,Carolina Mejia,Universal City Randolph,67.13,86.18,40.82,86.18,213.19,Single-ply,SBD,F
Girls,67.36,DQ,Calleigh Fouch,Stockdale,60.87,,,,,Single-ply,SBD,F
Girls,75.07,1,Kinley Liska,Karnes City,73.39,145.15,74.84,138.35,358.34,Single-ply,SBD,F
Girls,75.07,2,Sofia Aguilar,Pleasanton,73.21,122.47,58.97,124.74,306.17,Single-ply,SBD,F
Girls,75.07,3,Anna Bonnet,Karnes City,70.76,106.59,49.9,127.01,283.5,Single-ply,SBD,F
Girls,75.07,4,Amara Davis,Universal City Randolph,70.4,102.06,54.43,113.4,269.89,Single-ply,SBD,F
Girls,75.07,5,Deja Freeman,Universal City Randolph,69.94,99.79,52.16,102.06,254.01,Single-ply,SBD,F
Girls,75.07,6,Mallory Wise,Refugio,68.95,63.5,38.56,92.99,195.04,Single-ply,SBD,F
Girls,82.33,1,Cassie Castro,Poth,77.93,172.37,79.38,156.49,408.23,Single-ply,SBD,F
Girls,82.33,2,Larissa Miller,Kenedy,81.65,142.88,79.38,163.29,385.55,Single-ply,SBD,F
Girls,82.33,3,Jasmine Cervantes,Refugio,77.56,72.57,45.36,102.06,219.99,Single-ply,SBD,F
Girls,82.33,4,Karina Martinez,Pleasanton,81.65,61.23,49.9,108.86,219.99,Single-ply,SBD,F
Girls,90.04,1,Amberosia Aleman,Kenedy,87.36,158.76,86.18,172.37,417.3,Single-ply,SBD,F
Girls,90.04,2,Analiza Noguez,Stockdale,86.55,127.01,63.5,138.35,328.85,Single-ply,SBD,F
Girls,90.04,3,Maleigh Brown,Refugio,88.72,108.86,54.43,111.13,274.42,Single-ply,SBD,F
Girls,90.04,4,Savannah Urrutia,Karnes City,89.54,102.06,49.9,102.06,254.01,Single-ply,SBD,F
Girls,100.02,1,Olivia Monsevais,Karnes City,91.81,154.22,74.84,147.42,376.48,Single-ply,SBD,F
Girls,100.02,2,Tessa Welch,Pleasanton,91.08,122.47,74.84,120.2,317.51,Single-ply,SBD,F
Girls,100.02,DQ,Miranda Billegas,Kenedy,98.34,65.77,,,,Single-ply,SBD,F
Girls,117.71,1,Charity Holland,Universal City Randolph,105.14,149.69,72.57,133.81,356.07,Single-ply,SBD,F
Girls,117.71,2,Brianna Ortiz,Pleasanton,108.23,131.54,63.5,113.4,308.44,Single-ply,SBD,F
Girls,117.71+,1,Illeana Bosquez,Pleasanton,147.33,183.7,95.25,163.29,442.25,Single-ply,SBD,F
Girls,117.71+,2,Anriette Davis,Goliad,142.88,149.69,108.86,154.22,412.77,Single-ply,SBD,F
Girls,117.71+,3,Madison Curbow,Pleasanton,127.82,158.76,104.33,138.35,401.43,Single-ply,SBD,F
Girls,117.71+,4,Kendra Garcia,Three Rivers,118.84,167.83,72.57,145.15,385.55,Single-ply,SBD,F
Girls,117.71+,5,Aracely Nieto,George West,126.37,154.22,65.77,149.69,369.68,Single-ply,SBD,F
Girls,,NS,Araceli Duenas,Three Rivers,,,,,,Single-ply,SBD,F
Girls,,NS,Emma Kenny,Universal City Randolph,,,,,,Single-ply,SBD,F
Girls,,NS,Gisel Martinez,Universal City Randolph,,,,,,Single-ply,SBD,F
Girls,,NS,Lovieter Hankins,Universal City Randolph,,,,,,Single-ply,SBD,F
Girls,,NS,Mageste Holland,Universal City Randolph,,,,,,Single-ply,SBD,F
Girls,,NS,Alejandra Hernandez,Kenedy,,,,,,Single-ply,SBD,F
Girls,,NS,Mary Summerlin,Kenedy,,,,,,Single-ply,SBD,F
Girls,,NS,Valentina Gasca,Pleasanton,,,,,,Single-ply,SBD,F
Girls,,NS,Abagail Maywald,George West,,,,,,Single-ply,SBD,F
Girls,,NS,Elizabeth Emerson,George West,,,,,,Single-ply,SBD,F
Girls,,NS,Jasmine Watkins,Pleasanton,,,,,,Single-ply,SBD,F
Girls,,NS,Alyssa Reyes,Poteet,,,,,,Single-ply,SBD,F
Girls,,NS,Chastity Vasquez,Refugio,,,,,,Single-ply,SBD,F
Girls,,NS,Kyra Garcia,Poteet,,,,,,Single-ply,SBD,F
Girls,,NS,Faith Gonzales,Stockdale,,,,,,Single-ply,SBD,F
Girls,,NS,Carmen Ruiz,Stockdale,,,,,,Single-ply,SBD,F
