Division,WeightClassKg,Place,Name,Team,BodyweightKg,Best3SquatKg,Best3BenchKg,Best3DeadliftKg,TotalKg,Equipment,Event,Sex
Boys,51.71,1,Preston Fox,Lampasas,51.17,136.08,86.18,149.69,371.95,Single-ply,SBD,M
Boys,51.71,2,Kyle Arriola,Lampasas,51.71,104.33,72.57,122.47,299.37,Single-ply,SBD,M
Boys,51.71,3,Bryce Leatherwood,Dublin,47.99,88.45,56.7,108.86,254.01,Single-ply,SBD,M
Boys,51.71,4,Carson Osborne,Glen Rose,51.53,99.79,34.02,108.86,242.67,Single-ply,SBD,M
Boys,51.71,5,Hunter Mayo,Stephenville,46.45,81.65,43.09,90.72,215.46,Single-ply,SBD,M
Boys,51.71,6,Eddie Guerrero,Comanche,48.26,70.31,47.63,79.38,197.31,Single-ply,SBD,M
Boys,55.79,1,Quincy Larson,Hamilton,55.79,113.4,65.77,147.42,326.59,Single-ply,SBD,M
Boys,55.79,2,Glenn Gent,Glen Rose,54.07,95.25,52.16,145.15,292.57,Single-ply,SBD,M
Boys,55.79,3,Julian Talavera,Glen Rose,54.52,95.25,56.7,108.86,260.82,Single-ply,SBD,M
Boys,55.79,DQ,Daniel Pina,Comanche,53.8,,,,,Single-ply,SBD,M
Boys,59.87,1,Dakota Cavazos,Lampasas,59.33,158.76,108.86,176.9,444.52,Single-ply,SBD,M
Boys,59.87,2,Dillon Graves,Glen Rose,59.06,154.22,102.06,179.17,435.45,Single-ply,SBD,M
Boys,59.87,3,Isaiah Nix,Dublin,59.06,127.01,74.84,156.49,358.34,Single-ply,SBD,M
Boys,59.87,4,Lionel Munoz,Comanche,57.61,136.08,74.84,145.15,356.07,Single-ply,SBD,M
Boys,59.87,5,Christian Perez,Dublin,56.34,113.4,63.5,154.22,331.12,Single-ply,SBD,M
Boys,59.87,DQ,Curry Pendleton,Moran,59.24,,,,,Single-ply,SBD,M
Boys,59.87,DQ,Gabe Boyett,Moran,58.88,,,,,Single-ply,SBD,M
Boys,67.13,1,Sean Williams,Lampasas,66.95,217.72,136.08,226.8,580.6,Single-ply,SBD,M
Boys,67.13,2,Ethan Oakes,Lampasas,67.13,174.63,120.2,185.97,480.81,Single-ply,SBD,M
Boys,67.13,3,Keith Ray,Stephenville,62.64,165.56,102.06,174.63,442.25,Single-ply,SBD,M
Boys,67.13,4,Trevor Higginbotham,Comanche,67.13,176.9,83.91,172.37,433.18,Single-ply,SBD,M
Boys,67.13,5,Franklin Lopez,Millsap,60.6,176.9,79.38,163.29,419.57,Single-ply,SBD,M
Boys,67.13,6,Max Lauderdale,Glen Rose,65.86,142.88,95.25,163.29,401.43,Single-ply,SBD,M
Boys,67.13,7,Manuel DeLeon,Dublin,67.13,158.76,74.84,163.29,396.89,Single-ply,SBD,M
Boys,67.13,8,Nick Salyer,Tolar,66.59,147.42,88.45,151.95,387.82,Single-ply,SBD,M
Boys,67.13,9,Raymond Pacheco,Millsap,63.68,145.15,70.31,158.76,374.21,Single-ply,SBD,M
Boys,67.13,10,Hayden Oakley,Millsap,62.87,147.42,65.77,138.35,351.53,Single-ply,SBD,M
Boys,67.13,11,Joseph Brannon,Stephenville,62.14,99.79,79.38,142.88,322.05,Single-ply,SBD,M
Boys,74.84,1,Nacho Rios,Comanche,72.94,215.46,131.54,208.65,555.65,Single-ply,SBD,M
Boys,74.84,2,Jacob Riley,Dublin,74.84,183.7,111.13,249.48,544.31,Single-ply,SBD,M
Boys,74.84,3,Joe Gilligan,Comanche,74.12,190.51,111.13,208.65,510.29,Single-ply,SBD,M
Boys,74.84,4,Matthew Gray,Brock,70.13,195.04,92.99,213.19,501.22,Single-ply,SBD,M
Boys,74.84,5,Martin Najera,Hamilton,74.3,181.44,102.06,217.72,501.22,Single-ply,SBD,M
Boys,74.84,6,Michael Cornish,Lampasas,74.48,181.44,92.99,185.97,460.4,Single-ply,SBD,M
Boys,74.84,7,Vincent Leon,Lampasas,72.21,181.44,95.25,174.63,451.32,Single-ply,SBD,M
Boys,74.84,8,Hayden Monk,Stephenville,71.4,158.76,92.99,188.24,439.98,Single-ply,SBD,M
Boys,74.84,9,Stuart Cortez,Hamilton,73.48,167.83,102.06,165.56,435.45,Single-ply,SBD,M
Boys,74.84,10,Hunter Bramblett,Brock,72.85,158.76,102.06,170.1,430.91,Single-ply,SBD,M
Boys,74.84,11,Mark Smith,Stephenville,70.4,147.42,115.67,165.56,428.64,Single-ply,SBD,M
Boys,74.84,12,Tanner Patino,Brock,70.58,163.29,104.33,158.76,426.38,Single-ply,SBD,M
Boys,74.84,13,Austin Rosales,Coleman,74.3,136.08,97.52,181.44,415.04,Single-ply,SBD,M
Boys,74.84,14,Blake Pettit,Hamilton,68.04,142.88,88.45,181.44,412.77,Single-ply,SBD,M
Boys,74.84,15,Ricky Douglas,Glen Rose,74.48,154.22,81.65,158.76,394.63,Single-ply,SBD,M
Boys,74.84,16,Tyler Miller,Moran,67.86,131.54,88.45,161.03,381.02,Single-ply,SBD,M
Boys,74.84,17,Caden Cowen,Stephenville,68.49,136.08,70.31,163.29,369.68,Single-ply,SBD,M
Boys,74.84,18,Max Jimenez,Comanche,67.86,136.08,83.91,147.42,367.41,Single-ply,SBD,M
Boys,74.84,19,Sakima Herrera,San Saba,67.86,136.08,81.65,145.15,362.87,Single-ply,SBD,M
Boys,74.84,20,Dillion Schumann,Stephenville,68.95,95.25,77.11,142.88,315.25,Single-ply,SBD,M
Boys,74.84,DQ,Harley Schafer,Moran,74.21,,,,,Single-ply,SBD,M
Boys,82.1,1,Michael Nguyen,Lampasas,81.74,217.72,129.27,249.48,596.47,Single-ply,SBD,M
Boys,82.1,2,Kade Mercer,Comanche,79.83,190.51,127.01,199.58,517.1,Single-ply,SBD,M
Boys,82.1,3,Issac De La Cruz,Stephenville,82.1,183.7,115.67,197.31,496.68,Single-ply,SBD,M
Boys,82.1,4,Rickey Bottorff,Millsap,80.2,181.44,99.79,185.97,467.2,Single-ply,SBD,M
Boys,82.1,5,Cristian Vazquez,Dublin,79.74,174.63,104.33,170.1,449.06,Single-ply,SBD,M
Boys,82.1,6,Johnny Jurado,Dublin,81.1,174.63,88.45,181.44,444.52,Single-ply,SBD,M
Boys,82.1,7,Ylee Muro,Dublin,81.56,156.49,97.52,165.56,419.57,Single-ply,SBD,M
Boys,82.1,8,Jonas Cadena,Moran,77.29,156.49,77.11,156.49,390.09,Single-ply,SBD,M
Boys,82.1,9,Cutter Daniels,San Saba,75.39,136.08,70.31,158.76,365.14,Single-ply,SBD,M
Boys,82.1,10,Trevor Herron,Brock,75.11,136.08,86.18,122.47,344.73,Single-ply,SBD,M
Boys,82.1,DQ,Richard Salazar,Comanche,77.2,183.7,,,,Single-ply,SBD,M
Boys,89.81,1,Jace Hankins,Lampasas,84.91,213.19,145.15,238.14,596.47,Single-ply,SBD,M
Boys,89.81,2,Emiliano Jimenez,Comanche,85.55,219.99,124.74,219.99,564.72,Single-ply,SBD,M
Boys,89.81,3,Tate Swearengin,Brock,82.55,181.44,138.35,201.85,521.63,Single-ply,SBD,M
Boys,89.81,4,Austin Sansing,Lampasas,83.28,181.44,113.4,197.31,492.15,Single-ply,SBD,M
Boys,89.81,5,Ethan Norris,Stephenville,89.49,181.44,106.59,181.44,469.47,Single-ply,SBD,M
Boys,89.81,6,Hayden Williams,Tolar,85.28,176.9,90.72,174.63,442.25,Single-ply,SBD,M
Boys,89.81,7,Caleb Smith,Stephenville,87.18,136.08,90.72,165.56,392.36,Single-ply,SBD,M
Boys,89.81,8,Adrian Cervantes,Stephenville,88.63,138.35,72.57,165.56,376.48,Single-ply,SBD,M
Boys,89.81,9,Kaai Armour,Stephenville,89.36,131.54,83.91,149.69,365.14,Single-ply,SBD,M
Boys,89.81,DQ,Bobby Thompson,Millsap,88.36,170.1,,,,Single-ply,SBD,M
Boys,89.81,DQ,Cole Schkade,Santo,83.46,210.92,111.13,204.12,,Single-ply,SBD,M
Boys,99.79,1,Ragan Wood,Stephenville,93.44,288.03,151.95,249.48,689.46,Single-ply,SBD,M
Boys,99.79,2,Mason King,Tolar,98.43,229.06,138.35,226.8,594.21,Single-ply,SBD,M
Boys,99.79,3,Kendal Beck,Comanche,96.34,204.12,131.54,210.92,546.58,Single-ply,SBD,M
Boys,99.79,4,Nathan Martin,Stephenville,91.44,204.12,133.81,206.38,544.31,Single-ply,SBD,M
Boys,99.79,5,Tre Rose,Brock,98.88,226.8,115.67,192.78,535.24,Single-ply,SBD,M
Boys,99.79,6,Tanner Stroud,Glen Rose,91.99,188.24,117.93,226.8,532.97,Single-ply,SBD,M
Boys,99.79,7,Rudy Esparza,Lampasas,96.71,181.44,117.93,224.53,523.9,Single-ply,SBD,M
Boys,99.79,8,Jeremy Rodgers,Lampasas,97.61,190.51,106.59,215.46,512.56,Single-ply,SBD,M
Boys,99.79,9,Sage Boleman,Brock,99.34,183.7,131.54,195.04,510.29,Single-ply,SBD,M
Boys,99.79,10,Clayton Pierce,San Saba,99.34,192.78,108.86,185.97,487.61,Single-ply,SBD,M
Boys,99.79,11,Zac Powell,Glen Rose,99.06,181.44,111.13,185.97,478.54,Single-ply,SBD,M
Boys,99.79,12,Jeron Conine,Comanche,96.8,195.04,95.25,174.63,464.93,Single-ply,SBD,M
Boys,99.79,13,Gabe Romero,Stephenville,95.53,136.08,117.93,185.97,439.98,Single-ply,SBD,M
Boys,99.79,14,Zach Matzke,Brock,97.79,192.78,92.99,149.69,435.45,Single-ply,SBD,M
Boys,99.79,15,Arturo Guerrero,Millsap,92.26,181.44,79.38,158.76,419.57,Single-ply,SBD,M
Boys,99.79,16,Jared Matzke,Brock,90.63,158.76,99.79,140.61,399.16,Single-ply,SBD,M
Boys,99.79,17,Dawson Hargrove,Stephenville,92.26,117.93,74.84,136.08,328.85,Single-ply,SBD,M
Boys,109.77,1,Austin Coker,Santo,107.68,256.28,138.35,226.8,621.42,Single-ply,SBD,M
Boys,109.77,2,Nick Lara,Glen Rose,105.69,226.8,136.08,210.92,573.79,Single-ply,SBD,M
Boys,109.77,3,Isaiah Cisneroz,Dublin,108.86,226.8,102.06,195.04,523.9,Single-ply,SBD,M
Boys,109.77,4,Julio Sanchez #2,Brock,104.24,181.44,97.52,204.12,483.08,Single-ply,SBD,M
Boys,109.77,5,Daniel Aguilar,Millsap,102.06,181.44,104.33,181.44,467.2,Single-ply,SBD,M
Boys,109.77,6,Alan Martinez,San Saba,104.05,174.63,117.93,172.37,464.93,Single-ply,SBD,M
Boys,109.77,DQ,Anthony Coker,Santo,101.6,201.85,113.4,,,Single-ply,SBD,M
Boys,109.77,DQ,Moses Garcia,Comanche,107.59,192.78,,,,Single-ply,SBD,M
Boys,124.74,1,Pedro Bernal,Comanche,112.22,306.17,151.95,272.16,730.28,Single-ply,SBD,M
Boys,124.74,2,Ethan Price,Dublin,113.31,267.62,204.12,240.4,712.14,Single-ply,SBD,M
Boys,124.74,3,Eric Yescas,Lampasas,110.77,226.8,131.54,206.38,564.72,Single-ply,SBD,M
Boys,124.74,4,Hayden Shaw,Glen Rose,115.03,213.19,113.4,219.99,546.58,Single-ply,SBD,M
Boys,124.74,5,Stran Burrow,Dublin,123.29,170.1,102.06,181.44,453.59,Single-ply,SBD,M
Boys,124.74,6,Braden Anderson,Tolar,115.76,158.76,86.18,142.88,387.82,Single-ply,SBD,M
Boys,124.74+,1,Diesel Ceresini,Hamilton,134.81,260.82,127.01,235.87,623.69,Single-ply,SBD,M
Boys,124.74+,2,Chris Nix,Lampasas,132.99,213.19,161.03,238.14,612.35,Single-ply,SBD,M
Boys,124.74+,3,John Brunner,Brock,136.62,222.26,124.74,204.12,551.11,Single-ply,SBD,M
Boys,124.74+,4,Cole Evert,Glen Rose,127.01,185.97,92.99,181.44,460.4,Single-ply,SBD,M
