Division,WeightClassKg,Place,Name,Team,BodyweightKg,Best3SquatKg,Best3BenchKg,Best3DeadliftKg,TotalKg,Equipment,Event,Sex
Boys,51.71,1,Kade Pace,Lago Vista,51.62,131.54,61.23,117.93,310.71,Single-ply,SBD,M
Boys,51.71,2,Michael Rodriguez,Thrall,51.07,95.25,52.16,102.06,249.48,Single-ply,SBD,M
Boys,51.71,3,Horacio Huerta,Salado,51.35,90.72,52.16,106.59,249.48,Single-ply,SBD,M
Boys,51.71,4,Dylan Charles,Gatesville,49.9,70.31,47.63,88.45,206.38,Single-ply,SBD,M
Boys,55.79,1,Joe-Angel Carpenter,Troy,54.88,142.88,90.72,145.15,378.75,Single-ply,SBD,M
Boys,55.79,2,Michael Oster,Troy,54.52,122.47,79.38,145.15,347,Single-ply,SBD,M
Boys,55.79,3,Michael Palmer,Little River Academy,54.48,127.01,68.04,145.15,340.19,Single-ply,SBD,M
Boys,55.79,4,Colby Williamson,Troy,55.79,108.86,72.57,115.67,297.1,Single-ply,SBD,M
Boys,55.79,5,Joseph Barnes,Gatesville,53.52,92.99,61.23,113.4,267.62,Single-ply,SBD,M
Boys,59.87,1,Shawnpail Fields,Taylor,59.87,176.9,92.99,199.58,469.47,Single-ply,SBD,M
Boys,59.87,2,Dalton Glover,Little River Academy,59.87,127.01,88.45,163.29,378.75,Single-ply,SBD,M
Boys,59.87,3,Gilberto Olguin,Waco Connally,56.52,136.08,72.57,147.42,356.07,Single-ply,SBD,M
Boys,59.87,4,Derian Dudik,Little River Academy,58.33,122.47,88.45,136.08,347,Single-ply,SBD,M
Boys,59.87,5,Hao Tran,Gatesville,56.79,113.4,79.38,140.61,333.39,Single-ply,SBD,M
Boys,59.87,6,Wyatt Churchman,China Spring,59.06,104.33,70.31,142.88,317.51,Single-ply,SBD,M
Boys,59.87,7,Dakota Schramm,Gatesville,59.69,124.74,65.77,124.74,315.25,Single-ply,SBD,M
Boys,59.87,8,Justin Smith,Franklin,58.79,99.79,61.23,151.95,312.98,Single-ply,SBD,M
Boys,59.87,9,Juan Araujo,Taylor,59.6,111.13,52.16,115.67,278.96,Single-ply,SBD,M
Boys,67.13,1,Isaiah Mesa,Taylor,66.86,249.48,142.88,235.87,628.23,Single-ply,SBD,M
Boys,67.13,2,Marshall Conde,Little River Academy,66.86,154.22,104.33,183.7,442.25,Single-ply,SBD,M
Boys,67.13,3,Stephen Leal,Taylor,64.77,174.63,90.72,165.56,430.91,Single-ply,SBD,M
Boys,67.13,4,Gavin Freeman,Little River Academy,66.5,158.76,88.45,170.1,417.3,Single-ply,SBD,M
Boys,67.13,5,Vicente Torres,Troy,67.04,154.22,102.06,158.76,415.04,Single-ply,SBD,M
Boys,67.13,6,Corbin Bush,Little River Academy,64.05,140.61,72.57,142.88,356.07,Single-ply,SBD,M
Boys,67.13,7,Josh Estes,Troy,64.68,124.74,79.38,149.69,353.8,Single-ply,SBD,M
Boys,67.13,8,Victor Aguillar,China Spring,65.32,136.08,83.91,129.27,349.27,Single-ply,SBD,M
Boys,67.13,9,Mario Mendez,Thrall,65.68,124.74,74.84,140.61,340.19,Single-ply,SBD,M
Boys,67.13,10,Caden Trice,Salado,65.77,115.67,79.38,133.81,328.85,Single-ply,SBD,M
Boys,67.13,11,Nick Hrncir,Franklin,62.96,113.4,70.31,124.74,308.44,Single-ply,SBD,M
Boys,67.13,12,Dustin Perkins,Franklin,65.86,95.25,58.97,120.2,274.42,Single-ply,SBD,M
Boys,67.13,13,Jacob Honea,Lago Vista,66.95,106.59,61.23,102.06,269.89,Single-ply,SBD,M
Boys,74.84,1,Hugh Shelton,Taylor,73.94,190.51,104.33,240.4,535.24,Single-ply,SBD,M
Boys,74.84,2,Alex Aguillon,Cameron Yoe,74.75,195.04,104.33,204.12,503.49,Single-ply,SBD,M
Boys,74.84,3,Zachary Johle,Thrall,72.53,167.83,129.27,192.78,489.88,Single-ply,SBD,M
Boys,74.84,4,Ricky Guardiola,Troy,68.67,131.54,95.25,140.61,367.41,Single-ply,SBD,M
Boys,74.84,DQ,Moe Bryson,Lago Vista,74.3,183.7,,,,Single-ply,SBD,M
Boys,82.1,1,Hunter Duzat,Little River Academy,77.02,263.08,158.76,238.14,659.98,Single-ply,SBD,M
Boys,82.1,2,Dj Fripp,Cameron Yoe,80.01,204.12,151.95,204.12,560.19,Single-ply,SBD,M
Boys,82.1,3,Christian Yannis,Taylor,75.21,210.92,104.33,217.72,532.97,Single-ply,SBD,M
Boys,82.1,4,Conner Cook,Salado,81.92,188.24,133.81,206.38,528.44,Single-ply,SBD,M
Boys,82.1,5,Kevin Avdic,Cameron Yoe,79.65,197.31,115.67,190.51,503.49,Single-ply,SBD,M
Boys,82.1,6,Emmanuel Abdullah,China Spring,76.2,156.49,120.2,170.1,446.79,Single-ply,SBD,M
Boys,82.1,7,Matthew Atkinson,Taylor,78.65,172.37,77.11,158.76,408.23,Single-ply,SBD,M
Boys,82.1,8,Bryan Garza,China Spring,76.2,161.03,102.06,142.88,405.97,Single-ply,SBD,M
Boys,82.1,9,Marcus Stautz,Thrall,78.65,145.15,77.11,156.49,378.75,Single-ply,SBD,M
Boys,82.1,10,Trenton Nix,Cameron Yoe,77.84,140.61,90.72,145.15,376.48,Single-ply,SBD,M
Boys,82.1,11,Kable Rowland,Thrall,78.11,145.15,77.11,154.22,376.48,Single-ply,SBD,M
Boys,82.1,12,Jacob Wright,Lago Vista,78.38,138.35,79.38,136.08,353.8,Single-ply,SBD,M
Boys,82.1,13,Deagen Dosse,Troy,77.2,122.47,65.77,142.88,331.12,Single-ply,SBD,M
Boys,82.1,14,Micah Suarez,Franklin,81.56,120.2,65.77,138.35,324.32,Single-ply,SBD,M
Boys,89.81,1,Cortney Young,Rogers,86.82,226.8,136.08,215.46,578.33,Single-ply,SBD,M
Boys,89.81,2,Evan Doskocil,Rogers,83.28,204.12,102.06,206.38,512.56,Single-ply,SBD,M
Boys,89.81,3,Ashton Sniggs,Salado,84.1,181.44,117.93,179.17,478.54,Single-ply,SBD,M
Boys,89.81,4,Doug Varcasia,China Spring,85.55,174.63,115.67,170.1,460.4,Single-ply,SBD,M
Boys,89.81,5,Joe Sampson,Salado,89.63,165.56,111.13,174.63,451.32,Single-ply,SBD,M
Boys,89.81,6,Blake Barrrett,China Spring,89.54,156.49,99.79,149.69,405.97,Single-ply,SBD,M
Boys,89.81,7,Johnny Rodriguez,Taylor,88.36,131.54,97.52,161.03,390.09,Single-ply,SBD,M
Boys,89.81,8,Ashton Ferguson,Franklin,82.28,142.88,83.91,142.88,369.68,Single-ply,SBD,M
Boys,89.81,9,Joseph Vega,Franklin,83.01,140.61,79.38,124.74,344.73,Single-ply,SBD,M
Boys,89.81,10,Ethan Trotter,Gatesville,84.37,113.4,63.5,127.01,303.91,Single-ply,SBD,M
Boys,99.79,1,Vincent Wilson,Rogers,97.34,260.82,183.7,274.42,718.94,Single-ply,SBD,M
Boys,99.79,2,Alex Falcon,Troy,93.98,226.8,145.15,240.4,612.35,Single-ply,SBD,M
Boys,99.79,3,Zack Menkin,Lago Vista,92.53,231.33,136.08,215.46,582.87,Single-ply,SBD,M
Boys,99.79,4,Matthew Jarosek,Thrall,98.79,183.7,145.15,215.46,544.31,Single-ply,SBD,M
Boys,99.79,5,James Carpenter,Rogers,91.35,208.65,115.67,210.92,535.24,Single-ply,SBD,M
Boys,99.79,6,Ethan Duckworth,China Spring,98.7,161.03,129.27,183.7,474,Single-ply,SBD,M
Boys,99.79,7,Eduardo Gil,Cameron Yoe,93.8,181.44,113.4,172.37,467.2,Single-ply,SBD,M
Boys,99.79,8,Connor Laughrin,Gatesville,99.34,181.44,108.86,172.37,462.66,Single-ply,SBD,M
Boys,99.79,9,Andrew Sniggs,Salado,92.08,156.49,111.13,190.51,458.13,Single-ply,SBD,M
Boys,99.79,10,Tommy Barker,Salado,98.7,161.03,111.13,183.7,455.86,Single-ply,SBD,M
Boys,99.79,11,Ryan Starritt,Salado,99.61,185.97,102.06,165.56,453.59,Single-ply,SBD,M
Boys,99.79,12,Brian Williams,Waco Connally,99.61,163.29,113.4,149.69,426.38,Single-ply,SBD,M
Boys,99.79,13,Jarrett Murrow,Troy,94.44,136.08,74.84,147.42,358.34,Single-ply,SBD,M
Boys,109.77,1,Chandler Strmiska,Little River Academy,108.18,272.16,204.12,265.35,741.62,Single-ply,SBD,M
Boys,109.77,2,Zach Solano,Rogers,103.06,258.55,156.49,215.46,630.49,Single-ply,SBD,M
Boys,109.77,3,Wyatt Gardner,Little River Academy,109.77,210.92,136.08,226.8,573.79,Single-ply,SBD,M
Boys,109.77,4,Josh Begesse,China Spring,103.33,206.38,140.61,190.51,537.51,Single-ply,SBD,M
Boys,109.77,5,Zach Adams,Salado,107.59,195.04,120.2,183.7,498.95,Single-ply,SBD,M
Boys,109.77,6,Dominic Lewis,Cameron Yoe,101.6,183.7,117.93,181.44,483.08,Single-ply,SBD,M
Boys,109.77,7,Dalton Konersky,Thrall,102.78,158.76,102.06,161.03,421.84,Single-ply,SBD,M
Boys,109.77,8,Jo'Kwan Langston,Salado,101.7,120.2,90.72,131.54,342.46,Single-ply,SBD,M
Boys,109.77,9,Ryan Poe,Salado,104.6,117.93,79.38,129.27,326.59,Single-ply,SBD,M
Boys,109.77,10,Cody Tilson,Franklin,109.5,124.74,70.31,124.74,319.78,Single-ply,SBD,M
Boys,124.74,1,Brandon Webb,Lago Vista,116.3,258.55,142.88,219.99,621.42,Single-ply,SBD,M
Boys,124.74,2,Jim Hitchcock,Gatesville,117.57,251.74,142.88,226.8,621.42,Single-ply,SBD,M
Boys,124.74,3,Logan Begesse,China Spring,123.74,272.16,154.22,195.04,621.42,Single-ply,SBD,M
Boys,124.74,4,Jacob Snoddy,Gatesville,111.13,192.78,136.08,204.12,532.97,Single-ply,SBD,M
Boys,124.74,5,Jason Marek,Little River Academy,112.94,181.44,124.74,174.63,480.81,Single-ply,SBD,M
Boys,124.74,6,Connor Arney,Rogers,114.94,197.31,99.79,183.7,480.81,Single-ply,SBD,M
Boys,124.74,7,Chase Sharp,China Spring,115.21,192.78,104.33,172.37,469.47,Single-ply,SBD,M
Boys,124.74,8,Trace Lopez,Taylor,114.31,188.24,113.4,156.49,458.13,Single-ply,SBD,M
Boys,124.74,DQ,Kolton Benton,Rogers,114.94,,,,,Single-ply,SBD,M
Boys,124.74,DQ,Griffin Beard,Lago Vista,121.2,188.24,,,,Single-ply,SBD,M
Boys,124.74+,1,Adrian Lewis,Cameron Yoe,136.89,249.48,167.83,226.8,644.1,Single-ply,SBD,M
Boys,124.74+,2,Troy Glaser,Rogers,147.87,208.65,102.06,170.1,480.81,Single-ply,SBD,M
Boys,124.74+,3,Jayce Jones,Rogers,145.42,172.37,86.18,158.76,417.3,Single-ply,SBD,M
