Division,WeightClassKg,Place,Name,Team,BodyweightKg,Best3SquatKg,Best3BenchKg,Best3DeadliftKg,TotalKg,Equipment,Event,Sex
Boys,51.71,1,John Ortega,Mercedes,51.53,172.37,106.59,174.63,453.59,Single-ply,SBD,M
Boys,51.71,2,Luis Cavazos,Donna North,50.89,161.03,90.72,142.88,394.63,Single-ply,SBD,M
Boys,51.71,3,Joe Gaytan,Donna,49.9,142.88,77.11,165.56,385.55,Single-ply,SBD,M
Boys,51.71,4,Tristan Villareal,Donna North,50.35,136.08,79.38,151.95,367.41,Single-ply,SBD,M
Boys,51.71,5,Uziel Vasquez,Edinburg Idea College Prep,51.26,142.88,68.04,129.27,340.19,Single-ply,SBD,M
Boys,51.71,6,Aaron Morin,Edinburg North,49.17,97.52,63.5,136.08,297.1,Single-ply,SBD,M
Boys,55.79,1,Joey Rodriguez,Edinburg Idea College Prep,54.88,201.85,111.13,188.24,501.22,Single-ply,SBD,M
Boys,55.79,2,Marc Sedillo,San Benito,55.79,170.1,97.52,188.24,455.86,Single-ply,SBD,M
Boys,55.79,3,Fabian Garcia,Edinburg Idea College Prep,52.34,163.29,106.59,165.56,435.45,Single-ply,SBD,M
Boys,55.79,4,Fred Mares,Edinburg,55.07,149.69,92.99,188.24,430.91,Single-ply,SBD,M
Boys,55.79,5,Mike Puente,PSJA Southwest,51.89,151.95,92.99,170.1,415.04,Single-ply,SBD,M
Boys,55.79,6,Alfonso Noyola,San Benito,52.71,104.33,68.04,122.47,294.84,Single-ply,SBD,M
Boys,59.87,1,Aj Trevino,Edinburg,59.51,192.78,131.54,174.63,498.95,Single-ply,SBD,M
Boys,59.87,2,Julian Villanueva,Donna North,59.42,170.1,95.25,197.31,462.66,Single-ply,SBD,M
Boys,59.87,3,Kevin Marroquin,PSJA Southwest,56.15,149.69,90.72,192.78,433.18,Single-ply,SBD,M
Boys,59.87,4,Ramses Vasquez,Edinburg Idea College Prep,59.51,138.35,81.65,127.01,347,Single-ply,SBD,M
Boys,59.87,5,Jose Garcia,Edinburg North,57.52,117.93,72.57,136.08,326.59,Single-ply,SBD,M
Boys,67.13,1,Jose Serna,Weslaco East,67.13,224.53,129.27,224.53,578.33,Single-ply,SBD,M
Boys,67.13,2,Eddie Luna,Mercedes,66.04,201.85,113.4,206.38,521.63,Single-ply,SBD,M
Boys,67.13,3,Tony Lopez,Donna North,66.5,185.97,115.67,199.58,501.22,Single-ply,SBD,M
Boys,67.13,4,Raven Figueroa,Weslaco East,66.77,172.37,117.93,201.85,492.15,Single-ply,SBD,M
Boys,67.13,5,Juan Gonzalez,Weslaco East,67.13,165.56,102.06,165.56,433.18,Single-ply,SBD,M
Boys,67.13,6,Jaryd Amaro,PSJA Memorial,61.33,172.37,90.72,165.56,428.64,Single-ply,SBD,M
Boys,67.13,7,Joseph Cano,Monte Alto,66.77,140.61,86.18,145.15,371.95,Single-ply,SBD,M
Boys,67.13,8,Jacob Olivarez,PSJA Memorial,60.78,127.01,79.38,136.08,342.46,Single-ply,SBD,M
Boys,67.13,9,Jacob Sekula,Edinburg,66.13,117.93,61.23,149.69,328.85,Single-ply,SBD,M
Boys,74.84,1,Marcus Yzaguirre,Donna,71.67,288.03,142.88,226.8,657.71,Single-ply,SBD,M
Boys,74.84,2,Ozzy Garza,PSJA Southwest,73.57,244.94,158.76,249.48,653.17,Single-ply,SBD,M
Boys,74.84,3,Andrew Nevarez,Edinburg Idea College Prep,73.94,276.69,145.15,229.06,650.91,Single-ply,SBD,M
Boys,74.84,4,Christian Avila,Weslaco East,74.12,240.4,131.54,244.94,616.89,Single-ply,SBD,M
Boys,74.84,5,Alex Benavides,Donna North,74.03,226.8,136.08,213.19,576.06,Single-ply,SBD,M
Boys,74.84,6,Omar Diaz,PSJA Memorial,73.3,215.46,165.56,181.44,562.45,Single-ply,SBD,M
Boys,74.84,7,Bobby Flores,Edinburg,74.57,190.51,117.93,208.65,517.1,Single-ply,SBD,M
Boys,74.84,8,Brian Tejada,Edinburg,71.12,199.58,122.47,181.44,503.49,Single-ply,SBD,M
Boys,74.84,9,Carlos Coronado,Edinburg North,70.31,176.9,127.01,195.04,498.95,Single-ply,SBD,M
Boys,74.84,10,Rafael Pena,PSJA Southwest,74.75,192.78,99.79,201.85,494.42,Single-ply,SBD,M
Boys,74.84,11,Jose Guerra,Weslaco East,73.48,172.37,117.93,199.58,489.88,Single-ply,SBD,M
Boys,74.84,12,Byron Ayala,San Benito,71.49,179.17,104.33,188.24,471.74,Single-ply,SBD,M
Boys,74.84,13,Malachi Ortega,Edinburg North,74.12,147.42,102.06,183.7,433.18,Single-ply,SBD,M
Boys,74.84,14,Juan Gonzalez,Edinburg North,73.12,142.88,83.91,190.51,417.3,Single-ply,SBD,M
Boys,74.84,15,Lupe Pecina,Santa Rosa,71.49,147.42,97.52,156.49,401.43,Single-ply,SBD,M
Boys,74.84,16,Bryan Ramirez,Edinburg North,72.39,145.15,81.65,158.76,385.55,Single-ply,SBD,M
Boys,74.84,17,Brandon Ramirez,Edinburg North,68.76,127.01,104.33,147.42,378.75,Single-ply,SBD,M
Boys,74.84,18,Dorian Gonzalez,Edinburg Idea College Prep,73.57,142.88,86.18,142.88,371.95,Single-ply,SBD,M
Boys,74.84,DQ,Skyler Alaniz,Santa Rosa,71.12,131.54,,,,Single-ply,SBD,M
Boys,82.1,1,Imanol Ordonez,Weslaco East,80.92,249.48,185.97,281.23,716.68,Single-ply,SBD,M
Boys,82.1,2,Christian Cortina,Donna North,80.38,249.48,138.35,256.28,644.1,Single-ply,SBD,M
Boys,82.1,3,Brandon Adame,Mercedes,79.92,231.33,120.2,231.33,582.87,Single-ply,SBD,M
Boys,82.1,4,Daniel García,San Benito,82.01,215.46,145.15,206.38,566.99,Single-ply,SBD,M
Boys,82.1,5,Carlos Olivo,Edinburg North,80.01,170.1,117.93,170.1,458.13,Single-ply,SBD,M
Boys,82.1,6,Robert Ortiz,Edinburg North,82.01,156.49,106.59,190.51,453.59,Single-ply,SBD,M
Boys,82.1,7,Jesus Mendoza,Santa Rosa,76.84,167.83,92.99,183.7,444.52,Single-ply,SBD,M
Boys,82.1,8,Elie Tevino,San Benito,79.83,179.17,92.99,172.37,444.52,Single-ply,SBD,M
Boys,82.1,9,Emiliano Sanchez,Edinburg Idea College Prep,79.65,165.56,97.52,167.83,430.91,Single-ply,SBD,M
Boys,82.1,10,Teddie Lozano,Edinburg North,80.01,136.08,99.79,181.44,417.3,Single-ply,SBD,M
Boys,82.1,11,Caleb Garza,Santa Rosa,80.2,151.95,88.45,156.49,396.89,Single-ply,SBD,M
Boys,82.1,12,Brave Munoz,Santa Rosa,75.57,127.01,65.77,142.88,335.66,Single-ply,SBD,M
Boys,89.81,1,Jose Guzman,Donna,86.64,278.96,167.83,272.16,718.94,Single-ply,SBD,M
Boys,89.81,2,Noah Martinez,Edinburg,85.09,249.48,115.67,210.92,576.06,Single-ply,SBD,M
Boys,89.81,3,Rafael Ramos,San Benito,88.54,197.31,120.2,226.8,544.31,Single-ply,SBD,M
Boys,89.81,4,Brando Galvan,Weslaco East,89.09,213.19,122.47,208.65,544.31,Single-ply,SBD,M
Boys,89.81,5,Chris Sanchez,PSJA Southwest,85.18,167.83,120.2,190.51,478.54,Single-ply,SBD,M
Boys,89.81,6,Ethan de la Garza,Santa Rosa,88.9,195.04,88.45,181.44,464.93,Single-ply,SBD,M
Boys,89.81,7,Jorge Terrazas,Santa Rosa,89.72,172.37,88.45,181.44,442.25,Single-ply,SBD,M
Boys,89.81,DQ,Esteban Guerrero,Donna North,89.36,206.38,,,,Single-ply,SBD,M
Boys,89.81,DQ,Davin Pollard,PSJA Memorial,88.36,147.42,90.72,,,Single-ply,SBD,M
Boys,99.79,1,Fernando Reyna,Donna North,99.34,249.48,165.56,256.28,671.32,Single-ply,SBD,M
Boys,99.79,2,Ryan Perales,Donna,95.71,281.23,172.37,215.46,669.05,Single-ply,SBD,M
Boys,99.79,3,Matt Vela,Weslaco East,93.89,244.94,163.29,249.48,657.71,Single-ply,SBD,M
Boys,99.79,4,Rogelio Rada,Donna,99.34,254.01,154.22,247.21,655.44,Single-ply,SBD,M
Boys,99.79,5,Tony Gandaria,Donna North,93.44,240.4,158.76,226.8,625.96,Single-ply,SBD,M
Boys,99.79,6,Antonio Banda,Donna,98.88,263.08,149.69,199.58,612.35,Single-ply,SBD,M
Boys,99.79,7,Juan Mendoza,Edinburg,99.52,229.06,154.22,219.99,603.28,Single-ply,SBD,M
Boys,99.79,8,Bryan Lopez,San Benito,98.16,219.99,129.27,215.46,564.72,Single-ply,SBD,M
Boys,99.79,9,John Gonzalez,San Benito,91.99,190.51,122.47,204.12,517.1,Single-ply,SBD,M
Boys,99.79,10,Noe Gonzalez,San Benito,96.07,185.97,106.59,204.12,496.68,Single-ply,SBD,M
Boys,99.79,11,Noe Castillo,Weslaco East,98.43,192.78,113.4,183.7,489.88,Single-ply,SBD,M
Boys,99.79,12,Marck Placencia,PSJA Memorial,99.16,185.97,113.4,176.9,476.27,Single-ply,SBD,M
Boys,109.77,1,Jacob Banda,Weslaco East,108.23,294.84,197.31,303.91,796.05,Single-ply,SBD,M
Boys,109.77,2,Lazaro Patlan,Edinburg,106.05,283.5,181.44,240.4,705.34,Single-ply,SBD,M
Boys,109.77,3,Fabian Martinez,Donna North,104.42,299.37,154.22,249.48,703.07,Single-ply,SBD,M
Boys,109.77,4,Gabriel Salinas,Donna,108.41,317.51,113.4,249.48,680.39,Single-ply,SBD,M
Boys,109.77,5,Pablo Rodriguez,Edinburg North,108.05,254.01,158.76,231.33,644.1,Single-ply,SBD,M
Boys,109.77,6,Ricardo Rangel,Donna North,109.04,244.94,147.42,231.33,623.69,Single-ply,SBD,M
Boys,109.77,7,Isaac Rangel,Donna,108.41,272.16,131.54,217.72,621.42,Single-ply,SBD,M
Boys,109.77,8,Adam Rojas,PSJA Southwest,107.68,251.74,158.76,188.24,598.74,Single-ply,SBD,M
Boys,109.77,9,Justus Mendoza,Donna,108.41,249.48,149.69,199.58,598.74,Single-ply,SBD,M
Boys,109.77,10,Ryan Rodriguez,Edinburg,104.87,206.38,170.1,219.99,596.47,Single-ply,SBD,M
Boys,109.77,11,Darrian Olazaron,PSJA Southwest,107.14,238.14,145.15,190.51,573.79,Single-ply,SBD,M
Boys,109.77,12,Victor Martinez,PSJA Memorial,100.52,192.78,102.06,199.58,494.42,Single-ply,SBD,M
Boys,124.74,1,Leeroy Carrizales,PSJA Memorial,124.74,317.51,161.03,247.21,725.75,Single-ply,SBD,M
Boys,124.74,2,Luis Trevino,Edinburg,113.76,269.89,156.49,201.85,628.23,Single-ply,SBD,M
Boys,124.74,3,Joel Lopez,San Benito,110.5,249.48,142.88,215.46,607.81,Single-ply,SBD,M
Boys,124.74,4,Ryan Garcia,Edinburg Idea College Prep,123.38,215.46,102.06,210.92,528.44,Single-ply,SBD,M
Boys,124.74,DQ,Kevin Lopez,PSJA Memorial,118.66,269.89,172.37,,,Single-ply,SBD,M
Boys,124.74+,1,Josue Vaquera,PSJA Memorial,149.78,294.84,176.9,272.16,743.89,Single-ply,SBD,M
Boys,124.74+,2,Carlos Pineda,Donna,140.61,263.08,124.74,240.4,628.23,Single-ply,SBD,M
Boys,124.74+,3,Jose Tovar,PSJA Memorial,127.73,238.14,195.04,183.7,616.89,Single-ply,SBD,M
Boys,124.74+,4,Genaro Paez,Edinburg,167.28,206.38,154.22,206.38,566.99,Single-ply,SBD,M
Boys,124.74+,5,Chris Rojas,Santa Rosa,146.51,210.92,115.67,222.26,548.85,Single-ply,SBD,M
Boys,124.74+,6,Jose Martinez,PSJA Memorial,140.7,217.72,133.81,183.7,535.24,Single-ply,SBD,M
