Division,WeightClassKg,Place,Name,Team,BodyweightKg,Best3SquatKg,Best3BenchKg,Best3DeadliftKg,TotalKg,Equipment,Event,Sex
Girls,44.23,1,Catalyna Mata,San Antonio Brooks Academy,44.18,92.99,52.16,106.59,251.74,Single-ply,SBD,F
Girls,44.23,2,Jessica Garcia,Yorktown,43.45,99.79,43.09,97.52,240.4,Single-ply,SBD,F
Girls,47.85,1,Megan Bailey,Karnes City,46.81,120.2,52.16,113.4,285.76,Single-ply,SBD,F
Girls,47.85,2,Alexis Longoria,Yorktown,47.81,124.74,45.36,104.33,274.42,Single-ply,SBD,F
Girls,47.85,3,Hailey Koti,Pleasanton,47.63,99.79,45.36,83.91,229.06,Single-ply,SBD,F
Girls,47.85,4,Marissa Rios,Runge,47.36,79.38,40.82,97.52,217.72,Single-ply,SBD,F
Girls,51.94,1,Liszette Ortiz-Rosado,San Antonio Brooks Academy,51.26,158.76,86.18,147.42,392.36,Single-ply,SBD,F
Girls,51.94,2,Robin Naranjo,Yorktown,51.35,120.2,52.16,117.93,290.3,Single-ply,SBD,F
Girls,51.94,3,Regan Boissiere,Universal City Randolph,51.89,106.59,54.43,127.01,288.03,Single-ply,SBD,F
Girls,51.94,4,Edna Herschberger,Pettus,51.71,102.06,52.16,117.93,272.16,Single-ply,SBD,F
Girls,51.94,5,Ally Garcia,Poth,51.8,108.86,58.97,102.06,269.89,Single-ply,SBD,F
Girls,51.94,6,Raven Boissiere,Universal City Randolph,51.8,99.79,47.63,113.4,260.82,Single-ply,SBD,F
Girls,51.94,7,Shaylee Steed,Pleasanton,50.08,92.99,49.9,97.52,240.4,Single-ply,SBD,F
Girls,51.94,8,Aubrey Williamson,Goliad,50.89,88.45,34.02,90.72,213.19,Single-ply,SBD,F
Girls,51.94,9,Lauryn Brynelsen,Runge,51.94,83.91,31.75,86.18,201.85,Single-ply,SBD,F
Girls,51.94,DQ,Gabriella Martinez,Kenedy,51.17,88.45,,,,Single-ply,SBD,F
Girls,56.02,1,Phaidra Malcher,Poth,55.16,131.54,79.38,122.47,333.39,Single-ply,SBD,F
Girls,56.02,2,Viviana Hernandez,Goliad,54.7,124.74,61.23,127.01,312.98,Single-ply,SBD,F
Girls,56.02,3,Jazmin Estrada,San Antonio Brooks Academy,54.25,122.47,70.31,117.93,310.71,Single-ply,SBD,F
Girls,56.02,4,Telleah Jackson,Goliad,55.88,117.93,49.9,113.4,281.23,Single-ply,SBD,F
Girls,56.02,5,Alexis Alvarez,Goliad,54.98,81.65,52.16,90.72,224.53,Single-ply,SBD,F
Girls,56.02,6,Alexa Carbajal,Karnes City,54.07,79.38,38.56,97.52,215.46,Single-ply,SBD,F
Girls,56.02,7,Delainey Jones,Refugio,54.88,68.04,36.29,90.72,195.04,Single-ply,SBD,F
Girls,60.1,1,Emma Johnson,Poth,59.51,124.74,68.04,127.01,319.78,Single-ply,SBD,F
Girls,60.1,2,Brittany Kelley,Karnes City,57.42,136.08,49.9,122.47,308.44,Single-ply,SBD,F
Girls,60.1,3,Brooke Gisler,Karnes City,58.69,129.27,56.7,111.13,297.1,Single-ply,SBD,F
Girls,60.1,4,Jessica Ayala,Stockdale,56.79,115.67,61.23,113.4,290.3,Single-ply,SBD,F
Girls,60.1,5,Kaylin Yanta,Poth,59.24,113.4,54.43,115.67,283.5,Single-ply,SBD,F
Girls,60.1,6,Lauren Castro,San Antonio Brooks Academy,57.97,92.99,68.04,90.72,251.74,Single-ply,SBD,F
Girls,60.1,7,Aimsley Blank,Yorktown,57.88,95.25,47.63,104.33,247.21,Single-ply,SBD,F
Girls,60.1,8,Erica Santee,Pleasanton,59.33,92.99,40.82,113.4,247.21,Single-ply,SBD,F
Girls,60.1,9,Audrey Rose,Refugio,57.61,88.45,47.63,99.79,235.87,Single-ply,SBD,F
Girls,60.1,10,Ana Lopez,Karnes City,59.6,81.65,47.63,95.25,224.53,Single-ply,SBD,F
Girls,60.1,11,Doraly Gutierrez,San Antonio Brooks Academy,59.24,86.18,45.36,90.72,222.26,Single-ply,SBD,F
Girls,60.1,12,Fe Vielma,Pleasanton,59.06,86.18,36.29,88.45,210.92,Single-ply,SBD,F
Girls,60.1,13,Alexis Serenil,Karnes City,59.69,74.84,34.02,92.99,201.85,Single-ply,SBD,F
Girls,60.1,14,Amanda Ramos,Kenedy,59.15,56.7,29.48,65.77,151.95,Single-ply,SBD,F
Girls,67.36,1,Nallely Gutierrez,San Antonio Brooks Academy,66.41,183.7,120.2,174.63,478.54,Single-ply,SBD,F
Girls,67.36,2,Haley Sharp,Pettus,65.32,156.49,86.18,133.81,376.48,Single-ply,SBD,F
Girls,67.36,3,Meranda Segura,Karnes City,62.23,145.15,68.04,138.35,351.53,Single-ply,SBD,F
Girls,67.36,4,Kayci Molina,Runge,64.5,142.88,61.23,142.88,347,Single-ply,SBD,F
Girls,67.36,5,Lee Ramirez,Karnes City,65.59,138.35,63.5,129.27,331.12,Single-ply,SBD,F
Girls,67.36,6,Lauryn Campos,Yorktown,63.68,127.01,49.9,131.54,308.44,Single-ply,SBD,F
Girls,67.36,7,Paige Nance,Yorktown,61.87,124.74,47.63,115.67,288.03,Single-ply,SBD,F
Girls,67.36,8,Chloe Garcia,San Antonio Brooks Academy,62.6,104.33,52.16,115.67,272.16,Single-ply,SBD,F
Girls,67.36,9,Amia Skeete,Universal City Randolph,64.68,106.59,52.16,111.13,269.89,Single-ply,SBD,F
Girls,67.36,10,Isabella Rodriguez,Stockdale,64.23,106.59,47.63,111.13,265.35,Single-ply,SBD,F
Girls,67.36,11,Ashlynn Morin,Pettus,66.04,92.99,45.36,108.86,247.21,Single-ply,SBD,F
Girls,67.36,12,Nicole Duve,Yorktown,60.96,90.72,34.02,95.25,219.99,Single-ply,SBD,F
Girls,67.36,13,Rihana Herrera,Poteet,66.32,68.04,49.9,86.18,204.12,Single-ply,SBD,F
Girls,67.36,14,Christiana Cuellar,Goliad,64.59,79.38,38.56,79.38,197.31,Single-ply,SBD,F
Girls,67.36,15,Delaney Regalado,Stockdale,64.14,68.04,36.29,90.72,195.04,Single-ply,SBD,F
Girls,67.36,16,Estefania Osorio Cervantes,Yorktown,65.95,74.84,27.22,92.99,195.04,Single-ply,SBD,F
Girls,67.36,17,Emma Kreymann,Stockdale,64.14,52.16,38.56,56.7,147.42,Single-ply,SBD,F
Girls,75.07,1,Loren Chavez,San Antonio Brooks Academy,72.76,151.95,106.59,145.15,403.7,Single-ply,SBD,F
Girls,75.07,2,Kinley Liska,Karnes City,73.39,149.69,86.18,138.35,374.21,Single-ply,SBD,F
Girls,75.07,3,Anna Bonnet,Karnes City,70.85,108.86,49.9,102.06,260.82,Single-ply,SBD,F
Girls,75.07,4,Sofia Aguilar,Pleasanton,73.66,97.52,43.09,106.59,247.21,Single-ply,SBD,F
Girls,75.07,5,Jade-Lynne Lewis,Refugio,67.77,79.38,36.29,104.33,219.99,Single-ply,SBD,F
Girls,75.07,6,Kristiana Hernandez,Runge,72.76,77.11,36.29,88.45,201.85,Single-ply,SBD,F
Girls,82.33,1,Cassie Castro,Poth,79.29,167.83,61.23,151.95,381.02,Single-ply,SBD,F
Girls,82.33,2,Amanda Rivera,Poteet,79.65,179.17,63.5,136.08,378.75,Single-ply,SBD,F
Girls,82.33,3,Alaysha Redditt-Castro,San Antonio Brooks Academy,82.01,149.69,68.04,117.93,335.66,Single-ply,SBD,F
Girls,82.33,4,Ayde Ordaz,Refugio,78.11,92.99,47.63,102.06,242.67,Single-ply,SBD,F
Girls,82.33,5,Mariah Vela,Stockdale,75.57,70.31,36.29,83.91,190.51,Single-ply,SBD,F
Girls,90.04,1,Larissa Miller,Kenedy,82.46,142.88,72.57,151.95,367.41,Single-ply,SBD,F
Girls,90.04,2,Olivia Monsevais,Karnes City,88.09,142.88,74.84,138.35,356.07,Single-ply,SBD,F
Girls,90.04,3,DeAnna Wood,San Antonio Brooks Academy,89.9,120.2,95.25,111.13,326.59,Single-ply,SBD,F
Girls,100.02,1,Amberosia Aleman,Kenedy,95.8,188.24,86.18,158.76,433.18,Single-ply,SBD,F
Girls,100.02,2,Tessa Welch,Pleasanton,91.44,115.67,61.23,120.2,297.1,Single-ply,SBD,F
Girls,100.02,3,Brianna Ortiz,Pleasanton,97.34,129.27,49.9,111.13,290.3,Single-ply,SBD,F
Girls,100.02,4,Darian De los Santos,Karnes City,95.8,90.72,49.9,127.01,267.62,Single-ply,SBD,F
Girls,100.02,DQ,Gabby Moreno,Runge,94.44,,,,,Single-ply,SBD,F
Girls,117.71,1,Samantha Heimer,San Antonio Brooks Academy,103.51,199.58,163.29,149.69,512.56,Single-ply,SBD,F
Girls,117.71,2,Charity Holland,Universal City Randolph,103.69,136.08,68.04,127.01,331.12,Single-ply,SBD,F
Girls,117.71,3,Kaylah Glaspie,Universal City Randolph,102.6,81.65,45.36,97.52,224.53,Single-ply,SBD,F
Girls,117.71+,1,Aunriette Davis,Goliad,134.63,145.15,90.72,140.61,376.48,Single-ply,SBD,F
Girls,117.71+,2,Sophia Arrendondo,San Antonio Brooks Academy,134.9,147.42,74.84,131.54,353.8,Single-ply,SBD,F
Girls,117.71+,3,Illeana Bosquez,Pleasanton,130.54,138.35,65.77,142.88,347,Single-ply,SBD,F
Girls,117.71+,4,Aracely Nieto,George West,122.65,122.47,63.5,142.88,328.85,Single-ply,SBD,F
Girls,,NS,Noel Biddles,Goliad,,,,,,Single-ply,SBD,F
Girls,,NS,Casey Mathis,Karnes City,,,,,,Single-ply,SBD,F
Girls,,NS,Amberlee Valadez,Stockdale,,,,,,Single-ply,SBD,F
Girls,,NS,Analiza Noguez,Stockdale,,,,,,Single-ply,SBD,F
Girls,,NS,Alejandra Hernandez,Kenedy,,,,,,Single-ply,SBD,F
Girls,,NS,Alena Davis,Universal City Randolph,,,,,,Single-ply,SBD,F
Girls,,NS,Amara Davis,Universal City Randolph,,,,,,Single-ply,SBD,F
Girls,,NS,Majesty Holland,Universal City Randolph,,,,,,Single-ply,SBD,F
Girls,,NS,Jaida White,Universal City Randolph,,,,,,Single-ply,SBD,F
Girls,,NS,Miranda Ovalle,Pleasanton,,,,,,Single-ply,SBD,F
Girls,,NS,Alizae Navejar,Pleasanton,,,,,,Single-ply,SBD,F
Girls,,NS,Nayara Lucas,Pleasanton,,,,,,Single-ply,SBD,F
Girls,,NS,Madison Curbow,Pleasanton,,,,,,Single-ply,SBD,F
Girls,,NS,Alina Escamilla,Poteet,,,,,,Single-ply,SBD,F
Girls,,NS,Kyra Garcia,Poteet,,,,,,Single-ply,SBD,F
Girls,,NS,Samantha Ramos,Poteet,,,,,,Single-ply,SBD,F
Girls,,NS,Jazz-Lynn Lewis,Refugio,,,,,,Single-ply,SBD,F
Girls,,NS,Emma Kenny,Universal City Randolph,,,,,,Single-ply,SBD,F
Girls,,NS,Mikayla Williams,Yorktown,,,,,,Single-ply,SBD,F
Girls,,NS,Thalia Bosquez,Pleasanton,,,,,,Single-ply,SBD,F
Girls,,NS,Maleigh Brown,Refugio,,,,,,Single-ply,SBD,F
Girls,,NS,Naomi Mendoza,Runge,,,,,,Single-ply,SBD,F
Girls,,NS,Kamryn Gutierrez,Runge,,,,,,Single-ply,SBD,F
