Division,WeightClassKg,Place,Name,Team,BodyweightKg,Best3SquatKg,Best3BenchKg,Best3DeadliftKg,TotalKg,Equipment,Event,Sex
Boys,51.71,1,Callan Yarborough,Iowa Park,51.17,92.99,54.43,102.06,249.48,Single-ply,SBD,M
Boys,51.71,2,Blake Rogers,Wichita Falls Rider,41,77.11,47.63,99.79,224.53,Single-ply,SBD,M
Boys,55.79,1,Corbyn Sharp,Vernon,55.52,102.06,81.65,124.74,308.44,Single-ply,SBD,M
Boys,55.79,2,Angkennan Phannet,Wichita Falls,55.79,97.52,65.77,113.4,276.69,Single-ply,SBD,M
Boys,55.79,3,Landen Polvado,Burkburnett,55.79,95.25,52.16,97.52,244.94,Single-ply,SBD,M
Boys,55.79,4,Stephen Harris,Burkburnett,55.79,90.72,38.56,102.06,231.33,Single-ply,SBD,M
Boys,55.79,DQ,Michael Latham,Burkburnett,55.79,,,,,Single-ply,SBD,M
Boys,59.87,1,Casey Fung,Iowa Park,59.87,142.88,88.45,145.15,376.48,Single-ply,SBD,M
Boys,67.13,1,Tuan Hoang,Wichita Falls City View,65.5,201.85,99.79,215.46,517.1,Single-ply,SBD,M
Boys,67.13,2,Cayden Wright,Burkburnett,64.14,154.22,97.52,158.76,410.5,Single-ply,SBD,M
Boys,67.13,3,Christopher Laxamana,Wichita Falls Hirschi,65.32,156.49,83.91,170.1,410.5,Single-ply,SBD,M
Boys,67.13,4,Joey Savel,Iowa Park,66.04,158.76,79.38,172.37,410.5,Single-ply,SBD,M
Boys,67.13,5,Andrew Tanguma,Wichita Falls,66.95,131.54,86.18,181.44,399.16,Single-ply,SBD,M
Boys,67.13,6,John Nabors,Wichita Falls City View,66.59,140.61,72.57,161.03,374.21,Single-ply,SBD,M
Boys,67.13,7,De'Shawn Peoples,Wichita Falls City View,64.77,136.08,58.97,138.35,333.39,Single-ply,SBD,M
Boys,67.13,8,Kason Major,Burkburnett,65.59,124.74,65.77,138.35,328.85,Single-ply,SBD,M
Boys,67.13,9,Cody Sauceda,Wichita Falls,63.96,90.72,72.57,136.08,299.37,Single-ply,SBD,M
Boys,67.13,10,Connor Kirkland,Wichita Falls City View,61.14,74.84,45.36,102.06,222.26,Single-ply,SBD,M
Boys,74.84,1,Michael Trinh,Wichita Falls,71.12,167.83,106.59,197.31,471.74,Single-ply,SBD,M
Boys,74.84,2,Bryson Austin,Vernon,73.12,188.24,102.06,181.44,471.74,Single-ply,SBD,M
Boys,74.84,3,Chris Graham,Wichita Falls City View,68.76,183.7,92.99,185.97,462.66,Single-ply,SBD,M
Boys,74.84,3,Daine Wilson,Wichita Falls Rider,70.22,147.42,95.25,149.69,392.36,Single-ply,SBD,M
Boys,74.84,4,Mathew Terry,Wichita Falls,74.12,165.56,92.99,183.7,442.25,Single-ply,SBD,M
Boys,74.84,5,Brandon Hernandez,Iowa Park,74.84,167.83,122.47,149.69,439.98,Single-ply,SBD,M
Boys,74.84,6,Bobby Copeland,Wichita Falls City View,73.48,151.95,79.38,201.85,433.18,Single-ply,SBD,M
Boys,74.84,7,Mason Duke,Burkburnett,74.48,158.76,90.72,170.1,419.57,Single-ply,SBD,M
Boys,74.84,8,Carson Stevens,Iowa Park,72.39,151.95,102.06,163.29,417.3,Single-ply,SBD,M
Boys,74.84,9,Coleman Bledsoe,Wichita Falls Rider,72.03,147.42,97.52,165.56,410.5,Single-ply,SBD,M
Boys,74.84,10,Tommy Elder,Wichita Falls,71.12,120.2,83.91,142.88,347,Single-ply,SBD,M
Boys,74.84,11,Segan Prince,Wichita Falls City View,68.31,117.93,68.04,127.01,312.98,Single-ply,SBD,M
Boys,74.84,12,Diego Marmellejo,Wichita Falls,68.04,104.33,58.97,131.54,294.84,Single-ply,SBD,M
Boys,74.84,13,De'Andre Casemere,Burkburnett,72.57,113.4,63.5,102.06,278.96,Single-ply,SBD,M
Boys,82.1,1,Chance Bledsoe,Wichita Falls Rider,78.38,204.12,104.33,183.7,492.15,Single-ply,SBD,M
Boys,82.1,2,Crafton Lindenborn,Wichita Falls City View,81.83,170.1,115.67,206.38,492.15,Single-ply,SBD,M
Boys,82.1,4,Jakob Stockinger,Burkburnett,82.1,136.08,83.91,158.76,378.75,Single-ply,SBD,M
Boys,82.1,5,Javeri Miller,Wichita Falls City View,82.1,120.2,61.23,158.76,340.19,Single-ply,SBD,M
Boys,82.1,6,Antwone Willis,Wichita Falls City View,82.1,124.74,68.04,136.08,328.85,Single-ply,SBD,M
Boys,82.1,7,Blaiton Foretic,Wichita Falls City View,77.29,99.79,56.7,108.86,265.35,Single-ply,SBD,M
Boys,82.1,DQ,Rene Lerma,Wichita Falls City View,78.93,138.35,74.84,,,Single-ply,SBD,M
Boys,82.1,DQ,James Craven,Iowa Park,77.38,151.95,,183.7,,Single-ply,SBD,M
Boys,89.81,1,Fred Fleeks,Wichita Falls Hirschi,89.54,192.78,111.13,204.12,508.02,Single-ply,SBD,M
Boys,89.81,2,Chris Nabors,Wichita Falls City View,87,201.85,106.59,188.24,496.68,Single-ply,SBD,M
Boys,89.81,3,Dalton Reagan,Vernon,89.81,192.78,124.74,167.83,485.34,Single-ply,SBD,M
Boys,89.81,4,Tristan Perez,Wichita Falls Hirschi,89.09,183.7,108.86,185.97,478.54,Single-ply,SBD,M
Boys,89.81,5,Austin Phillips,Iowa Park,89.36,204.12,113.4,158.76,476.27,Single-ply,SBD,M
Boys,89.81,6,Jaden Stringfellow,Burkburnett,85.28,181.44,102.06,181.44,464.93,Single-ply,SBD,M
Boys,89.81,7,Tinaye Mubvumba,Vernon,83.82,149.69,95.25,188.24,433.18,Single-ply,SBD,M
Boys,89.81,8,Trasce Ensley,Wichita Falls City View,85.91,161.03,83.91,165.56,410.5,Single-ply,SBD,M
Boys,89.81,9,Tryston Randall,Wichita Falls Hirschi,84.19,131.54,86.18,158.76,376.48,Single-ply,SBD,M
Boys,99.79,1,Julian Garcia,Wichita Falls City View,96.98,197.31,106.59,195.04,498.95,Single-ply,SBD,M
Boys,99.79,2,Ian McClure,Burkburnett,97.7,192.78,102.06,170.1,464.93,Single-ply,SBD,M
Boys,99.79,3,Gordian Nzeh-Biko,Wichita Falls Hirschi,90.63,192.78,90.72,167.83,451.32,Single-ply,SBD,M
Boys,99.79,4,Jaob Esparza,Vernon,98.88,167.83,83.91,181.44,433.18,Single-ply,SBD,M
Boys,99.79,5,Cameron Amador,Wichita Falls Rider,98.16,156.49,88.45,165.56,410.5,Single-ply,SBD,M
Boys,99.79,6,Hayden Meng,Burkburnett,94.62,138.35,70.31,142.88,351.53,Single-ply,SBD,M
Boys,99.79,7,Jonathan Scroggs,Wichita Falls Hirschi,89.9,102.06,45.36,104.33,251.74,Single-ply,SBD,M
Boys,109.77,1,Jimmy Tran,Wichita Falls,102.97,272.16,122.47,235.87,630.49,Single-ply,SBD,M
Boys,109.77,2,Makkedah Brown,Wichita Falls,102.51,208.65,124.74,217.72,551.11,Single-ply,SBD,M
Boys,109.77,3,Cooper Duke,Burkburnett,100.88,170.1,83.91,185.97,439.98,Single-ply,SBD,M
Boys,109.77,4,Brady Baird,Wichita Falls City View,108.05,192.78,90.72,147.42,430.91,Single-ply,SBD,M
Boys,109.77,5,Cameron Dandridge,Wichita Falls City View,104.05,147.42,129.27,149.69,426.38,Single-ply,SBD,M
Boys,109.77,6,Cameron Hudson,Wichita Falls City View,104.42,172.37,115.67,138.35,426.38,Single-ply,SBD,M
Boys,109.77,7,Hunter Green,Wichita Falls City View,103.6,138.35,83.91,138.35,360.61,Single-ply,SBD,M
Boys,124.74,1,Jeremiah Stanley,Iowa Park,121.65,233.6,165.56,208.65,607.81,Single-ply,SBD,M
Boys,124.74,2,Kyson Hoskins,Burkburnett,122.29,231.33,142.88,217.72,591.94,Single-ply,SBD,M
Boys,124.74,3,AJ Sargent,Wichita Falls Rider,120.66,195.04,149.69,201.85,546.58,Single-ply,SBD,M
Boys,124.74,4,Jayden Parsons,Iowa Park,119.93,181.44,120.2,181.44,483.08,Single-ply,SBD,M
Boys,124.74,5,D'Artanyion Hernandez,Wichita Falls Hirschi,111.58,172.37,104.33,181.44,458.13,Single-ply,SBD,M
Boys,124.74,6,Ethan Boren,Wichita Falls Hirschi,115.03,181.44,97.52,163.29,442.25,Single-ply,SBD,M
Boys,124.74+,1,Marc Guerra,Burkburnett,131.09,192.78,142.88,181.44,517.1,Single-ply,SBD,M
Boys,124.74+,2,Ray Rios,Wichita Falls Hirschi,127.55,172.37,102.06,176.9,451.32,Single-ply,SBD,M
Boys,124.74+,3,Ethan Moulton,Iowa Park,136.08,156.49,102.06,136.08,394.63,Single-ply,SBD,M
