Event,Sex,Name,State,BodyweightKg,WeightClassKg,Division,Best3SquatKg,Best3BenchKg,Best3DeadliftKg,TotalKg,Equipment,Place
SBD,M,Matthew Laroche,QU,71.9,74,Sub-Juniors,165,95,215,475,Raw,1
SBD,M,Raphael Boutin,QU,65,66,Sub-Juniors,157.5,130.5,185,473,Raw,1
SBD,M,Carlos Bernier,QU,62.9,66,Sub-Juniors,155,100,185,440,Raw,2
SBD,F,Fauve-Belle Bouchard,QU,61.9,63,Sub-Juniors,137.5,89,147.5,374,Raw,1
SBD,F,Marie-Li Dion,QU,54.4,57,Sub-Juniors,105,75.5,132.5,313,Raw,2
SBD,F,Annie-Pier Lavoie,QU,56.9,57,Sub-Juniors,142.5,70,141,353.5,Raw,1
SBD,F,Sandrine Krans,QU,51.3,52,Sub-Juniors,90,52.5,115,257.5,Raw,1
SBD,M,Xin-Di Dong,QU,92,93,Open,252.5,177.5,252.5,682.5,Raw,6
SBD,M,Vincent Pelletier,QU,91.2,93,Open,210,132.5,235,577.5,Raw,12
SBD,M,Sébastien Blais,QU,92.3,93,Open,240,75,255,570,Raw,13
SBD,M,Renaud Tremblay,QU,92.1,93,Open,252.5,177.5,280,710,Raw,4
SBD,M,Olivier Laperrière,QU,84.6,93,Open,247.5,140,260,647.5,Raw,8
SBD,M,Michael Lague St-Jean,QU,91.4,93,Open,217.5,115,232.5,565,Raw,14
SBD,M,Mathieu Doré,QU,91.8,93,Open,290,175,280,745,Raw,2
SBD,M,Mathieu Dehoey,QU,91.4,93,Open,220,145,265,630,Raw,9
SBD,M,Jean-Philippe Morin,QU,90.3,93,Open,215,147.5,265,627.5,Raw,10
SBD,M,Jean-Mathieu Desjardins,QU,90.9,93,Open,217.5,145,260,622.5,Raw,11
SBD,M,Francis Martineau,QU,92.2,93,Open,250,147.5,262.5,660,Raw,7
SBD,M,Danny Bissonnette,QU,91.7,93,Open,192.5,130,210,532.5,Raw,15
SBD,M,Carl Jobin-Shaw,QU,92.9,93,Open,252.5,165,280,697.5,Raw,5
SBD,M,Andrew Lutzuk,QU,90.8,93,Open,257.5,157.5,312.5,727.5,Raw,3
SBD,M,Alexandre Ouellet-Hébert,QU,92.5,93,Open,275,185,322.5,782.5,Raw,1
SBD,F,Sophie Chaput-Langlois,QU,105.1,84+,Open,142.5,65,147.5,355,Raw,5
SBD,F,Rebecca Garand,QU,90.5,84+,Open,178,95,203,476,Raw,1
SBD,F,Lisa Polkosnik,QU,120.4,84+,Open,140,72.5,165,377.5,Raw,4
SBD,F,Christine Hearn,QU,94,84+,Open,150,77.5,172.5,400,Raw,2
SBD,F,Aisling Lynch,QU,105.3,84+,Open,132.5,77.5,167.5,377.5,Raw,3
SBD,M,Éli Richard,QU,82.5,83,Open,230,152.5,250,632.5,Raw,2
SBD,M,Nicolas Lévesque,QU,78.4,83,Open,202.5,142.5,252.5,597.5,Raw,5
SBD,M,Jonathan Simard,QU,82,83,Open,262.5,190,252.5,705,Raw,1
SBD,M,Jonathan Dupuis,QU,82.6,83,Open,210,162.5,240,612.5,Raw,4
SBD,M,Jean-Michel Hovington,QU,80.1,83,Open,190,112.5,232.5,535,Raw,6
SBD,M,Félix Gagnon,QU,82,83,Open,212.5,137.5,272.5,622.5,Raw,3
SBD,M,Vincent Dion,QU,72.7,74,Open,205,150,235,590,Raw,3
SBD,M,Sean Bouffard,QU,72.5,74,Open,175,125,197.5,497.5,Raw,7
SBD,M,Samuel Laverrière,QU,72.3,74,Open,212.5,155.5,252.5,620.5,Raw,1
SBD,M,Phillipe Gendron,QU,73.8,74,Open,192.5,112.5,263,568,Raw,4
SBD,M,Guillaume Bélisle,QU,71.7,74,Open,210,127.5,230,567.5,Raw,5
SBD,M,Francis Maltais,QU,72.7,74,Open,180,142.5,280,602.5,Raw,2
SBD,M,Brice Bourdeau,QU,72.6,74,Open,190,135,225,550,Raw,6
SBD,M,Antoine Vermette,QU,73.9,74,Open,75,127.5,75,277.5,Raw,8
SBD,F,Valérie Lemay,QU,70.9,72,Open,155,90,175,420,Raw,2
SBD,F,Milena Battista,QU,70.2,72,Open,142.5,70,160,372.5,Raw,3
SBD,F,Melissa Hernandez Batista,QU,70.8,72,Open,162.5,82.5,192.5,437.5,Raw,1
SBD,F,Jingwen Cao,QU,68.1,72,Open,127.5,75,152.5,355,Raw,4
SBD,F,Catherine Laprise,QU,66.3,72,Open,112.5,60,145,317.5,Raw,5
SBD,F,Naja Ronzetti,QU,61.2,63,Open,120,70,155,345,Raw,3
SBD,F,Nadia Alayoubi,QU,62.3,63,Open,125,77.5,183,385.5,Raw,2
SBD,F,Leah Mamane,QU,59.9,63,Open,145,90,175,410,Raw,1
SBD,M,Serge Gauthier,QU,54.6,59,Open,170,113,190,473,Raw,1
SBD,F,Sabrina Trudel,QU,52.5,57,Open,118,62.5,137.5,318,Raw,1
SBD,F,Rachel Plamondon,QU,56.7,57,Open,107.5,62.5,147.5,317.5,Raw,2
SBD,F,Mélanie Lucuix-André,QU,56.3,57,Open,125,62.5,122.5,310,Raw,3
SBD,F,Sherika Hilario,QU,51.8,52,Open,105,65,155,325,Raw,1
SBD,F,Mymy Le,QU,51.1,52,Open,100,57.5,125,282.5,Raw,3
SBD,F,Caroline Acoca,QU,51.5,52,Open,105,62.5,137.5,305,Raw,2
SBD,M,Bruno Boucher,QU,132.5,120+,Open,317.5,205,280,802.5,Raw,1
SBD,M,Samuel Turcotte,QU,111.6,120,Open,257.5,190,267.5,715,Raw,3
SBD,M,Mickael Cloutier,QU,119.1,120,Open,320.5,217.5,322.5,860.5,Raw,1
SBD,M,Mario Bonilla,QU,118.7,120,Open,220,155,260,635,Raw,8
SBD,M,Marc Cardinal,QU,117.2,120,Open,297.5,177.5,363.5,838.5,Raw,2
SBD,M,Julien Duchesne,QU,109.1,120,Open,217.5,120,235,572.5,Raw,11
SBD,M,Jordan Di Ninni,QU,117.6,120,Open,227.5,140,235,602.5,Raw,10
SBD,M,Joan Qendro,QU,108.1,120,Open,245,155,267.5,667.5,Raw,7
SBD,M,Hugo Roy,QU,109.2,120,Open,217.5,157.5,230,605,Raw,9
SBD,M,Gregory Chivers-Harris,QU,117.8,120,Open,245,157.5,275,677.5,Raw,6
SBD,M,David Fortin,QU,114.3,120,Open,270,187.5,257.5,715,Raw,4
SBD,M,Alexandre Ouellet,QU,116.8,120,Open,257.5,160,260,677.5,Raw,5
SBD,M,Vincent Marcil,QU,96.3,105,Open,237.5,162.5,262.5,662.5,Raw,3
SBD,M,Stephane Min,QU,101.7,105,Open,232.5,135,235,602.5,Raw,6
SBD,M,Marc-Olivier Allard,QU,97.3,105,Open,227.5,155,260,642.5,Raw,4
SBD,M,Jean-Philip Robitaille,QU,103.2,105,Open,242.5,150,240,632.5,Raw,5
SBD,M,Gabriel-Antoine Gosselin,QU,93.8,105,Open,270,197.5,252.5,720,Raw,2
SBD,M,Dave Powell,QU,104.4,105,Open,285.5,180,275,740.5,Raw,1
SBD,M,Bernard Vachon,QU,73.1,74,Masters 3,207.5,85,227.5,520,Raw,1
SBD,M,Réjean Talon,QU,65.4,66,Masters 3,167.5,122.5,190,480,Raw,1
SBD,F,Janet Warne,QU,55.2,57,Masters 3,85,45,90,220,Raw,1
SBD,M,Claude Dallaire,QU,92.1,93,Masters 2,200,125,240,565,Raw,1
SBD,M,Aldy Hovington,QU,79.8,83,Masters 2,162.5,100,215,477.5,Raw,1
SBD,M,François Cazes,QU,72.7,74,Masters 2,155,105,207.5,467.5,Raw,1
SBD,F,Renée Croteau-Paradis,QU,68.2,72,Masters 2,72.5,60,102.5,235,Raw,1
SBD,M,Harold Veilleux,QU,114.4,120,Masters 2,240,165,272.5,677.5,Raw,1
SBD,M,Jacques Potvin,QU,101.7,105,Masters 2,230,165,242.5,637.5,Raw,1
SBD,F,Dana Mills,QU,80.7,84,Masters 1,150.5,85.5,152.5,388.5,Raw,1
SBD,F,Amarilis Galeano,QU,80.9,84,Masters 1,151,70,155,376,Raw,2
SBD,M,Marc Chapados,QU,81.9,83,Masters 1,160,132.5,202.5,495,Raw,1
SBD,M,Jérôme Bouffard,QU,64.8,66,Masters 1,162.5,107.5,170,440,Raw,2
SBD,M,Jean-Sébastien Rhéaume,QU,65.1,66,Masters 1,212.5,130,230,572.5,Raw,1
SBD,M,Mario Sayeur,QU,139.8,120+,Masters 1,290,155,295,740,Raw,1
SBD,M,Stéphane Grimard,QU,114.6,120,Masters 1,230,172.5,237.5,640,Raw,3
SBD,M,Peter Michaud,QU,116.5,120,Masters 1,237.5,152.5,252.5,642.5,Raw,2
SBD,M,Patrick Talbot,QU,114.3,120,Masters 1,275.5,185.5,267.5,728.5,Raw,1
SBD,M,Dominic Deblois,QU,100.3,105,Masters 1,180,172.5,318,670.5,Raw,1
SBD,M,Vincent Larocque,QU,89.5,93,Juniors,220,150,257.5,627.5,Raw,3
SBD,M,Miguel Archambault,QU,92.8,93,Juniors,192.5,115,200,507.5,Raw,6
SBD,M,Mathieu Kennedy,QU,86.5,93,Juniors,232.5,145,265,642.5,Raw,2
SBD,M,Jonathan Nuguid,QU,84.3,93,Juniors,170,117.5,220,507.5,Raw,5
SBD,M,Ilja Novickij,QU,83.4,93,Juniors,195,130,222.5,547.5,Raw,4
SBD,M,Charlie Caron,QU,90.2,93,Juniors,255,152.5,252.5,660,Raw,1
SBD,F,Ariana Gagnon,QU,100,84+,Juniors,145,85,172.5,402.5,Raw,1
SBD,M,William Maldemay,QU,80.8,83,Juniors,190,127.5,232.5,550,Raw,4
SBD,M,Olivier Jodoin,QU,78.4,83,Juniors,172.5,127.5,225,525,Raw,8
SBD,M,Olivier Boutin,QU,80.1,83,Juniors,192.5,122.5,220,535,Raw,7
SBD,M,Khalil Kreidieh,QU,78.1,83,Juniors,202.5,112.5,220,535,Raw,6
SBD,M,Jacob Durette,QU,79.9,83,Juniors,215,130,240,585,Raw,3
SBD,M,Frédérick Trudeau,QU,82,83,Juniors,202.5,125,222.5,550,Raw,5
SBD,M,François Pham,QU,77.8,83,Juniors,177.5,115,220,512.5,Raw,9
SBD,M,Fabien Bueno,QU,81.3,83,Juniors,210,135,247.5,592.5,Raw,2
SBD,M,Carlos Garcés,QU,79,83,Juniors,220,142.5,245,607.5,Raw,1
SBD,M,Louis-David Champagne,QU,73.3,74,Juniors,197.5,102.5,205,505,Raw,2
SBD,M,Christian Brillon,QU,72.8,74,Juniors,150,130,190,470,Raw,3
SBD,M,Anthony Lebel,QU,72.7,74,Juniors,182.5,105,217.5,505,Raw,1
SBD,F,Marianne Groleau,QU,70.9,72,Juniors,152.5,75,180,407.5,Raw,2
SBD,F,Camille Tremblay,QU,71.4,72,Juniors,180,87.5,155,422.5,Raw,1
SBD,F,Andrée-Ann Boily,QU,71.4,72,Juniors,100,52.5,115,267.5,Raw,3
SBD,M,Jonathan Fernandez-Pelletier,QU,63,66,Juniors,150,92.5,172.5,415,Raw,1
SBD,F,Élodie Morin,QU,62.1,63,Juniors,145,95,167.5,407.5,Raw,1
SBD,F,Justine Maltais,QU,62.7,63,Juniors,145,95.5,165,405.5,Raw,2
SBD,M,Jonathan Kardash,QU,58.3,59,Juniors,155,102.5,150,407.5,Raw,1
SBD,F,Cloé St-Hilaire,QU,56.9,57,Juniors,115,60,125,300,Raw,2
SBD,F,Cassandra Wuerth,QU,55.9,57,Juniors,117.5,55,142.5,315,Raw,1
SBD,F,Rebecca Ubhi,QU,49,52,Juniors,90,40,102.5,232.5,Raw,3
SBD,F,Elizabeth Renaud,QU,51,52,Juniors,105,52.5,122.5,280,Raw,2
SBD,F,Amélie Picher-Plante,QU,50.7,52,Juniors,117.5,72.5,135,325,Raw,1
SBD,M,Fady Mitry,QU,107.4,120,Juniors,215,187.5,165,567.5,Raw,2
SBD,M,Alexis Lacombe,QU,113.2,120,Juniors,250,147.5,285,682.5,Raw,1
SBD,M,Nazime Bouneder,QU,100.8,105,Juniors,242.5,160,270,672.5,Raw,2
SBD,M,Marc-Olivier Benoit,QU,93.3,105,Juniors,227.5,160,240,627.5,Raw,3
SBD,M,Marc-Antoine Gosselin,QU,104.5,105,Juniors,275,175,310.5,760.5,Raw,1
SBD,M,Jean-Daniel Lavoie,QU,98,105,Juniors,225,125,265,615,Raw,4
B,M,Félix Guérin,QU,89.2,93,Open,,205,,205,Single-ply,1
B,M,Joel Cloutier,QU,102.6,105,Sub-Juniors,,95,,95,Raw,1
B,M,Jimmy Lapointe,QU,85,93,Open,,160,,160,Raw,1
B,M,Gabriel Aubé,QU,89.4,93,Open,,160,,160,Raw,2
B,M,Olivier Robert,QU,79.7,83,Open,,162.5,,162.5,Raw,1
B,M,Michel Lebrun,QU,117.9,120,Open,,200,,200,Raw,1
B,M,Réjean Dallaire,QU,115.5,120,Masters 4,,130,,130,Raw,1
B,M,Guillaume Fillion,QU,89.5,93,Masters 1,,206,,206,Raw,1
B,M,John Lefuel,QU,78.3,83,Masters 1,,125,,125,Raw,1
