Place,Name,Sex,Event,Division,WeightClassKg,Equipment,BirthYear,State,BodyweightKg,Squat1Kg,Squat2Kg,Squat3Kg,Best3SquatKg,Bench1Kg,Bench2Kg,Bench3Kg,Best3BenchKg,Deadlift1Kg,Deadlift2Kg,Deadlift3Kg,Best3DeadliftKg,TotalKg
1,Reginius VanBeekom,M,B,MR-M2b,93,Raw,1965,MI,89.8,,,,,112.5,125,-135,125,,,,,125
1,Reginius VanBeekom,M,B,MR-O,93,Raw,1965,MI,89.9,,,,,112.5,125,-135,125,,,,,125
1,Katherine Reach,F,SBD,FR-M1b,84+,Raw,1971,MI,86,-100,112.5,122.5,122.5,57.5,62.5,67.5,67.5,102.5,115,-130,115,305
1,Kathryn Holland,F,SBD,FR-M2a,84+,Raw,1964,MI,97.6,42.5,-45,-45,42.5,35,40,-47.5,40,92.5,-105,-110,92.5,175
1,Jessica Hahn,F,SBD,FR-O,63,Raw,1984,MI,60.4,75,-80,80,80,47.5,-52.5,-55,47.5,97.5,102.5,110,110,237.5
1,Chandler Babb,F,SBD,FR-O,72,Raw,1992,MI,71.2,140,145,-150,145,80,-87.5,87.5,87.5,175,185,195,195,427.5
2,Jessica Vertregt,F,SBD,FR-O,72,Raw,1988,MI,68.1,122.5,130,132.5,132.5,60,65,67.5,67.5,137.5,147.5,152.5,152.5,352.5
3,Samantha Ludy,F,SBD,FR-O,72,Raw,1984,MI,67,97.5,102.5,107.5,107.5,55,-60,-60,55,112.5,120,127.5,127.5,290
4,Lauren Teasdale,F,SBD,FR-O,72,Raw,1984,MI,71.2,67.5,72.5,77.5,77.5,42.5,45,-50,45,87.5,95,105,105,227.5
5,Adrianna Hahn,F,SBD,FR-O,72,Raw,2003,MI,70.8,52.5,57.5,62.5,62.5,30,35,-37.5,35,62.5,67.5,75,75,172.5
1,Ashlen Ostrander,F,SBD,FR-O,84,Raw,1994,MI,73.6,92.5,105,117.5,117.5,62.5,72.5,-82.5,72.5,147.5,157.5,-165,157.5,347.5
2,Yvette Babich,F,SBD,FR-O,84,Raw,1990,MI,78.6,117.5,127.5,-137.5,127.5,60,65,67.5,67.5,132.5,147.5,152.5,152.5,347.5
3,Chelsea Young,F,SBD,FR-O,84,Raw,1985,MI,76.2,110,-115,120,120,60,65,-70,65,117.5,125,-135,125,310
4,Ruthie Howe,F,SBD,FR-O,84,Raw,1987,MI,79,102.5,-107.5,-107.5,102.5,45,-50,-52.5,45,125,127.5,132.5,132.5,280
5,Jessica Bennett,F,SBD,FR-O,84,Raw,1987,MI,81.5,82.5,-90,95,95,42.5,-52.5,-52.5,42.5,82.5,87.5,92.5,92.5,230
1,Katherine Reach,F,SBD,FR-O,84+,Raw,1971,MI,86,-100,112.5,122.5,122.5,57.5,62.5,67.5,67.5,102.5,115,-130,115,305
2,Samantha Blicharski,F,SBD,FR-O,84+,Raw,1989,MI,86.1,100,110,117.5,117.5,52.5,57.5,62.5,62.5,-102.5,112.5,122.5,122.5,302.5
3,Stacia Proefrock,F,SBD,FR-O,84+,Raw,1970,MI,128.1,65,70,85,85,45,50,-60,50,120,130,-140,130,265
4,Emily Michelakis,F,SBD,FR-O,84+,Raw,2003,MI,109.1,60,70,80,80,30,35,-40,35,70,80,-90,80,195
5,Kathryn Holland,F,SBD,FR-O,84+,Raw,1964,MI,97.6,42.5,-45,-45,42.5,35,40,-47.5,40,92.5,-105,-110,92.5,175
1,Adrianna Hahn,F,SBD,FR-T1,72,Raw,2003,MI,70.8,52.5,57.5,62.5,62.5,30,35,-37.5,35,62.5,67.5,75,75,172.5
1,Emily Michelakis,F,SBD,FR-T1,84+,Raw,2003,MI,109.1,60,70,80,80,30,35,-40,35,70,80,-90,80,195
1,John Beavers,M,SBD,M-O,105,Single-ply,1961,MI,103.8,182.5,197.5,205,205,145,-155,,145,167.5,-192.5,192.5,192.5,542.5
1,Jack Person,M,SBD,MR-Jr,74,Raw,1997,MI,70.3,132.5,-140,-140,132.5,92.5,-97.5,-97.5,92.5,182.5,192.5,-202.5,192.5,417.5
1,Jared Mroz,M,SBD,MR-Jr,105,Raw,1997,MI,103.4,185,190,-192.5,190,125,130,-137.5,130,222.5,227.5,237.5,237.5,557.5
1,Brad Trosper,M,SBD,MR-M1b,93,Raw,1969,IN,91.7,162.5,170,177.5,177.5,115,122.5,127.5,127.5,180,192.5,202.5,202.5,507.5
1,Christopher Gale,M,SBD,MR-M1b,120+,Raw,1971,MI,134.9,155,160,165,165,117.5,122.5,127.5,127.5,160,167.5,175,175,467.5
1,Mark Branham,M,SBD,MR-M3a,120,Raw,1954,HI,115.1,-102.5,102.5,-125,102.5,105,115,120,120,125,145,152.5,152.5,375
1,Patrick Ng,M,SBD,MR-O,66,Raw,1991,MI,65.1,142.5,152.5,160,160,105,110,115,115,157.5,167.5,-182.5,167.5,442.5
1,Jason Purcell,M,SBD,MR-O,74,Raw,1990,MI,73.5,167.5,175,180,180,120,-127.5,-127.5,120,210,220,230,230,530
2,Andrew Peraino,M,SBD,MR-O,74,Raw,1990,MI,74,125,137.5,152.5,152.5,97.5,105,-117.5,105,185,202.5,215,215,472.5
3,Jack Person,M,SBD,MR-O,74,Raw,1997,MI,70.3,132.5,-140,-140,132.5,92.5,-97.5,-97.5,92.5,182.5,192.5,-202.5,192.5,417.5
4,David Pierce,M,SBD,MR-O,74,Raw,1968,MI,71.1,112.5,-117.5,-120,112.5,75,80,92.5,92.5,137.5,147.5,-155,147.5,352.5
1,Donovan Downing,M,SBD,MR-O,83,Raw,1989,MI,76.3,-142.5,142.5,160,160,120,127.5,-132.5,127.5,197.5,215,-227.5,215,502.5
2,Jeffrey Krishak,M,SBD,MR-O,83,Raw,1991,MI,78.2,132.5,-140,-140,132.5,-122.5,122.5,-127.5,122.5,135,152.5,-185,152.5,407.5
1,Clarke Stebbins,M,SBD,MR-O,93,Raw,1996,MI,87.2,152.5,160,170,170,110,117.5,-125,117.5,202.5,215,227.5,227.5,515
2,Brad Trosper,M,SBD,MR-O,93,Raw,1969,IN,91.7,162.5,170,177.5,177.5,115,122.5,127.5,127.5,180,192.5,202.5,202.5,507.5
1,Kevin Nicotera,M,SBD,MR-O,105,Raw,1989,MI,104,215,-227.5,-227.5,215,147.5,155,-165,155,242.5,-262.5,-262.5,242.5,612.5
2,Jared Mroz,M,SBD,MR-O,105,Raw,1997,MI,103.4,185,190,-192.5,190,125,130,-137.5,130,222.5,227.5,237.5,237.5,557.5
1,John Hefferon Iv,M,SBD,MR-O,120,Raw,1990,MI,119.3,225,245,260,260,140,155,-167.5,155,197.5,217.5,240,240,655
2,Nicholas Evans,M,SBD,MR-O,120,Raw,1994,MI,117.8,205,215,227.5,227.5,145,157.5,162.5,162.5,225,237.5,250,250,640
3,Cameron Edmonds,M,SBD,MR-O,120,Raw,1994,MI,114,200,212.5,217.5,217.5,127.5,132.5,137.5,137.5,210,220,227.5,227.5,582.5
4,Jeffrey Fenton,M,SBD,MR-O,120,Raw,1983,MI,114.5,150,167.5,-175,167.5,115,127.5,-130,127.5,185,-205,-212.5,185,480
5,Mark Branham,M,SBD,MR-O,120,Raw,1954,HI,115.1,-102.5,102.5,-125,102.5,105,115,120,120,125,145,152.5,152.5,375
1,Travis Brown,M,SBD,MR-O,120+,Raw,1991,MI,132.6,237.5,245,257.5,257.5,142.5,-152.5,-152.5,142.5,265,277.5,-280,277.5,677.5
2,Jeremy Fry,M,SBD,MR-O,120+,Raw,1986,MI,149.7,170,-180,180,180,115,122.5,-132.5,122.5,215,220,227.5,227.5,530
3,Christopher Gale,M,SBD,MR-O,120+,Raw,1971,MI,134.9,155,160,165,165,117.5,122.5,127.5,127.5,160,167.5,175,175,467.5
