Division,WeightClassKg,Place,Name,Team,BodyweightKg,Best3SquatKg,Best3BenchKg,Best3DeadliftKg,TotalKg,Equipment,Event,Sex
Boys,51.71,1,Noah Vasquez,Palmer,50.98,145.15,92.99,147.42,385.55,Single-ply,SBD,M
Boys,51.71,2,Braden Fears,White Oak,51.62,140.61,86.18,158.76,385.55,Single-ply,SBD,M
Boys,51.71,3,Ethen Stack,Scurry-Rosser,51.17,136.08,90.72,147.42,374.21,Single-ply,SBD,M
Boys,51.71,4,Jeremiah Carino,Ladonia Fannindel,51.17,149.69,70.31,147.42,367.41,Single-ply,SBD,M
Boys,51.71,5,Coleman Hardin,Frankston,51.44,142.88,77.11,142.88,362.87,Single-ply,SBD,M
Boys,51.71,6,Brandon Stidham,Gladewater Sabine,49.17,138.35,81.65,136.08,356.07,Single-ply,SBD,M
Boys,51.71,7,Eric Hernandez,New London West Rusk,51.35,120.2,79.38,142.88,342.46,Single-ply,SBD,M
Boys,51.71,8,Dayce Drennan,Winnsboro,51.35,122.47,56.7,131.54,310.71,Single-ply,SBD,M
Boys,51.71,9,Chandler Bush,Elysian Fields,50.44,127.01,52.16,129.27,308.44,Single-ply,SBD,M
Boys,51.71,10,Kole Barrentine,Pattonville Prairiland,51.71,92.99,63.5,124.74,281.23,Single-ply,SBD,M
Boys,51.71,DQ,Patrick Dreesen,Linden-Kildare,51.71,,,,,Single-ply,SBD,M
Boys,51.71,DQ,Jayden Prince,Waskom,51.71,,,,,Single-ply,SBD,M
Boys,51.71,DQ,James Kessell,Simms Bowie,49.8,129.27,,,,Single-ply,SBD,M
Boys,55.79,1,Richard Lowrie,Kemp,55.79,174.63,106.59,165.56,446.79,Single-ply,SBD,M
Boys,55.79,2,Nate Mendoza,Kemp,55.43,147.42,77.11,158.76,383.29,Single-ply,SBD,M
Boys,55.79,3,Angel Sosa,Rice,55.79,151.95,70.31,145.15,367.41,Single-ply,SBD,M
Boys,55.79,4,Chandler Prnka,Malakoff,53.98,145.15,65.77,147.42,358.34,Single-ply,SBD,M
Boys,55.79,5,Cannon Churchman,Palestine Westwood,55.79,147.42,70.31,140.61,358.34,Single-ply,SBD,M
Boys,55.79,6,Alberto Gonzalez,Centerville,55.43,127.01,74.84,140.61,342.46,Single-ply,SBD,M
Boys,55.79,7,Adam Elkins,Dawson,55.43,140.61,63.5,136.08,340.19,Single-ply,SBD,M
Boys,55.79,8,Dwight Cook,Gilmer Union Hill,54.79,124.74,54.43,147.42,326.59,Single-ply,SBD,M
Boys,55.79,9,Caleb Ashley,Paris Chisum,55.61,113.4,81.65,122.47,317.51,Single-ply,SBD,M
Boys,55.79,10,Eddie Hernandez,New London West Rusk,55.79,124.74,,,124.74,Single-ply,S,M
Boys,55.79,DQ,Chad Collup,Scurry-Rosser,53.34,113.4,58.97,,,Single-ply,SBD,M
Boys,55.79,DQ,Bob Hernandez,Malakoff Cross Roads,52.89,131.54,65.77,,,Single-ply,SBD,M
Boys,59.87,1,Juan Hernandez #4,Palmer,58.6,176.9,102.06,188.24,467.2,Single-ply,SBD,M
Boys,59.87,2,Sean Busby,Teague,59.51,195.04,92.99,167.83,455.86,Single-ply,SBD,M
Boys,59.87,3,Chase Kirby,Dawson,59.69,165.56,99.79,172.37,437.72,Single-ply,SBD,M
Boys,59.87,4,Caleb Smith,Troup,59.69,183.7,90.72,158.76,433.18,Single-ply,SBD,M
Boys,59.87,5,Tristan Castillo,Eustace,58.88,167.83,95.25,167.83,430.91,Single-ply,SBD,M
Boys,59.87,6,Aundrea Holmes,Trinity,59.78,174.63,88.45,161.03,424.11,Single-ply,SBD,M
Boys,59.87,7,Jason Jackson,De Kalb,58.69,161.03,90.72,156.49,408.23,Single-ply,SBD,M
Boys,59.87,8,Brendan Alexander,Pollok Central,59.87,147.42,83.91,163.29,394.63,Single-ply,SBD,M
Boys,59.87,9,Reece Walker,Dawson,59.87,147.42,86.18,151.95,385.55,Single-ply,SBD,M
Boys,59.87,10,Corbin Donoho,Corsicana Mildred,58.69,145.15,81.65,154.22,381.02,Single-ply,SBD,M
Boys,59.87,11,Canon Chamberlain,Gladewater Union Grove,59.87,131.54,72.57,136.08,340.19,Single-ply,SBD,M
Boys,59.87,DQ,Seth Shipp,Rice,59.06,181.44,97.52,,,Single-ply,SBD,M
Boys,59.87,DQ,Tyson Ramiez,Palmer,58.15,151.95,81.65,,,Single-ply,SBD,M
Boys,67.13,1,Brayden Lopez,Commerce,65.59,217.72,120.2,197.31,535.24,Single-ply,SBD,M
Boys,67.13,2,Quinn Johnson,Winona,65.59,226.8,90.72,197.31,514.83,Single-ply,SBD,M
Boys,67.13,3,Mauro Gallegos,Gladewater Sabine,65.41,195.04,115.67,197.31,508.02,Single-ply,SBD,M
Boys,67.13,4,Demarkus Ray,Elkhart,65.05,192.78,104.33,190.51,487.61,Single-ply,SBD,M
Boys,67.13,5,Dakota Vanderburg,Paris Chisum,63.96,183.7,108.86,188.24,480.81,Single-ply,SBD,M
Boys,67.13,6,Ulices Guerrero,Buffalo,65.41,174.63,117.93,188.24,480.81,Single-ply,SBD,M
Boys,67.13,7,Artavis Fludd,Hughes Springs,65.68,199.58,106.59,167.83,474,Single-ply,SBD,M
Boys,67.13,8,Josh Williams,Troup,66.13,176.9,74.84,217.72,469.47,Single-ply,SBD,M
Boys,67.13,9,Will Ferlet,Dawson,66.95,167.83,115.67,185.97,469.47,Single-ply,SBD,M
Boys,67.13,10,Michael Zuniga,Troup,67.04,179.17,111.13,176.9,467.2,Single-ply,SBD,M
Boys,67.13,11,Micheal Fisher,Simms Bowie,64.41,156.49,104.33,192.78,453.59,Single-ply,SBD,M
Boys,67.13,DQ,Dylan Bargerhuff,Lone Oak,66.32,,,,,Single-ply,SBD,M
Boys,74.84,1,Ramiro Martinez,Troup,74.57,226.8,131.54,244.94,603.28,Single-ply,SBD,M
Boys,74.84,2,Parker Hay,Trinity,72.48,222.26,138.35,210.92,571.53,Single-ply,SBD,M
Boys,74.84,3,Michael Jones,Elkhart,74.39,217.72,124.74,226.8,569.26,Single-ply,SBD,M
Boys,74.84,4,Sam Cunningham,Pattonville Prairiland,73.66,219.99,131.54,215.46,566.99,Single-ply,SBD,M
Boys,74.84,5,Sergio Villereal,Centerville,74.84,226.8,111.13,206.38,544.31,Single-ply,SBD,M
Boys,74.84,6,Jarred Leal,Palmer,71.67,199.58,140.61,201.85,542.04,Single-ply,SBD,M
Boys,74.84,7,Jonathan Spurlin,Winnsboro,73.94,197.31,129.27,201.85,528.44,Single-ply,SBD,M
Boys,74.84,8,Jordan Creutz,Maud,73.94,204.12,113.4,201.85,519.36,Single-ply,SBD,M
Boys,74.84,9,Azaya Patrick,Teague,72.76,197.31,111.13,195.04,503.49,Single-ply,SBD,M
Boys,74.84,10,Dakota Boone,Quitman,74.03,192.78,104.33,192.78,489.88,Single-ply,SBD,M
Boys,74.84,11,Dakota Grant,Simms Bowie,74.39,170.1,104.33,215.46,489.88,Single-ply,SBD,M
Boys,74.84,DQ,John Wims,Detroit,72.39,204.12,,,,Single-ply,SBD,M
Boys,82.1,1,Cameron Riess,Grapeland,80.92,283.5,183.7,231.33,698.53,Single-ply,SBD,M
Boys,82.1,2,Aron Jahr,Diana New Diana,82.1,226.8,138.35,247.21,612.35,Single-ply,SBD,M
Boys,82.1,3,Ryan Lindsay,Elkhart,81.1,254.01,124.74,217.72,596.47,Single-ply,SBD,M
Boys,82.1,4,Nathan Vick,Teague,80.92,226.8,158.76,208.65,594.21,Single-ply,SBD,M
Boys,82.1,5,Hector Dominguez,Buffalo,81.37,249.48,136.08,204.12,589.67,Single-ply,SBD,M
Boys,82.1,6,Mike Agan,Elkhart,80.29,238.14,140.61,199.58,578.33,Single-ply,SBD,M
Boys,82.1,7,Nate Bell,Elkhart,79.02,233.6,136.08,204.12,573.79,Single-ply,SBD,M
Boys,82.1,8,Dylan Myers,Rice,81.92,219.99,142.88,204.12,566.99,Single-ply,SBD,M
Boys,82.1,9,Kolby Brown,Winnsboro,80.74,206.38,138.35,206.38,551.11,Single-ply,SBD,M
Boys,82.1,10,Jordan Helms,Redwater,77.38,204.12,129.27,210.92,544.31,Single-ply,SBD,M
Boys,82.1,11,Tristan Clark,Troup,80.92,210.92,117.93,213.19,542.04,Single-ply,SBD,M
Boys,82.1,12,Cole Hobbs,Gladewater Sabine,82.1,197.31,124.74,183.7,505.76,Single-ply,SBD,M
Boys,89.81,1,Alan Quezada,Kemp,87.82,267.62,163.29,226.8,657.71,Single-ply,SBD,M
Boys,89.81,2,Treyvaun Crawford,Trinity,84.28,238.14,138.35,256.28,632.76,Single-ply,SBD,M
Boys,89.81,3,Gavin Defore,Elkhart,89.81,242.67,156.49,231.33,630.49,Single-ply,SBD,M
Boys,89.81,4,Kobi Fort,Detroit,89.09,231.33,149.69,226.8,607.81,Single-ply,SBD,M
Boys,89.81,5,Brian Black,Palmer,89.63,238.14,156.49,210.92,605.55,Single-ply,SBD,M
Boys,89.81,6,Stancio Battles,New Boston,89.54,229.06,124.74,249.48,603.28,Single-ply,SBD,M
Boys,89.81,7,Trey Walters,Palestine Westwood,89.09,208.65,133.81,226.8,569.26,Single-ply,SBD,M
Boys,89.81,8,David Allen,Troup,89.27,222.26,129.27,215.46,566.99,Single-ply,SBD,M
Boys,89.81,9,Travis Williams,Wolfe City,89.81,217.72,127.01,219.99,564.72,Single-ply,SBD,M
Boys,89.81,10,Morgan Landreth,Pattonville Prairiland,85.82,260.82,154.22,,415.04,Single-ply,SB,M
Boys,89.81,11,Victor Quevedo,Eustace,87.36,233.6,147.42,,381.02,Single-ply,SB,M
Boys,89.81,12,Daniel Carter,Winona,87.91,204.12,158.76,,362.87,Single-ply,SB,M
Boys,99.79,1,Reece Clark,Troup,96.8,299.37,149.69,251.74,700.8,Single-ply,SBD,M
Boys,99.79,2,Hunter Harrison,Redwater,98.52,278.96,151.95,242.67,673.58,Single-ply,SBD,M
Boys,99.79,3,Damian Hines,Jefferson,97.79,285.76,136.08,249.48,671.32,Single-ply,SBD,M
Boys,99.79,4,Trent Allen,Troup,92.08,285.76,154.22,217.72,657.71,Single-ply,SBD,M
Boys,99.79,5,Bryton Jimenez,Lone Oak,94.71,265.35,142.88,238.14,646.37,Single-ply,SBD,M
Boys,99.79,6,Kentavius Williams,De Kalb,95.44,238.14,136.08,238.14,612.35,Single-ply,SBD,M
Boys,99.79,7,Justin Horn #1,Corsicana Mildred,96.16,249.48,133.81,226.8,610.08,Single-ply,SBD,M
Boys,99.79,8,Daniel Briones,Rice,99.52,215.46,163.29,226.8,605.55,Single-ply,SBD,M
Boys,99.79,9,Alec Mayhan,Gladewater Union Grove,92.26,215.46,136.08,226.8,578.33,Single-ply,SBD,M
Boys,99.79,10,Kasey Cockrell,Kemp,98.16,231.33,136.08,208.65,576.06,Single-ply,SBD,M
Boys,99.79,11,Zachery Pilgrim,Hughes Springs,95.07,204.12,151.95,197.31,553.38,Single-ply,SBD,M
Boys,99.79,12,Cole Freeman,Diana New Diana,90.72,226.8,111.13,208.65,546.58,Single-ply,SBD,M
Boys,109.77,1,Marcus Williams,Teague,108.05,272.16,158.76,256.28,687.19,Single-ply,SBD,M
Boys,109.77,2,TJ Jones,Elkhart,106.68,281.23,156.49,242.67,680.39,Single-ply,SBD,M
Boys,109.77,3,DeSavion Crane,San Augustine,108.95,263.08,147.42,269.89,680.39,Single-ply,SBD,M
Boys,109.77,4,Hunter Brabham,Hughes Springs,104.42,249.48,151.95,226.8,628.23,Single-ply,SBD,M
Boys,109.77,5,Jesse Owen,Frankston,103.51,235.87,151.95,226.8,614.62,Single-ply,SBD,M
Boys,109.77,6,Tyler Watts,Simms Bowie,108.41,238.14,142.88,219.99,601.01,Single-ply,SBD,M
Boys,109.77,7,Chandler DeLeon,Hemphill,106.59,233.6,136.08,222.26,591.94,Single-ply,SBD,M
Boys,109.77,8,Matthew Davison,New London West Rusk,109.77,226.8,138.35,226.8,591.94,Single-ply,SBD,M
Boys,109.77,9,James Berry,Maud,109.59,224.53,161.03,204.12,589.67,Single-ply,SBD,M
Boys,109.77,10,Nick Kirbow,Hemphill,105.69,215.46,156.49,215.46,587.4,Single-ply,SBD,M
Boys,109.77,11,Brandon Phillips,Trinity,109.13,226.8,156.49,204.12,587.4,Single-ply,SBD,M
Boys,109.77,DQ,Matt Brunson,Diana New Diana,109.77,,,,,Single-ply,SBD,M
Boys,109.77,DQ,Alijuan Rice,Jefferson,109.77,,,,,Single-ply,SBD,M
Boys,124.74,1,Christian Chamness,Mount Vernon,116.66,281.23,142.88,274.42,698.53,Single-ply,SBD,M
Boys,124.74,2,Kawon McCowin,Shelbyville,116.39,272.16,163.29,254.01,689.46,Single-ply,SBD,M
Boys,124.74,3,Malik Benson,Palestine Westwood,121.02,278.96,147.42,251.74,678.12,Single-ply,SBD,M
Boys,124.74,4,Josh Porter,Frankston,113.13,294.84,147.42,233.6,675.85,Single-ply,SBD,M
Boys,124.74,5,Benito Rivas,Buffalo,121.83,238.14,183.7,240.4,662.24,Single-ply,SBD,M
Boys,124.74,6,Morgan Clark,Gladewater Union Grove,124.56,272.16,136.08,249.48,657.71,Single-ply,SBD,M
Boys,124.74,7,Kellan Anderson,Wolfe City,122.29,247.21,136.08,231.33,614.62,Single-ply,SBD,M
Boys,124.74,8,Lucas Stephenson,Simms Bowie,123.92,247.21,124.74,226.8,598.74,Single-ply,SBD,M
Boys,124.74,9,Garrett Carpenter,Lone Oak,116.66,244.94,117.93,233.6,596.47,Single-ply,SBD,M
Boys,124.74,10,Dylan Hicks,Celeste,117.12,231.33,140.61,208.65,580.6,Single-ply,SBD,M
Boys,124.74,DQ,Christian Little,Queen City,114.85,242.67,122.47,,,Single-ply,SBD,M
Boys,124.74+,1,Fili Rincon,Lone Oak,125.28,324.32,181.44,244.94,750.7,Single-ply,SBD,M
Boys,124.74+,2,Dalton Hatcher,Scurry-Rosser,174.81,281.23,192.78,251.74,725.75,Single-ply,SBD,M
Boys,124.74+,3,Carter Wheat,White Oak,136.08,317.51,149.69,256.28,723.48,Single-ply,SBD,M
Boys,124.74+,4,Malik Gillam,Troup,161.21,308.44,161.03,215.46,684.92,Single-ply,SBD,M
Boys,124.74+,5,Micheal Marshall,Eustace,137.62,260.82,161.03,256.28,678.12,Single-ply,SBD,M
Boys,124.74+,6,Grant Farley,Quinlan Boles,136.08,272.16,147.42,242.67,662.24,Single-ply,SBD,M
Boys,124.74+,7,Joseph Lopez,Kemp,156.58,276.69,156.49,222.26,655.44,Single-ply,SBD,M
Boys,124.74+,8,Richard Bennett,Hemphill,137.53,260.82,149.69,233.6,644.1,Single-ply,SBD,M
Boys,124.74+,9,Jake Cox,Pollok Central,127.64,249.48,136.08,242.67,628.23,Single-ply,SBD,M
Boys,124.74+,10,Coby Wilbanks,Malakoff,136.08,256.28,142.88,201.85,601.01,Single-ply,SBD,M
Boys,124.74+,11,Kyle Box,Kemp,135.26,217.72,151.95,224.53,594.21,Single-ply,SBD,M
Boys,124.74+,DQ,Jesus Garcia,Buffalo,128.73,260.82,188.24,,,Single-ply,SBD,M
