Place,WeightClassKg,Sex,Division,Name,BirthYear,Country,BodyweightKg,Squat1Kg,Squat2Kg,Squat3Kg,Best3SquatKg,Bench1Kg,Bench2Kg,Bench3Kg,Best3BenchKg,Deadlift1Kg,Deadlift2Kg,Deadlift3Kg,Best3DeadliftKg,TotalKg,Squat4Kg,Event,Equipment
1,44,F,Open,Helen Wolsey,1961,UK,43.3,120,127.5,130,130,60,65,67.5,67.5,140,147.5,152.5,152.5,350,,SBD,Single-ply
2,44,F,Open,Anna-Liisa Prinkkala,1955,Finland,43.6,130,135,140,140,60,62.5,-65,62.5,142.5,147.5,-150,147.5,350,,SBD,Single-ply
3,44,F,Open,C. Chamundeshwari,1970,India,42.2,122.5,130,135,135,47.5,52.5,-55,52.5,122.5,130,-135,130,317.5,,SBD,Single-ply
4,44,F,Open,Yen-Ping Hsu,1974,Taiwan,42.7,112.5,-117.5,117.5,117.5,50,-55,-55,50,115,-120,-120,115,282.5,,SBD,Single-ply
5,44,F,Open,Porel Jayanti,1970,India,42.8,100,105,110,110,42.5,47.5,-50,47.5,120,125,-130,125,282.5,,SBD,Single-ply
6,44,F,Open,Jeanette Wust,1951,Australia,42.7,95,-105,-105,95,42.5,45,-47.5,45,105,115,120,120,260,,SBD,Single-ply
1,48,F,Open,Malou Thill,1956,Luxembourg,47.5,127.5,-132.5,-132.5,127.5,65,67.5,70,70,155,160,-162.5,160,357.5,,SBD,Single-ply
2,48,F,Open,Vuokko Viitasaari,1954,Finland,47.7,120,127.5,-132.5,127.5,67.5,70,72.5,72.5,150,-155,-160,150,350,,SBD,Single-ply
3,48,F,Open,Hisako Yoshida,1951,Japan,46.7,125,132.5,-137.5,132.5,62.5,65,67.5,67.5,-132.5,132.5,142.5,142.5,342.5,,SBD,Single-ply
4,48,F,Open,Karen Cameron,1962,UK,47.3,-120,120,-125,120,65,70,72.5,72.5,142.5,147.5,-152.5,147.5,340,,SBD,Single-ply
5,48,F,Open,A.B Manju,1976,India,46.3,105,112.5,-115,112.5,50,-55,-55,50,122.5,-130,130,130,292.5,,SBD,Single-ply
6,48,F,Open,Valentina Gosteva,1955,USSR,47.1,82.5,92.5,100,100,52.5,60,-62.5,60,-122.5,122.5,127.5,127.5,287.5,,SBD,Single-ply
7,48,F,Open,Edith Scharpf,1958,Germany,47.4,85,95,100,100,-50,50,-55,50,100,-110,-110,100,250,,SBD,Single-ply
DQ,48,F,Open,Ya-Ling Chen,1962,Taiwan,47.3,-132.5,-132.5,-132.5,,,,,,,,,,,,SBD,Single-ply
1,52,F,Open,Sisi Dolman,1946,Netherlands,51.5,155,165,170,170,65,-67.5,-67.5,65,165,172.5,180,180,415,,SBD,Single-ply
2,52,F,Open,Liisa Jurkko,1959,Finland,51.6,145,155,160,160,65,70,72.5,72.5,150,157.5,-160,157.5,390,,SBD,Single-ply
3,52,F,Open,Grete Gagnæs,1962,Norway,51.8,147.5,155,-160,155,80,85,-87.5,85,145,-150,-150,145,385,,SBD,Single-ply
4,52,F,Open,Rekha Mal,1967,India,50,142.5,-145,150,150,62.5,-70,70,70,145,157.5,-165,157.5,377.5,,SBD,Single-ply
5,52,F,Open,Ursula Eschenasy,1957,Germany,51.8,120,130,-137.5,130,62.5,65,-67.5,65,130,140,145,145,340,,SBD,Single-ply
6,52,F,Open,Asha Pandey,1966,India,50.5,120,-127.5,-127.5,120,52.5,57.5,60,60,142.5,152.5,-157.5,152.5,332.5,,SBD,Single-ply
7,52,F,Open,Li-Min Lin,1970,Taiwan,49.2,115,130,135,135,62.5,67.5,-75,67.5,110,-120,120,120,322.5,,SBD,Single-ply
8,52,F,Open,Marion Braun,1972,Austria,49.5,115,120,125,125,65,-70,-70,65,115,120,125,125,315,,SBD,Single-ply
9,52,F,Open,Valentina Nelyubova,1966,USSR,51.7,110,115,-120,115,55,60,-65,60,120,130,140,140,315,,SBD,Single-ply
10,52,F,Open,Elena Yamskich,1974,USSR,51.5,110,,-125,110,52.5,57.5,-60,57.5,115,125,130,130,297.5,,SBD,Single-ply
1,56,F,Open,Carrie Graffam,1967,USA,54.1,145,-162.5,162.5,162.5,80,87.5,90,90,175,190,-201,190,442.5,,SBD,Single-ply
2,56,F,Open,Beate Amdahl,1969,Norway,55.6,167.5,172.5,177.5,177.5,75,-80,-80,75,162.5,172.5,-177.5,172.5,425,,SBD,Single-ply
3,56,F,Open,Audhild Hansen,1957,Norway,55.5,-150,150,-155,150,70,-72.5,-72.5,70,155,-165,-165,155,375,,SBD,Single-ply
4,56,F,Open,Ginette Godier,1954,France,52.9,127.5,-135,-135,127.5,62.5,65,-67.5,65,160,170,175,175,367.5,,SBD,Single-ply
5,56,F,Open,Alice Heikkala,1960,Finland,55.6,-130,-130,130,130,-70,70,72.5,72.5,145,152.5,-162.5,152.5,355,,SBD,Single-ply
6,56,F,Open,Yelena Rodionova,1968,USSR,55.2,127.5,-137.5,-137.5,127.5,60,65,-67.5,65,145,152.5,157.5,157.5,350,,SBD,Single-ply
7,56,F,Open,A-Yun Lin,1945,Taiwan,54.6,117.5,-125,125,125,57.5,-62.5,-62.5,57.5,140,-157.5,-157.5,140,322.5,,SBD,Single-ply
DQ,56,F,Open,Dipali Nandy,1962,India,55.5,-120,-120,-120,,,,,,,,,,,,SBD,Single-ply
1,60,F,Open,Ingjerd Pytte,1967,Norway,59.5,155,162.5,165,165,75,80,82.5,82.5,165,170,172.5,172.5,420,,SBD,Single-ply
2,60,F,Open,Inger Blikra,1961,Norway,58.9,165,175,-177.5,175,77.5,-82.5,-82.5,77.5,160,-167.5,-167.5,160,412.5,,SBD,Single-ply
3,60,F,Open,Jackie Blasbery,1963,UK,59,140,147.5,152.5,152.5,65,70,-72.5,70,170,180,-182.5,180,402.5,,SBD,Single-ply
4,60,F,Open,Linda Diewald,1962,Germany,59.6,147.5,157.5,160,160,70,-72.5,72.5,72.5,160,170,-175,170,402.5,,SBD,Single-ply
5,60,F,Open,Svetlana Fishchenko,1962,USSR,59.7,-147.5,147.5,-157.5,147.5,72.5,77.5,82.5,82.5,-147.5,157.5,165,165,395,,SBD,Single-ply
6,60,F,Open,Chiu-Chiung Chen,1971,Taiwan,59,157.5,165,-170,165,70,-75,-75,70,155,-165,-170,155,390,,SBD,Single-ply
7,60,F,Open,Madumati Katke,1965,India,59.1,145,152.5,-160,152.5,72.5,77.5,-80,77.5,150,-157.5,-157.5,150,380,,SBD,Single-ply
8,60,F,Open,Nataliya Ivanova,1964,USSR,58.5,110,120,130,130,67.5,72.5,75,75,127.5,147.5,-160,147.5,352.5,,SBD,Single-ply
9,60,F,Open,Ruth Walker,1969,USA,59.1,127.5,132.5,-142.5,132.5,-70,-70,70,70,132.5,-142.5,142.5,142.5,345,,SBD,Single-ply
1,67.5,F,Open,Yekaterina Tanakova,1964,USSR,66.6,180,190,200,200,90,95,100,100,180,190,-200,190,490,,SBD,Single-ply
2,67.5,F,Open,Irmgar Wohlhöfler,1962,Germany,62.9,155,165,-170,165,100,-105,105,105,180,185,-190,185,455,,SBD,Single-ply
3,67.5,F,Open,Sarala Shetty,1963,India,66.9,167.5,172.5,-175,172.5,82.5,-87.5,87.5,87.5,167.5,172.5,-177.5,172.5,432.5,,SBD,Single-ply
4,67.5,F,Open,Yoriko Yamazaki,1959,Japan,65.4,160,170,-180,170,95,-100,100,100,160,-170,-170,160,430,,SBD,Single-ply
5,67.5,F,Open,Myriam Busselot,1952,Belgium,65.1,160,-170,-170,160,75,80,-82.5,80,177.5,187.5,-192.5,187.5,427.5,,SBD,Single-ply
6,67.5,F,Open,Beverly Smith,1954,Australia,64.9,137.5,-145,145,145,65,67.5,-70,67.5,165,170,175,175,387.5,,SBD,Single-ply
7,67.5,F,Open,Li-Min Chou,1972,Taiwan,61.5,-147.5,147.5,-150,147.5,60,65,70,70,137.5,145,-160,145,362.5,,SBD,Single-ply
8,67.5,F,Open,Nataliya Magula,1966,USSR,62.8,120,130,137.5,137.5,55,60,-62.5,60,125,135,145,145,342.5,,SBD,Single-ply
1,75,F,Open,Cathy Millen,1967,New Zealand,74.8,222.5,-233,233,233,122.5,-130,130,130,225,232.5,240,240,602.5,235,SBD,Single-ply
DD,75,F,Open,Sumita Laha,1964,India,72.3,220,-232.5,234,234,105,110,112.5,112.5,190,202.5,210,210,,,SBD,Single-ply
2,75,F,Open,Tammy Dianda,1961,USA,72,180,190,195,195,110,117.5,122.5,122.5,205,215,-240,215,532.5,,SBD,Single-ply
3,75,F,Open,Ellen Stanton,1965,Australia,69.5,175,185,-192.5,185,72.5,77.5,-82.5,77.5,180,187.5,-192.5,187.5,450,,SBD,Single-ply
4,75,F,Open,Helena Koponen,1964,Finland,74.8,162.5,-170,-170,162.5,85,90,92.5,92.5,155,165,-170,165,420,,SBD,Single-ply
5,75,F,Open,Ludmila Yarushevich,1964,USSR,67.8,130,142.5,-150,142.5,70,75,-77.5,75,130,-140,-140,130,347.5,,SBD,Single-ply
1,82.5,F,Open,Shelby Corson,1967,USA,81.8,190,-205,-205,190,97.5,102.5,107.5,107.5,180,-185,,180,477.5,,SBD,Single-ply
2,82.5,F,Open,Siw Bakken,1965,Norway,80.7,170,180,190,190,80,85,87.5,87.5,180,195,-200,195,472.5,,SBD,Single-ply
3,82.5,F,Open,Hege Høiland,1959,Norway,75.3,155,165,-170,165,90,95,97.5,97.5,175,187.5,-192.5,187.5,450,,SBD,Single-ply
4,82.5,F,Open,Jaana Paatelainen,1965,Finland,78.2,155,165,-172.5,165,87.5,92.5,-95,92.5,170,180,-195,180,437.5,,SBD,Single-ply
5,82.5,F,Open,Angelika Moser,1966,Germany,80.6,160,175,180,180,85,92.5,-105,92.5,150,-160,,150,422.5,,SBD,Single-ply
6,82.5,F,Open,Li-Chu Liu,1965,Taiwan,75.2,130,140,150,150,82.5,90,-95,90,150,-167.5,-167.5,150,390,,SBD,Single-ply
7,82.5,F,Open,Gretchen Buerki,1942,USA,77.8,135,142.5,147.5,147.5,75,-80,-80,75,152.5,160,-167.5,160,382.5,,SBD,Single-ply
1,90,F,Open,Susanna Tjernell-Formgren,1963,Sweden,87.6,200,205,210,210,85,-87.5,-87.5,85,180,190,-200,190,485,,SBD,Single-ply
2,90,F,Open,Chen-Yeh Chao,1971,Taiwan,86.9,-180,180,187.5,187.5,92.5,97.5,-100,97.5,162.5,170,-177.5,170,455,,SBD,Single-ply
3,90,F,Open,Leanne Johnson,1971,Australia,87.8,-185,185,-195,185,90,-95,-95,90,160,175,-182.5,175,450,,SBD,Single-ply
4,90,F,Open,Jacqueline Pepper,1960,UK,89.6,165,-172.5,-172.5,165,82.5,87.5,-90,87.5,170,180,-185,180,432.5,,SBD,Single-ply
5,90,F,Open,Ruma Pal,1966,India,84.5,152.5,-162.5,165,165,67.5,72.5,-75,72.5,152.5,160,-162.5,160,397.5,,SBD,Single-ply
6,90,F,Open,Hsiu-Mei Feng,1973,Taiwan,88.3,160,-170,-170,160,60,65,-70,65,160,170,-177.5,170,395,,SBD,Single-ply
DQ,90,F,Open,Ulrike Herchenhein,1962,Germany,88.3,-190,-190,-190,,,,,,,,,,,,SBD,Single-ply
1,90+,F,Open,Silvaine Iskin,1966,France,98.3,225,-235,-235,225,105,110,112.5,112.5,200,210,215,215,552.5,,SBD,Single-ply
2,90+,F,Open,Taina Hakala-Rajala,1960,Finland,101.7,190,205,212.5,212.5,110,117.5,122.5,122.5,195,205,215,215,550,,SBD,Single-ply
3,90+,F,Open,Heidi Münch,1947,Germany,100.7,205,212.5,-220,212.5,90,95,-100,95,200,210,-220.5,210,517.5,,SBD,Single-ply
4,90+,F,Open,Hui-Ling Wu,1963,Taiwan,127.6,170,-200,-215,170,-70,70,80,80,120,150,-180,150,400,,SBD,Single-ply
