Division,WeightClassKg,Place,Name,Team,BodyweightKg,Best3SquatKg,Best3BenchKg,Best3DeadliftKg,TotalKg,Equipment,Event,Sex
Boys,51.71,1,Kj Mitchell,Keller Fossil Ridge,48.35,77.11,49.9,88.45,215.46,Single-ply,SBD,M
Boys,51.71,DQ,DaeeQuan Johnson,Keller Fossil Ridge,51.71,56.7,34.02,68.04,,Single-ply,SBD,M
Boys,55.79,1,Jordan Wilkerson,Keller Central,53.8,170.1,97.52,197.31,464.93,Single-ply,SBD,M
Boys,55.79,2,Stephen Gaut,Keller Central,54.3,147.42,88.45,147.42,383.29,Single-ply,SBD,M
Boys,55.79,3,Pramis Subedi,Keller Fossil Ridge,54.48,113.4,56.7,133.81,303.91,Single-ply,SBD,M
Boys,59.87,1,Jacob Garcia,Keller Central,56.25,124.74,72.57,129.27,326.59,Single-ply,SBD,M
Boys,59.87,DQ,Jacob Loggy,Keller,58.97,102.06,79.38,97.52,,Single-ply,SBD,M
Boys,59.87,DQ,Mason Malone,Keller,55.88,111.13,77.11,102.06,,Single-ply,SBD,M
Boys,67.13,1,Ian Clark,Keller Central,60.28,113.4,72.57,124.74,310.71,Single-ply,SBD,M
Boys,67.13,2,Marvin Reinoshek,Keller Fossil Ridge,63.5,108.86,68.04,129.27,306.17,Single-ply,SBD,M
Boys,67.13,DQ,Zachary Hlas,Keller Fossil Ridge,64.64,77.11,54.43,83.91,,Single-ply,SBD,M
Boys,74.84,1,Nakoa Rios,Keller,69.85,197.31,97.52,192.78,487.61,Single-ply,SBD,M
Boys,74.84,2,Daniel Voyles,Keller,71.12,142.88,90.72,142.88,376.48,Single-ply,SBD,M
Boys,74.84,3,Jacob Hendricks,Keller,69.35,104.33,74.84,142.88,322.05,Single-ply,SBD,M
Boys,74.84,DQ,Connor Boyd,Keller,70.13,183.7,136.08,183.7,,Single-ply,SBD,M
Boys,74.84,DQ,Mian Ahmed,Keller Fossil Ridge,70.81,61.23,61.23,102.06,,Single-ply,SBD,M
Boys,82.1,1,Brock Allbritton,Keller Timber Creek,81.19,204.12,99.79,142.88,446.79,Single-ply,SBD,M
Boys,82.1,2,John Vawar,Keller Fossil Ridge,78.06,142.88,81.65,142.88,367.41,Single-ply,SBD,M
Boys,82.1,DQ,Dillon Oliver,Keller,78.47,61.23,43.09,65.77,,Single-ply,SBD,M
Boys,89.81,1,Ethan Jones,Keller,86.23,219.99,136.08,201.85,557.92,Single-ply,SBD,M
Boys,89.81,2,Colton David,Keller Central,83.23,204.12,127.01,208.65,539.77,Single-ply,SBD,M
Boys,89.81,3,Camden Boyd,Keller,88.81,149.69,83.91,149.69,383.29,Single-ply,SBD,M
Boys,89.81,4,Jordan Ederson,Keller Fossil Ridge,82.74,124.74,68.04,156.49,349.27,Single-ply,SBD,M
Boys,99.79,1,Landon Sleeper,Keller Central,94.48,238.14,136.08,224.53,598.74,Single-ply,SBD,M
Boys,99.79,2,Cade McGuffin,Keller Central,96.71,219.99,120.2,204.12,544.31,Single-ply,SBD,M
Boys,99.79,3,Austin Korbe,Keller Central,93.3,195.04,97.52,183.7,476.27,Single-ply,SBD,M
Boys,99.79,DQ,Kyle McIver,Keller Central,99.7,183.7,97.52,172.37,,Single-ply,SBD,M
Boys,99.79,DQ,Sean Payne,Keller,99.61,249.48,158.76,224.53,,Single-ply,SBD,M
Boys,109.77,1,John Hester,Keller Timber Creek,104.1,272.16,161.03,183.7,616.89,Single-ply,SBD,M
Boys,109.77,2,Grant Eaton,Keller Timber Creek,109.68,197.31,113.4,181.44,492.15,Single-ply,SBD,M
Boys,109.77,3,Sean Smith,Keller Fossil Ridge,105.51,172.37,104.33,199.58,476.27,Single-ply,SBD,M
Boys,109.77,4,Michael Nnadozie,Keller Fossil Ridge,109.72,170.1,90.72,158.76,419.57,Single-ply,SBD,M
Boys,109.77,DQ,Parker McElwee,Keller,109.54,165.56,83.91,142.88,,Single-ply,SBD,M
Boys,124.74,1,Jt Sleeper,Keller Central,112.54,226.8,133.81,158.76,519.36,Single-ply,SBD,M
Boys,124.74,2,Chris Taylor,Keller Fossil Ridge,110.95,127.01,68.04,138.35,333.39,Single-ply,SBD,M
Boys,124.74,3,Kris Carter,Keller Fossil Ridge,121.56,102.06,86.18,142.88,331.12,Single-ply,SBD,M
Boys,124.74+,1,Adrian Alcantara,Keller Central,131.95,249.48,142.88,204.12,596.47,Single-ply,SBD,M
Boys,124.74+,2,Curtis Townzen,Keller Fossil Ridge,135.76,136.08,108.86,161.03,405.97,Single-ply,SBD,M
