Division,WeightClassKg,Place,Name,Team,BodyweightKg,Best3SquatKg,Best3BenchKg,Best3DeadliftKg,TotalKg,Equipment,Event,Sex
Boys,51.71,1,Roberto Ortiz,Alvarado,50.98,131.54,77.11,140.61,349.27,Single-ply,SBD,M
Boys,51.71,2,La'Mark Gindratt,Cedar Hill,51.71,131.54,74.84,140.61,347,Single-ply,SBD,M
Boys,51.71,3,Landon Timbes,Hillsboro,51.26,104.33,61.23,124.74,290.3,Single-ply,SBD,M
Boys,55.79,1,Drake Fucuals,Cedar Hill,55.79,165.56,86.18,156.49,408.23,Single-ply,SBD,M
Boys,55.79,3,Zion Tidwell,Hurst Bell,54.52,92.99,52.16,113.4,258.55,Single-ply,SBD,M
Boys,55.79,4,Joseph Baeza,Oakridge School,54.61,92.99,49.9,113.4,256.28,Single-ply,SBD,M
Boys,55.79,5,Jeremiah Williams,Bishop Lynch,55.07,92.99,52.16,106.59,251.74,Single-ply,SBD,M
Boys,59.87,1,Kevaugn Davis,Cedar Hill,59.87,151.95,83.91,165.56,401.43,Single-ply,SBD,M
Boys,59.87,2,Nic Schnitizius,Dallas Jesuit,57.52,163.29,74.84,156.49,394.63,Single-ply,SBD,M
Boys,59.87,3,Will Nickols,Dallas Jesuit,59.06,151.95,83.91,156.49,392.36,Single-ply,SBD,M
Boys,59.87,4,Cole Lenzen,Dallas Jesuit,58.33,124.74,65.77,156.49,347,Single-ply,SBD,M
Boys,59.87,5,Jaiden Smith,Lancaster,59.69,102.06,88.45,124.74,315.25,Single-ply,SBD,M
Boys,59.87,DQ,Amari Antwine,Northwest Nelson,57.15,113.4,,,,Single-ply,SBD,M
Boys,67.13,1,Elisha Jones,Cedar Hill,63.78,174.63,106.59,172.37,453.59,Single-ply,SBD,M
Boys,67.13,2,Triston McDonald,Mansfield Timberview,64.68,172.37,99.79,158.76,430.91,Single-ply,SBD,M
Boys,67.13,3,Ricardo Martinez,Hillsboro,66.68,151.95,86.18,176.9,415.04,Single-ply,SBD,M
Boys,67.13,4,Michael Saldana,Northwest Nelson,62.05,140.61,79.38,158.76,378.75,Single-ply,SBD,M
Boys,67.13,5,Cameron Smith #7,Hurst Bell,65.86,133.81,83.91,161.03,378.75,Single-ply,SBD,M
Boys,67.13,6,Wyatt Thomas,Midlothian Heritage,63.87,136.08,90.72,147.42,374.21,Single-ply,SBD,M
Boys,67.13,7,Alex Ansay,Alvarado,64.05,136.08,92.99,122.47,351.53,Single-ply,SBD,M
Boys,67.13,8,Mike Jones,Northwest Nelson,64.68,122.47,79.38,149.69,351.53,Single-ply,SBD,M
Boys,67.13,9,Andrew Alcala,Mansfield Timberview,61.51,145.15,77.11,127.01,349.27,Single-ply,SBD,M
Boys,67.13,10,Josh Wilson,Oakridge School,66.77,106.59,58.97,113.4,278.96,Single-ply,SBD,M
Boys,67.13,11,Luke Wilson,Oakridge School,65.77,97.52,54.43,117.93,269.89,Single-ply,SBD,M
Boys,67.13,DQ,Marcus Gonzales,Hillsboro,66.68,131.54,81.65,,,Single-ply,SBD,M
Boys,67.13,DQ,Roberto Fernandez,Bishop Lynch,61.42,,,,,Single-ply,SBD,M
Boys,67.13,DQ,Cameron Gray,Duncanville,66.86,,,,,Single-ply,SBD,M
Boys,74.84,1,Marcos Meza,Hillsboro,71.21,215.46,102.06,190.51,508.02,Single-ply,SBD,M
Boys,74.84,2,Draven Myles,Cedar Hill,74.84,192.78,113.4,190.51,496.68,Single-ply,SBD,M
Boys,74.84,3,Emmet Halm,Dallas Jesuit,70.03,170.1,108.86,190.51,469.47,Single-ply,SBD,M
Boys,74.84,4,William Courtney,Dallas Jesuit,72.67,161.03,92.99,199.58,453.59,Single-ply,SBD,M
Boys,74.84,5,Caden Logan,Alvarado,74.3,174.63,115.67,163.29,453.59,Single-ply,SBD,M
Boys,74.84,6,Edwin Santillanes,Ferris,72.03,161.03,99.79,156.49,417.3,Single-ply,SBD,M
Boys,74.84,7,Romy Galdamez,Hurst Bell,74.03,158.76,88.45,156.49,403.7,Single-ply,SBD,M
Boys,74.84,8,Jj Tellez,Dallas Jesuit,74.12,158.76,79.38,158.76,396.89,Single-ply,SBD,M
Boys,74.84,9,Ashton Burkemper,Hillsboro,67.31,145.15,92.99,154.22,392.36,Single-ply,SBD,M
Boys,74.84,10,Eliya Khajele,Oakridge School,74.57,142.88,77.11,158.76,378.75,Single-ply,SBD,M
Boys,74.84,11,Juan Oliva,Bishop Lynch,70.22,115.67,83.91,138.35,337.93,Single-ply,SBD,M
Boys,74.84,12,Austin Nguyen,Oakridge School,74.84,106.59,49.9,124.74,281.23,Single-ply,SBD,M
Boys,74.84,DQ,Micah Keeton,Duncanville,70.58,,,,,Single-ply,SBD,M
Boys,82.1,1,Steven Jackson,Cedar Hill,82.1,235.87,124.74,235.87,596.47,Single-ply,SBD,M
Boys,82.1,2,Curtis Sanders,Cedar Hill,82.1,222.26,145.15,226.8,594.21,Single-ply,SBD,M
Boys,82.1,4,Colby Sampson,Alvarado,81.47,201.85,124.74,195.04,521.63,Single-ply,SBD,M
Boys,82.1,5,Jordan Mata,Hillsboro,82.1,183.7,113.4,172.37,469.47,Single-ply,SBD,M
Boys,82.1,6,David Ritter,Dallas Jesuit,79.83,174.63,90.72,192.78,458.13,Single-ply,SBD,M
Boys,82.1,7,Jeremiah Armstrong,Northwest Nelson,82.1,165.56,106.59,154.22,426.38,Single-ply,SBD,M
Boys,82.1,8,Joseph Buskmiller,Dallas Jesuit,79.65,151.95,90.72,179.17,421.84,Single-ply,SBD,M
Boys,82.1,9,Reed Leonard,Northwest Nelson,76.11,147.42,97.52,163.29,408.23,Single-ply,SBD,M
Boys,82.1,10,Jerry Huang,Oakridge School,82.01,151.95,77.11,158.76,387.82,Single-ply,SBD,M
Boys,82.1,11,Jorge Soria,Hillsboro,80.2,145.15,88.45,142.88,376.48,Single-ply,SBD,M
Boys,82.1,12,Courtney Massingill,Lancaster,79.83,124.74,92.99,147.42,365.14,Single-ply,SBD,M
Boys,82.1,13,Ethan Pack,Midlothian Heritage,80.56,113.4,83.91,145.15,342.46,Single-ply,SBD,M
Boys,82.1,DQ,Alfredo Heredian,Mansfield Timberview,77.93,138.35,,,,Single-ply,SBD,M
Boys,89.81,1,Ki'John Lowery,Cedar Hill,89.81,240.4,131.54,226.8,598.74,Single-ply,SBD,M
Boys,89.81,2,Xander Webb,Alvarado,89.72,233.6,127.01,204.12,564.72,Single-ply,SBD,M
Boys,89.81,3,Michael Flores,Hillsboro,86.82,233.6,136.08,188.24,557.92,Single-ply,SBD,M
Boys,89.81,5,Paul Gbolabo,Mansfield Timberview,87.54,197.31,111.13,215.46,523.9,Single-ply,SBD,M
Boys,89.81,6,Cheyenne Ayers,Hurst Bell,88.45,204.12,124.74,192.78,521.63,Single-ply,SBD,M
Boys,89.81,7,Cody Duran,Ferris,87.09,188.24,131.54,183.7,503.49,Single-ply,SBD,M
Boys,89.81,8,Jordan Vance,Northwest Nelson,84.28,181.44,113.4,188.24,483.08,Single-ply,SBD,M
Boys,89.81,9,Hector Sanchez,Hillsboro,86.91,195.04,113.4,163.29,471.74,Single-ply,SBD,M
Boys,89.81,10,Ryan Pack,Midlothian Heritage,88.36,145.15,90.72,149.69,385.55,Single-ply,SBD,M
Boys,89.81,11,Tj Armondin,Oakridge School,88.18,99.79,61.23,117.93,278.96,Single-ply,SBD,M
Boys,89.81,DQ,Jacob Womack,Midlothian Heritage,85.64,140.61,,,,Single-ply,SBD,M
Boys,99.79,1,Christian Hernandez,Cedar Hill,99.79,265.35,154.22,235.87,655.44,Single-ply,SBD,M
Boys,99.79,2,Mecca Bonds,Cedar Hill,95.25,258.55,142.88,219.99,621.42,Single-ply,SBD,M
Boys,99.79,4,Jaylen Estelle,Lancaster,96.25,204.12,140.61,215.46,560.19,Single-ply,SBD,M
Boys,99.79,5,Desmond Frazier,Lancaster,99.7,204.12,147.42,199.58,551.11,Single-ply,SBD,M
Boys,99.79,7,Ahmad Alzghoul,Ferris,97.61,174.63,102.06,183.7,460.4,Single-ply,SBD,M
Boys,99.79,8,Ethan Avery,Northwest Nelson,97.43,161.03,122.47,172.37,455.86,Single-ply,SBD,M
Boys,99.79,9,Nathan Ramirez,Alvarado,93.44,163.29,102.06,181.44,446.79,Single-ply,SBD,M
Boys,99.79,10,Ethan Livingston,Northwest Nelson,98.88,170.1,104.33,172.37,446.79,Single-ply,SBD,M
Boys,99.79,11,Ben Eskins,Midlothian Heritage,90.45,154.22,99.79,167.83,421.84,Single-ply,SBD,M
Boys,99.79,12,Garrett Stewart,Oakridge School,96.8,129.27,65.77,170.1,365.14,Single-ply,SBD,M
Boys,99.79,13,Gavin Romo,Oakridge School,91.63,92.99,54.43,136.08,283.5,Single-ply,SBD,M
Boys,99.79,DQ,Ifaoluwa Oyejide,Mansfield Timberview,92.9,192.78,,,,Single-ply,SBD,M
Boys,99.79,DQ,Gabriel Olenga,Mansfield Timberview,95.71,192.78,,,,Single-ply,SBD,M
Boys,99.79,DQ,Amari Easton,Mansfield Timberview,98.61,176.9,,,,Single-ply,SBD,M
Boys,99.79,DQ,Timothy Anglemyer,Midlothian Heritage,99.61,142.88,,,,Single-ply,SBD,M
Boys,109.77,1,Leon Young,Cedar Hill,109.32,267.62,156.49,240.4,664.51,Single-ply,SBD,M
Boys,109.77,3,Isaac Chavez,Bishop Lynch,105.23,226.8,147.42,204.12,578.33,Single-ply,SBD,M
Boys,109.77,4,Gabe Morales,Dallas Jesuit,107.95,222.26,124.74,204.12,551.11,Single-ply,SBD,M
Boys,109.77,5,Joseph Shore,Bishop Lynch,108.68,215.46,124.74,197.31,537.51,Single-ply,SBD,M
Boys,109.77,6,Kaleb Washington,Lancaster,102.33,183.7,138.35,181.44,503.49,Single-ply,SBD,M
Boys,109.77,7,Demondre Green,Mansfield Timberview,108.41,192.78,113.4,192.78,498.95,Single-ply,SBD,M
Boys,109.77,9,Adrian Rose,Hillsboro,109.59,192.78,99.79,163.29,455.86,Single-ply,SBD,M
Boys,109.77,10,Adam Brandt,Oakridge School,104.42,147.42,70.31,156.49,374.21,Single-ply,SBD,M
Boys,109.77,DQ,Gabriel Moreno,Bishop Lynch,105.69,,,,,Single-ply,SBD,M
Boys,124.74,1,Leo Figueroa,Ferris,124.74,294.84,165.56,204.12,664.51,Single-ply,SBD,M
Boys,124.74,2,Branson Hickman,Dallas Jesuit,119.02,235.87,156.49,226.8,619.15,Single-ply,SBD,M
Boys,124.74,3,Daylen Monroe,Lancaster,122.74,204.12,165.56,238.14,607.81,Single-ply,SBD,M
Boys,124.74,5,James Mitchell,Duncanville,122.74,226.8,140.61,204.12,571.53,Single-ply,SBD,M
Boys,124.74,6,Jahaziel Campean,Hillsboro,123.47,215.46,131.54,199.58,546.58,Single-ply,SBD,M
Boys,124.74,7,Samuel Lopez,Ferris,114.4,204.12,131.54,201.85,537.51,Single-ply,SBD,M
Boys,124.74,8,Isiah Silemon,Lancaster,117.84,204.12,138.35,185.97,528.44,Single-ply,SBD,M
Boys,124.74,9,Ramses Ortega,Hurst Bell,111.77,219.99,127.01,165.56,512.56,Single-ply,SBD,M
Boys,124.74,10,Bavly BeBawy,Hurst Bell,121.65,195.04,122.47,195.04,512.56,Single-ply,SBD,M
Boys,124.74,11,Javirea Moore,Lancaster,114.76,181.44,129.27,183.7,494.42,Single-ply,SBD,M
Boys,124.74,12,Savion Bryd,Duncanville,119.84,165.56,129.27,190.51,485.34,Single-ply,SBD,M
Boys,124.74,13,Caden Bogan,Northwest Nelson,117.12,185.97,104.33,188.24,478.54,Single-ply,SBD,M
Boys,124.74,14,Tyler Quinn,Duncanville,122.74,170.1,120.2,188.24,478.54,Single-ply,SBD,M
Boys,124.74,15,Muhammed Al-Sayyed,Hurst Bell,114.4,181.44,104.33,185.97,471.74,Single-ply,SBD,M
Boys,124.74,16,Jake Godfrey,Midlothian Heritage,110.77,163.29,113.4,165.56,442.25,Single-ply,SBD,M
Boys,124.74,17,Casey Canley,Mansfield Timberview,114.76,158.76,122.47,147.42,428.64,Single-ply,SBD,M
Boys,124.74,18,Israel Morales,Ferris,114.03,156.49,117.93,151.95,426.38,Single-ply,SBD,M
Boys,124.74,19,Ben Librado,Hillsboro,123.29,158.76,90.72,145.15,394.63,Single-ply,SBD,M
Boys,124.74,20,Josh Hsu,Oakridge School,113.22,163.29,65.77,163.29,392.36,Single-ply,SBD,M
Boys,124.74,DQ,Cesar Reyes,Alvarado,112.04,190.51,120.2,,,Single-ply,SBD,M
Boys,124.74,DQ,Khalig Carr,Duncanville,115.76,,,,,Single-ply,SBD,M
Boys,124.74+,1,Joshua Gilliam,Mansfield Timberview,139.98,308.44,158.76,251.74,718.94,Single-ply,SBD,M
Boys,124.74+,2,Brandon Tran,Hurst Bell,125.1,251.74,145.15,249.48,646.37,Single-ply,SBD,M
Boys,124.74+,3,David Morales,Dallas Jesuit,129.55,229.06,136.08,231.33,596.47,Single-ply,SBD,M
Boys,124.74+,4,Devin Thompson,Duncanville,132.45,233.6,115.67,231.33,580.6,Single-ply,SBD,M
Boys,124.74+,5,Miguel Delgado,Ferris,145.33,229.06,113.4,204.12,546.58,Single-ply,SBD,M
Boys,124.74+,6,Patrick Mitchell,Lancaster,160.75,215.46,124.74,204.12,544.31,Single-ply,SBD,M
Boys,124.74+,7,Willie Armstrong,Lancaster,125.92,208.65,142.88,190.51,542.04,Single-ply,SBD,M
Boys,124.74+,8,Seth Bynum-Graham,Hillsboro,180.8,201.85,142.88,188.24,532.97,Single-ply,SBD,M
Boys,124.74+,9,Tadd McGaughey,Northwest Nelson,129.46,195.04,108.86,219.99,523.9,Single-ply,SBD,M
Boys,124.74+,10,Femi Sakiri,Northwest Nelson,126.82,210.92,113.4,190.51,514.83,Single-ply,SBD,M
Boys,124.74+,11,Josh Qualls,Duncanville,138.62,192.78,111.13,204.12,508.02,Single-ply,SBD,M
Boys,124.74+,12,Alonzo Green,Duncanville,133.45,170.1,106.59,195.04,471.74,Single-ply,SBD,M
Boys,124.74+,13,Stephon Dixon,Duncanville,139.98,165.56,95.25,172.37,433.18,Single-ply,SBD,M
Boys,124.74+,DQ,Donavan Valdez,Lancaster,132.36,174.63,,,,Single-ply,SBD,M
