Division,WeightClassKg,Place,Name,Team,BodyweightKg,Best3SquatKg,Best3BenchKg,Best3DeadliftKg,TotalKg,Equipment,Event,Sex
Girls,44.23,1,Natali Dominguez,Mertzon Irion County,43.91,108.86,61.23,113.4,283.5,Single-ply,SBD,F
Girls,44.23,2,Aaliyah Portales,Big Lake Reagan County,44.18,108.86,40.82,102.06,251.74,Single-ply,SBD,F
Girls,44.23,3,Cecilia Palma,Odessa,43,90.72,43.09,92.99,226.8,Single-ply,SBD,F
Girls,44.23,4,Azaylea Tovar,Ozona,42.55,90.72,38.56,95.25,224.53,Single-ply,SBD,F
Girls,44.23,5,Chynna Sandate,Eldorado,41.55,72.57,40.82,95.25,208.65,Single-ply,SBD,F
Girls,44.23,6,Raelee Borrego,Ozona,44,83.91,43.09,79.38,206.38,Single-ply,SBD,F
Girls,44.23,7,Alyssa Sandate,Eldorado,39.92,54.43,29.48,77.11,161.03,Single-ply,SBD,F
Girls,44.23,8,MaKayla Sloan,San Angelo Lake View,44.18,54.43,31.75,63.5,149.69,Single-ply,SBD,F
Girls,44.23,9,Siriah Rodriguez,San Angelo Lake View,41.91,68.04,22.68,,90.72,Single-ply,SB,F
Girls,47.85,1,Clarissa Jimenez,Big Lake Reagan County,46.99,102.06,38.56,92.99,233.6,Single-ply,SBD,F
Girls,47.85,2,Victoria DeHanis,Mertzon Irion County,47.26,86.18,49.9,86.18,222.26,Single-ply,SBD,F
Girls,47.85,3,Destinny Sandate,Eldorado,46.99,77.11,36.29,106.59,219.99,Single-ply,SBD,F
Girls,47.85,4,Cierra Sanchez,Ozona,46.81,79.38,40.82,95.25,215.46,Single-ply,SBD,F
Girls,47.85,5,Erika Sanchez,Eldorado,47.85,79.38,40.82,90.72,210.92,Single-ply,SBD,F
Girls,51.94,1,Kenzie Cramer,Mertzon Irion County,51.89,124.74,72.57,129.27,326.59,Single-ply,SBD,F
Girls,51.94,2,Laura Coronado,Eldorado,51.89,99.79,49.9,108.86,258.55,Single-ply,SBD,F
Girls,51.94,3,Mavelyn Ramos,Odessa,51.8,102.06,43.09,97.52,242.67,Single-ply,SBD,F
Girls,51.94,4,D'Lijah Gamboa,Odessa,50.98,88.45,38.56,95.25,222.26,Single-ply,SBD,F
Girls,51.94,5,Kenzee Talamantez,Ozona,48.9,90.72,34.02,95.25,219.99,Single-ply,SBD,F
Girls,51.94,6,Hannah Cervantes,Big Lake Reagan County,51.89,83.91,38.56,83.91,206.38,Single-ply,SBD,F
Girls,56.02,1,Katelan House,San Angelo Lake View,55.61,131.54,63.5,129.27,324.32,Single-ply,SBD,F
Girls,56.02,2,Lorena Guajardo,San Angelo Grape Creek,54.7,117.93,56.7,120.2,294.84,Single-ply,SBD,F
Girls,56.02,3,Julie Marshall,Ozona,54.98,115.67,56.7,120.2,292.57,Single-ply,SBD,F
Girls,56.02,4,Taylor Snodgrass,Mertzon Irion County,55.88,113.4,61.23,108.86,283.5,Single-ply,SBD,F
Girls,56.02,5,Emily Nhek,Eldorado,53.25,104.33,52.16,117.93,274.42,Single-ply,SBD,F
Girls,56.02,6,Sam Martinez,Mertzon Irion County,55.25,86.18,56.7,104.33,247.21,Single-ply,SBD,F
Girls,56.02,7,Carissa Perez,Ozona,55.7,102.06,56.7,79.38,238.14,Single-ply,SBD,F
Girls,56.02,8,Angelika Rojero,Odessa,54.79,92.99,43.09,95.25,231.33,Single-ply,SBD,F
Girls,56.02,DQ,Lexi Casteneda,Big Lake Reagan County,54.61,,,,,Single-ply,SBD,F
Girls,60.1,1,Samantha Sosa,Big Lake Reagan County,59.24,117.93,47.63,113.4,278.96,Single-ply,SBD,F
Girls,60.1,2,Kati Creech,Big Lake Reagan County,57.88,111.13,54.43,102.06,267.62,Single-ply,SBD,F
Girls,60.1,3,Marisol DeLuna,Eldorado,58.24,102.06,54.43,111.13,267.62,Single-ply,SBD,F
Girls,60.1,4,Chase Mertz,Eldorado,59.96,108.86,47.63,108.86,265.35,Single-ply,SBD,F
Girls,60.1,5,Madelyne Galindo,Odessa,59.15,108.86,43.09,106.59,258.55,Single-ply,SBD,F
Girls,60.1,6,Ariana Leal,Odessa,59.24,92.99,43.09,102.06,238.14,Single-ply,SBD,F
Girls,60.1,7,Kate Valdez,San Angelo Central,57.42,99.79,34.02,99.79,233.6,Single-ply,SBD,F
Girls,60.1,8,Whitney Sullivan,Eldorado,58.6,81.65,40.82,104.33,226.8,Single-ply,SBD,F
Girls,60.1,9,Rachel Mendoza,Ozona,58.79,124.74,72.57,,197.31,Single-ply,SB,F
Girls,67.36,1,Maiah Jurado,Ozona,65.5,136.08,68.04,147.42,351.53,Single-ply,SBD,F
Girls,67.36,2,Ac Corley,San Angelo Grape Creek,65.32,145.15,61.23,127.01,333.39,Single-ply,SBD,F
Girls,67.36,3,Asia Lara,Ozona,65.5,127.01,70.31,124.74,322.05,Single-ply,SBD,F
Girls,67.36,4,Leezset Paez,San Angelo Lake View,62.41,122.47,56.7,133.81,312.98,Single-ply,SBD,F
Girls,67.36,5,Lauren Lambert,San Angelo Lake View,66.5,122.47,52.16,133.81,308.44,Single-ply,SBD,F
Girls,67.36,6,Makayla Brady,Odessa,66.22,122.47,49.9,120.2,292.57,Single-ply,SBD,F
Girls,67.36,7,Sydney Stephens,Midland,64.23,117.93,47.63,117.93,283.5,Single-ply,SBD,F
Girls,67.36,8,Katelyn Dockall,Odessa,61.96,92.99,47.63,131.54,272.16,Single-ply,SBD,F
Girls,67.36,9,Amy Bartkoski,Mertzon Irion County,61.23,92.99,49.9,113.4,256.28,Single-ply,SBD,F
Girls,67.36,10,Zaira Hinojos,Midland,62.05,90.72,52.16,99.79,242.67,Single-ply,SBD,F
Girls,67.36,11,Denys Carrasco,Big Lake Reagan County,66.04,90.72,47.63,104.33,242.67,Single-ply,SBD,F
Girls,67.36,12,Natalie Nunez,San Angelo Lake View,61.42,83.91,31.75,111.13,226.8,Single-ply,SBD,F
Girls,67.36,13,Tori Busselli,San Angelo Central,66.41,83.91,31.75,88.45,204.12,Single-ply,SBD,F
Girls,67.36,14,Kathrine Lopez,San Angelo Central,62.96,70.31,34.02,79.38,183.7,Single-ply,SBD,F
Girls,75.07,1,Ruby Bejarano,Midland,69.13,136.08,68.04,136.08,340.19,Single-ply,SBD,F
Girls,75.07,2,Sammy Lozano,Eldorado,70.22,97.52,47.63,124.74,269.89,Single-ply,SBD,F
Girls,75.07,3,Katrina Soliz,Big Lake Reagan County,67.4,108.86,56.7,102.06,267.62,Single-ply,SBD,F
Girls,75.07,4,Kyanna Cross,Odessa,75.02,115.67,49.9,102.06,267.62,Single-ply,SBD,F
Girls,75.07,5,Jaekarson Brandon,Midland,69.04,102.06,45.36,92.99,240.4,Single-ply,SBD,F
Girls,75.07,6,Julissa Lopez,Midland,67.49,97.52,38.56,92.99,229.06,Single-ply,SBD,F
Girls,75.07,7,Kehalani Young,Midland,72.39,92.99,40.82,90.72,224.53,Single-ply,SBD,F
Girls,75.07,8,Mireya De La Torre,San Angelo Lake View,70.31,74.84,43.09,104.33,222.26,Single-ply,SBD,F
Girls,75.07,9,Kelly Benoit,San Angelo Central,67.59,72.57,38.56,70.31,181.44,Single-ply,SBD,F
Girls,75.07,10,Jackie Covarrubiaz,Eldorado,71.3,104.33,,,104.33,Single-ply,S,F
Girls,82.33,1,Ariene Boyce,Midland,80.56,167.83,92.99,181.44,442.25,Single-ply,SBD,F
Girls,82.33,2,Larissa Vordick,San Angelo Grape Creek,76.93,170.1,81.65,147.42,399.16,Single-ply,SBD,F
Girls,82.33,3,Mikayla De La Cruz,Big Lake Reagan County,79.2,111.13,61.23,124.74,297.1,Single-ply,SBD,F
Girls,82.33,4,Monica Sanchez,Eldorado,78.11,111.13,45.36,122.47,278.96,Single-ply,SBD,F
Girls,82.33,5,Brooklynn Houston,Odessa,78.93,111.13,47.63,120.2,278.96,Single-ply,SBD,F
Girls,82.33,6,Jackeline Loya Gomez,Odessa,79.92,102.06,49.9,124.74,276.69,Single-ply,SBD,F
Girls,90.04,1,Amber Baughman,San Angelo Grape Creek,88,156.49,86.18,136.08,378.75,Single-ply,SBD,F
Girls,90.04,2,Macy McNutt,Mertzon Irion County,87.27,136.08,83.91,142.88,362.87,Single-ply,SBD,F
Girls,90.04,3,Mya Peralta,Midland,88.81,133.81,72.57,145.15,351.53,Single-ply,SBD,F
Girls,90.04,4,Beatriz Galindo,Midland,87.82,133.81,65.77,142.88,342.46,Single-ply,SBD,F
Girls,90.04,5,Lisette Hernandez,San Angelo Lake View,85.18,127.01,63.5,129.27,319.78,Single-ply,SBD,F
Girls,90.04,6,Allaire Montalvo,San Angelo Central,85.73,136.08,54.43,108.86,299.37,Single-ply,SBD,F
Girls,90.04,7,Lexi Briley,San Angelo Grape Creek,88.45,127.01,63.5,99.79,290.3,Single-ply,SBD,F
Girls,90.04,8,Brianna Talamantes,San Angelo Central,87.91,97.52,52.16,127.01,276.69,Single-ply,SBD,F
Girls,90.04,9,Sophie Sandoval,San Angelo Lake View,86.18,83.91,45.36,90.72,219.99,Single-ply,SBD,F
Girls,90.04,10,Markeva King,Midland,89.36,127.01,,,127.01,Single-ply,S,F
Girls,100.02,1,Mia Rivera,Midland,97.61,136.08,68.04,138.35,342.46,Single-ply,SBD,F
Girls,100.02,2,Kendra Sarabia,Ozona,91.63,136.08,58.97,113.4,308.44,Single-ply,SBD,F
Girls,100.02,3,Courtney Bowers,San Angelo Central,96.89,131.54,45.36,104.33,281.23,Single-ply,SBD,F
Girls,100.02,4,Kaylyn Hayes,San Angelo Lake View,90.63,106.59,52.16,120.2,278.96,Single-ply,SBD,F
Girls,100.02,5,Angelica Cervantes,Big Lake Reagan County,97.43,102.06,47.63,115.67,265.35,Single-ply,SBD,F
Girls,100.02,6,Ashley Moran,Ozona,90.17,90.72,49.9,90.72,231.33,Single-ply,SBD,F
Girls,117.71,1,Daisey Narvaez,Big Lake Reagan County,113.76,120.2,63.5,131.54,315.25,Single-ply,SBD,F
Girls,117.71,2,Marissa Cervantes,San Angelo Lake View,114.58,129.27,52.16,120.2,301.64,Single-ply,SBD,F
Girls,117.71,3,Kayla Sarabia,Ozona,104.05,127.01,54.43,117.93,299.37,Single-ply,SBD,F
Girls,117.71,4,Kenzi Ramzy,Midland,109.41,90.72,58.97,136.08,285.76,Single-ply,SBD,F
Girls,117.71,5,Riley Smith,San Angelo Lake View,115.3,79.38,40.82,102.06,222.26,Single-ply,SBD,F
Girls,117.71+,1,Hattie Green,Odessa,151.32,215.46,95.25,172.37,483.08,Single-ply,SBD,F
Girls,,NS,Haley Montelongo,San Angelo Central,,,,,,Single-ply,SBD,F
Girls,,NS,Nani Esquivel,Big Lake Reagan County,,,,,,Single-ply,SBD,F
Girls,,NS,Maci Joe Benson,Mertzon Irion County,,,,,,Single-ply,SBD,F
Girls,,NS,Marianna Garcia,Christoval,,,,,,Single-ply,SBD,F
Girls,,NS,Taylor Moon,Christoval,,,,,,Single-ply,SBD,F
