Division,WeightClassKg,Place,Name,Team,BodyweightKg,Best3SquatKg,Best3BenchKg,Best3DeadliftKg,TotalKg,Equipment,Event,Sex
Boys,51.71,1,Juan Trejo,Friona,51.62,188.24,83.91,167.83,439.98,Single-ply,SBD,M
Boys,51.71,2,Nathan Flores,Friona,51.44,117.93,79.38,149.69,347,Single-ply,SBD,M
Boys,51.71,3,Sammy Hernandez,Perryton,51.71,127.01,68.04,147.42,342.46,Single-ply,SBD,M
Boys,51.71,4,Payton Rhodes,Hart,50.44,113.4,68.04,131.54,312.98,Single-ply,SBD,M
Boys,51.71,5,Alejandro Diaz,Hart,51.71,113.4,45.36,136.08,294.84,Single-ply,SBD,M
Boys,55.79,1,Cesar Ramirez,Perryton,55.52,140.61,68.04,136.08,344.73,Single-ply,SBD,M
Boys,55.79,2,Angel Carranza,Friona,53.98,124.74,72.57,136.08,333.39,Single-ply,SBD,M
Boys,55.79,3,Haiden LeClear,Farwell,55.7,104.33,58.97,115.67,278.96,Single-ply,SBD,M
Boys,55.79,4,Bo Hernandez,Dimmitt,55.52,79.38,56.7,106.59,242.67,Single-ply,SBD,M
Boys,55.79,DQ,Bryan Ordaz,Dumas,55.34,,,,,Single-ply,SBD,M
Boys,59.87,1,Max Foster,Canyon Randall,59.69,127.01,77.11,163.29,367.41,Single-ply,SBD,M
Boys,59.87,2,Nathan Urioste,Canyon Randall,56.7,127.01,81.65,129.27,337.93,Single-ply,SBD,M
Boys,59.87,3,Ty Gouldy,Vega,59.06,129.27,61.23,136.08,326.59,Single-ply,SBD,M
Boys,59.87,4,Hayden Montgomery,Tulia,58.15,117.93,61.23,136.08,315.25,Single-ply,SBD,M
Boys,59.87,5,Jeremy Hooks,Hale Center,56.7,117.93,65.77,127.01,310.71,Single-ply,SBD,M
Boys,59.87,6,Ezaiah Martinez,Dimmitt,57.15,111.13,70.31,127.01,308.44,Single-ply,SBD,M
Boys,59.87,7,Ben Brown,Borger,57.52,108.86,61.23,131.54,301.64,Single-ply,SBD,M
Boys,59.87,DQ,Damian Mendoza,Dumas,59.78,,,,,Single-ply,SBD,M
Boys,59.87,DQ,Uriel Ibanez,Dumas,59.87,,,,,Single-ply,SBD,M
Boys,67.13,1,Jeremiah Diaz,Friona,66.68,195.04,99.79,185.97,480.81,Single-ply,SBD,M
Boys,67.13,2,Walker Voyles,Vega,66.22,174.63,92.99,183.7,451.32,Single-ply,SBD,M
Boys,67.13,3,Brady Tiemann,Vega,65.77,165.56,88.45,181.44,435.45,Single-ply,SBD,M
Boys,67.13,4,Riley Tiemann,Vega,67.04,165.56,88.45,181.44,435.45,Single-ply,SBD,M
Boys,67.13,5,Chase Harris,Canyon Randall,66.04,140.61,81.65,163.29,385.55,Single-ply,SBD,M
Boys,67.13,6,Obed Beltran,Seagraves,66.77,142.88,90.72,147.42,381.02,Single-ply,SBD,M
Boys,67.13,7,Andrew Gonzales,Floydada,60.87,136.08,83.91,145.15,365.14,Single-ply,SBD,M
Boys,67.13,8,Blake Johnson,Hale Center,65.77,131.54,81.65,136.08,349.27,Single-ply,SBD,M
Boys,67.13,9,Josmar Mejia,Dimmitt,60.15,120.2,79.38,138.35,337.93,Single-ply,SBD,M
Boys,67.13,10,Ivan Fernandez,Tulia,64.59,127.01,63.5,147.42,337.93,Single-ply,SBD,M
Boys,67.13,11,Fabian Lozano,Farwell,60.6,120.2,81.65,127.01,328.85,Single-ply,SBD,M
Boys,67.13,12,Aaron Salinas,Friona,62.14,108.86,61.23,122.47,292.57,Single-ply,SBD,M
Boys,67.13,13,Juan Salinas,Friona,63.05,113.4,63.5,113.4,290.3,Single-ply,SBD,M
Boys,67.13,14,Gavin Rutherford,Farwell,62.41,106.59,58.97,122.47,288.03,Single-ply,SBD,M
Boys,67.13,DQ,Carlos Castillo,Farwell,67.04,,,,,Single-ply,SBD,M
Boys,67.13,DQ,Robert Perez,Dimmitt,64.68,127.01,,,,Single-ply,SBD,M
Boys,67.13,DQ,Evan Judd,Dumas,64.77,,,,,Single-ply,SBD,M
Boys,67.13,DQ,Khup Thang,Dumas,66.41,,,,,Single-ply,SBD,M
Boys,74.84,1,Josue Becerril,Perryton,69.13,235.87,131.54,233.6,601.01,Single-ply,SBD,M
Boys,74.84,2,Kingsley Rodriguez,Seagraves,73.12,190.51,115.67,210.92,517.1,Single-ply,SBD,M
Boys,74.84,3,Alex Carmona,Floydada,72.85,181.44,102.06,172.37,455.86,Single-ply,SBD,M
Boys,74.84,4,Kathan Valenzuela,Tulia,73.84,165.56,77.11,185.97,428.64,Single-ply,SBD,M
Boys,74.84,5,Cristian Gonzalez,Vega,71.21,181.44,79.38,165.56,426.38,Single-ply,SBD,M
Boys,74.84,6,Roger Palacios,Friona,74.57,174.63,92.99,158.76,426.38,Single-ply,SBD,M
Boys,74.84,7,William Wall,Dimmitt,68.49,142.88,88.45,176.9,408.23,Single-ply,SBD,M
Boys,74.84,8,Jose Mendoza,Dimmitt,70.4,136.08,74.84,147.42,358.34,Single-ply,SBD,M
Boys,74.84,9,Andrew Suarez,Floydada,71.76,136.08,72.57,147.42,356.07,Single-ply,SBD,M
Boys,74.84,10,Luke Unterkircher,Tulia,72.76,136.08,65.77,154.22,356.07,Single-ply,SBD,M
Boys,74.84,11,Kevin Lucatero,Friona,70.49,127.01,68.04,156.49,351.53,Single-ply,SBD,M
Boys,74.84,DQ,Mathew Cano,Perryton,73.94,,,,,Single-ply,SBD,M
Boys,82.1,1,Ben Dunlap,Canyon Randall,81.19,176.9,113.4,204.12,494.42,Single-ply,SBD,M
Boys,82.1,2,Justin Goldston,Dumas,80.65,181.44,97.52,190.51,469.47,Single-ply,SBD,M
Boys,82.1,3,Beto Diaz,Sudan,76.2,156.49,95.25,181.44,433.18,Single-ply,SBD,M
Boys,82.1,4,Mathew Dimas,Friona,77.11,131.54,63.5,140.61,335.66,Single-ply,SBD,M
Boys,82.1,DQ,Petey Martinez,Perryton,81.19,185.97,108.86,,,Single-ply,SBD,M
Boys,82.1,DQ,Alex Conley,Sudan,81.47,183.7,,,,Single-ply,SBD,M
Boys,89.81,1,Caleb Frausto,Canyon Randall,85.55,222.26,183.7,226.8,632.76,Single-ply,SBD,M
Boys,89.81,2,Cameron Enriquez,Dimmitt,84.1,195.04,104.33,192.78,492.15,Single-ply,SBD,M
Boys,89.81,3,Joe Barrera,Tulia,86,174.63,97.52,190.51,462.66,Single-ply,SBD,M
Boys,89.81,4,Jay Defoor,Canyon,84.19,170.1,108.86,174.63,453.59,Single-ply,SBD,M
Boys,89.81,5,Cash Page,Canyon,84.73,136.08,97.52,192.78,426.38,Single-ply,SBD,M
Boys,89.81,6,Corbin McDowell,Tulia,87.45,156.49,86.18,172.37,415.04,Single-ply,SBD,M
Boys,89.81,7,Ryan Eller,Shallowater,85.28,145.15,83.91,151.95,381.02,Single-ply,SBD,M
Boys,89.81,8,Robert Navarijo,Dimmitt,84.19,142.88,81.65,145.15,369.68,Single-ply,SBD,M
Boys,89.81,9,Anthony Abarca,Friona,85.82,142.88,63.5,133.81,340.19,Single-ply,SBD,M
Boys,89.81,10,Gregory Lang,Borger,83.82,102.06,72.57,133.81,308.44,Single-ply,SBD,M
Boys,89.81,DQ,Alonso Tarango,Perryton,86.91,213.19,,,,Single-ply,SBD,M
Boys,89.81,DQ,Mark Hernandez,Dumas,85.55,,,,,Single-ply,SBD,M
Boys,89.81,DQ,Brody Olson,Canyon,87.18,154.22,102.06,,,Single-ply,SBD,M
Boys,99.79,1,Karlo Sanchez,Dumas,98.97,249.48,147.42,229.06,625.96,Single-ply,SBD,M
Boys,99.79,2,Jay Ramirez,Perryton,98.52,244.94,127.01,224.53,596.47,Single-ply,SBD,M
Boys,99.79,3,Ariel Jaramillo,Friona,97.89,219.99,147.42,224.53,591.94,Single-ply,SBD,M
Boys,99.79,4,Jesus Jaramillo,Friona,99.65,226.8,145.15,219.99,591.94,Single-ply,SBD,M
Boys,99.79,5,Esai Flores,Hale Center,99.79,183.7,106.59,183.7,474,Single-ply,SBD,M
Boys,99.79,6,Adrian Sital,Sudan,92.44,161.03,113.4,183.7,458.13,Single-ply,SBD,M
Boys,99.79,7,Armando Trujillo,Vega,93.89,167.83,88.45,170.1,426.38,Single-ply,SBD,M
Boys,99.79,8,Ethan Sardello,Perryton,99.52,124.74,95.25,192.78,412.77,Single-ply,SBD,M
Boys,99.79,9,Sergio Arizate,Shallowater,93.26,149.69,86.18,167.83,403.7,Single-ply,SBD,M
Boys,99.79,10,Cade Hood,Vega,96.34,161.03,83.91,151.95,396.89,Single-ply,SBD,M
Boys,99.79,11,Malachi Christensen,Shallowater,94.89,145.15,83.91,142.88,371.95,Single-ply,SBD,M
Boys,99.79,12,Devin Riojas,Floydada,94.53,136.08,77.11,151.95,365.14,Single-ply,SBD,M
Boys,99.79,13,Alexis Granillo,Seagraves,96.62,136.08,63.5,142.88,342.46,Single-ply,SBD,M
Boys,99.79,DQ,Armondo Cardenes,Dumas,99.43,136.08,83.91,,,Single-ply,SBD,M
Boys,109.77,1,Chris Delatorre,Dumas,104.24,231.33,154.22,219.99,605.55,Single-ply,SBD,M
Boys,109.77,2,Rey Heredia,Borger,106.41,235.87,142.88,208.65,587.4,Single-ply,SBD,M
Boys,109.77,3,Jaziel Rivera,Borger,107.68,229.06,151.95,199.58,580.6,Single-ply,SBD,M
Boys,109.77,4,Chris Omeire,Canyon Randall,106.5,222.26,133.81,195.04,551.11,Single-ply,SBD,M
Boys,109.77,5,Alan Mendoza,Seagraves,103.51,204.12,115.67,199.58,519.36,Single-ply,SBD,M
Boys,109.77,6,Alex Montes,Friona,103.87,172.37,95.25,163.29,430.91,Single-ply,SBD,M
Boys,109.77,7,Gerardo Gonzalez,Dimmitt,101.06,151.95,83.91,174.63,410.5,Single-ply,SBD,M
Boys,109.77,8,Elijah Olivo,Shallowater,105.14,161.03,74.84,163.29,399.16,Single-ply,SBD,M
Boys,109.77,DQ,Josue DeSantiago,Dumas,106.5,222.26,,,,Single-ply,SBD,M
Boys,124.74,1,Yordi Hernandez,Perryton,123.92,326.59,167.83,244.94,739.36,Single-ply,SBD,M
Boys,124.74,2,Cody Mays,Vega,116.39,238.14,142.88,233.6,614.62,Single-ply,SBD,M
Boys,124.74,3,Miguel Celis,Perryton,114.12,219.99,138.35,208.65,566.99,Single-ply,SBD,M
Boys,124.74,4,Bo Christie,Canyon,110.68,204.12,131.54,201.85,537.51,Single-ply,SBD,M
Boys,124.74,5,Isaiah Montes,Sudan,111.49,181.44,122.47,204.12,508.02,Single-ply,SBD,M
Boys,124.74,6,JJ Jesus Martinez,Dumas,113.58,199.58,111.13,188.24,498.95,Single-ply,SBD,M
Boys,124.74,7,Damon Monroe,Floydada,110.5,192.78,111.13,181.44,485.34,Single-ply,SBD,M
Boys,124.74,8,Jesus Guerra,Sudan,118.39,183.7,92.99,181.44,458.13,Single-ply,SBD,M
Boys,124.74,9,Jake Padilla,Friona,112.04,167.83,95.25,170.1,433.18,Single-ply,SBD,M
Boys,124.74+,1,Omar Hernandez,Dumas,124.83,244.94,183.7,219.99,648.64,Single-ply,SBD,M
Boys,124.74+,2,Dominick Longoria,Seagraves,151.95,233.6,154.22,208.65,596.47,Single-ply,SBD,M
Boys,124.74+,3,Jerik Reed,Tulia,127.46,199.58,113.4,195.04,508.02,Single-ply,SBD,M
