Division,WeightClassKg,Place,Name,Team,BodyweightKg,Best3SquatKg,Best3BenchKg,Best3DeadliftKg,TotalKg,Equipment,Event,Sex
Boys,51.71,1,Jaime Rios,Big Lake Reagan County,50.35,117.93,70.31,131.54,319.78,Single-ply,SBD,M
Boys,51.71,2,Mark Valdez,Brady,48.53,106.59,65.77,133.81,306.17,Single-ply,SBD,M
Boys,51.71,DQ,Bernardo Romo,Eldorado,51.71,68.04,,,,Single-ply,SBD,M
Boys,55.79,1,Raul Rey,Big Lake Reagan County,55.34,174.63,83.91,181.44,439.98,Single-ply,SBD,M
Boys,55.79,2,Tommy Purcell,Christoval,55.7,124.74,68.04,133.81,326.59,Single-ply,SBD,M
Boys,55.79,3,Juan Ruiz,Sonora,55.79,102.06,61.23,106.59,269.89,Single-ply,SBD,M
Boys,59.87,1,Miguel Arroyo,San Angelo Lake View,58.51,163.29,99.79,158.76,421.84,Single-ply,SBD,M
Boys,59.87,2,Radek Spatz,Miles,56.7,138.35,65.77,140.61,344.73,Single-ply,SBD,M
Boys,59.87,3,Eloy Trevino,Eldorado,56.7,122.47,72.57,142.88,337.93,Single-ply,SBD,M
Boys,59.87,4,Clint Maurer,Iraan,57.33,102.06,68.04,113.4,283.5,Single-ply,SBD,M
Boys,59.87,5,Garret Meier,Christoval,59.78,92.99,61.23,124.74,278.96,Single-ply,SBD,M
Boys,59.87,DQ,Oscar Gutierrez,Sonora,59.24,142.88,90.72,,,Single-ply,SBD,M
Boys,67.13,1,Cade Cramer,Mertzon Irion County,66.22,158.76,104.33,136.08,399.16,Single-ply,SBD,M
Boys,67.13,2,David Fava,Christoval,65.95,133.81,92.99,154.22,381.02,Single-ply,SBD,M
Boys,67.13,3,Sergio Gonzales,Big Lake Reagan County,60.24,138.35,63.5,142.88,344.73,Single-ply,SBD,M
Boys,67.13,4,Mario Martinez,Brady,62.14,117.93,68.04,145.15,331.12,Single-ply,SBD,M
Boys,67.13,5,Korbin Covarrubiaz,Eldorado,64.41,115.67,65.77,133.81,315.25,Single-ply,SBD,M
Boys,67.13,6,Alex Torres #2,Brady,62.6,106.59,70.31,122.47,299.37,Single-ply,SBD,M
Boys,67.13,7,Zane Davis,Iraan,64.23,90.72,56.7,111.13,258.55,Single-ply,SBD,M
Boys,67.13,DQ,Colton House,Junction,64.41,176.9,,,,Single-ply,SBD,M
Boys,67.13,DQ,Larry Telles,Junction,67.13,,,,,Single-ply,SBD,M
Boys,74.84,1,Frankie Villanueva,Eldorado,74.8,190.51,95.25,206.38,492.15,Single-ply,SBD,M
Boys,74.84,2,Payton Polk,Christoval,73.75,174.63,106.59,192.78,474,Single-ply,SBD,M
Boys,74.84,3,Jimmy Turner,Brady,72.94,147.42,88.45,167.83,403.7,Single-ply,SBD,M
Boys,74.84,4,Jaycee Clements,Mertzon Irion County,74.39,142.88,92.99,163.29,399.16,Single-ply,SBD,M
Boys,74.84,5,Ethan Hyde,Rocksprings,72.57,131.54,77.11,138.35,347,Single-ply,SBD,M
Boys,74.84,6,Elias Sanchez,Miles,73.94,113.4,61.23,136.08,310.71,Single-ply,SBD,M
Boys,74.84,7,Nick Wright,Iraan,68.04,108.86,56.7,131.54,297.1,Single-ply,SBD,M
Boys,74.84,8,Aaron Noriega,Sonora,74.03,111.13,68.04,102.06,281.23,Single-ply,SBD,M
Boys,82.1,1,Juan Baez,Sonora,81.19,272.16,156.49,229.06,657.71,Single-ply,SBD,M
Boys,82.1,2,Andrew Herpeche,Miles,81.19,192.78,124.74,199.58,517.1,Single-ply,SBD,M
Boys,82.1,3,Issahia Valenzuela,Big Lake Reagan County,82.1,192.78,106.59,204.12,503.49,Single-ply,SBD,M
Boys,82.1,4,Juan Saucedo,Big Lake Reagan County,81.65,183.7,106.59,190.51,480.81,Single-ply,SBD,M
Boys,82.1,5,Christian DeLuna,Big Lake Reagan County,81.65,181.44,104.33,188.24,474,Single-ply,SBD,M
Boys,82.1,6,Brian Ramirez,Brady,78.93,167.83,115.67,149.69,433.18,Single-ply,SBD,M
Boys,82.1,7,Jesse Edgar,Mertzon Irion County,78.93,151.95,90.72,163.29,405.97,Single-ply,SBD,M
Boys,82.1,8,Gio Guevara,San Angelo Grape Creek,77.93,151.95,99.79,151.95,403.7,Single-ply,SBD,M
Boys,82.1,9,Modesto Resendez,San Angelo Lake View,76.66,154.22,99.79,142.88,396.89,Single-ply,SBD,M
Boys,82.1,10,Damian Hernandez,San Angelo Grape Creek,76.66,145.15,92.99,156.49,394.63,Single-ply,SBD,M
Boys,82.1,11,Gaven DeLeon,San Angelo Grape Creek,76.2,149.69,72.57,163.29,385.55,Single-ply,SBD,M
Boys,82.1,12,Teaggan DeLeon,San Angelo Grape Creek,79.38,136.08,95.25,149.69,381.02,Single-ply,SBD,M
Boys,82.1,13,Kaleb Dye,Christoval,76.29,115.67,58.97,129.27,303.91,Single-ply,SBD,M
Boys,89.81,1,Blake Miller,Mertzon Irion County,89.36,188.24,151.95,192.78,532.97,Single-ply,SBD,M
Boys,89.81,2,Kodee Warriner,Big Lake Reagan County,84.82,183.7,108.86,204.12,496.68,Single-ply,SBD,M
Boys,89.81,3,Carter Christensen,San Angelo Lake View,82.55,167.83,129.27,192.78,489.88,Single-ply,SBD,M
Boys,89.81,4,Coleton Williams,Miles,85.55,158.76,115.67,181.44,455.86,Single-ply,SBD,M
Boys,89.81,5,Daniel Hernandez,Brady,85.28,158.76,88.45,188.24,435.45,Single-ply,SBD,M
Boys,89.81,6,Cesar Garcia,Eldorado,85.73,154.22,95.25,185.97,435.45,Single-ply,SBD,M
Boys,89.81,7,Austin Barrera,Rocksprings,88.9,172.37,74.84,172.37,419.57,Single-ply,SBD,M
Boys,89.81,8,Shaydon Pearl,Junction,89.36,149.69,92.99,142.88,385.55,Single-ply,SBD,M
Boys,89.81,9,Joel Garcia,Miles,89.36,142.88,79.38,158.76,381.02,Single-ply,SBD,M
Boys,89.81,10,Javier Hernandez,Iraan,89.54,147.42,77.11,156.49,381.02,Single-ply,SBD,M
Boys,89.81,11,Zane Gilluspia,Brady,83.01,136.08,77.11,142.88,356.07,Single-ply,SBD,M
Boys,89.81,DQ,Mykel Sevier,San Angelo Lake View,88,190.51,140.61,,,Single-ply,SBD,M
Boys,89.81,DQ,Christian Gutierrez,Miles,88.45,174.63,,,,Single-ply,SBD,M
Boys,99.79,1,Brady Herbst,Junction,99.52,219.99,158.76,210.92,589.67,Single-ply,SBD,M
Boys,99.79,2,Nico Ortiz,Big Lake Reagan County,94.8,226.8,136.08,206.38,569.26,Single-ply,SBD,M
Boys,99.79,3,Alex Rincon,San Angelo Lake View,91.63,172.37,83.91,158.76,415.04,Single-ply,SBD,M
Boys,99.79,DQ,Garrett Hariman,Eldorado,94.35,163.29,122.47,,,Single-ply,SBD,M
Boys,99.79,DQ,Rylee Chapman,Miles,97.52,142.88,,,,Single-ply,SBD,M
Boys,109.77,1,Logan Sanders,San Angelo Lake View,102.97,213.19,145.15,229.06,587.4,Single-ply,SBD,M
Boys,109.77,2,Hunter Wheeler,Sonora,102.06,226.8,120.2,188.24,535.24,Single-ply,SBD,M
Boys,109.77,3,Justin Glass,Big Lake Reagan County,107.05,183.7,104.33,165.56,453.59,Single-ply,SBD,M
Boys,109.77,4,Jaydon Taylor,Mertzon Irion County,107.5,158.76,90.72,167.83,417.3,Single-ply,SBD,M
Boys,109.77,DQ,Nick Billington,Mertzon Irion County,100.7,181.44,129.27,,,Single-ply,SBD,M
Boys,109.77,DQ,Mason Hutto,Eldorado,105.69,158.76,,,,Single-ply,SBD,M
Boys,124.74,1,Tristan Ortiz,Big Lake Reagan County,113.85,322.05,161.03,272.16,755.23,Single-ply,SBD,M
Boys,124.74,2,Jason Carillo,Rocksprings,122.92,276.69,181.44,226.8,684.92,Single-ply,SBD,M
Boys,124.74,3,Albert Arispe,Eldorado,120.66,254.01,149.69,251.74,655.44,Single-ply,SBD,M
Boys,124.74,4,Juan Leon,Brady,111.58,172.37,108.86,174.63,455.86,Single-ply,SBD,M
Boys,124.74,5,Cesar Avila,Junction,117.48,204.12,79.38,170.1,453.59,Single-ply,SBD,M
Boys,124.74,6,Kristopher Vaughn,Brady,124.28,161.03,102.06,149.69,412.77,Single-ply,SBD,M
Boys,124.74,DQ,Isa Vasquez,Eldorado,124.28,167.83,90.72,,,Single-ply,SBD,M
Boys,124.74+,1,Alfredo Enriquez,Rocksprings,163.29,303.91,181.44,263.08,748.43,Single-ply,SBD,M
Boys,124.74+,2,Emiliano Hernandez,Eldorado,136.08,249.48,133.81,265.35,648.64,Single-ply,SBD,M
Boys,124.74+,3,Brody Adams,Junction,138.35,242.67,163.29,206.38,612.35,Single-ply,SBD,M
Boys,124.74+,4,Leandro Gonzales,Rocksprings,142.16,226.8,120.2,242.67,589.67,Single-ply,SBD,M
Boys,124.74+,5,Ethan Sanchez,San Angelo Lake View,137.44,183.7,161.03,204.12,548.85,Single-ply,SBD,M
Boys,124.74+,6,Antonio Ronquillo,San Angelo Lake View,137.89,158.76,113.4,149.69,421.84,Single-ply,SBD,M
Boys,124.74+,DQ,Dorien Enriquez,Rocksprings,133.81,213.19,,,,Single-ply,SBD,M
Boys,,NS,Kevin Garcia,Junction,,,,,,Single-ply,SBD,M
Boys,,NS,Javier Gutierrez,Junction,,,,,,Single-ply,SBD,M
Boys,,NS,Isaiah Lucio,San Angelo Lake View,,,,,,Single-ply,SBD,M
Boys,,NS,Jacob Palacio,Rocksprings,,,,,,Single-ply,SBD,M
Boys,,NS,Cody High,San Angelo Lake View,,,,,,Single-ply,SBD,M
Boys,,NS,Ayden McGuire,San Angelo Lake View,,,,,,Single-ply,SBD,M
Boys,,NS,Raymond Gloria,Brady,,,,,,Single-ply,SBD,M
Boys,,NS,Cesar Reza,Brady,,,,,,Single-ply,SBD,M
Boys,,NS,Mario Fernandez,Sonora,,,,,,Single-ply,SBD,M
Boys,,NS,Seth Edwards,Sonora,,,,,,Single-ply,SBD,M
Boys,,NS,Dillan Dodd,Big Lake Reagan County,,,,,,Single-ply,SBD,M
Boys,,NS,David Guerrero,Big Lake Reagan County,,,,,,Single-ply,SBD,M
Boys,,NS,Isaiah Perez,Big Lake Reagan County,,,,,,Single-ply,SBD,M
Boys,,NS,Noel Perez,Big Lake Reagan County,,,,,,Single-ply,SBD,M
Boys,,NS,Chris Llanas,Miles,,,,,,Single-ply,SBD,M
