Division,WeightClassKg,Place,Name,Team,BodyweightKg,Best3SquatKg,Best3BenchKg,Best3DeadliftKg,TotalKg,Equipment,Event,Sex
Boys,51.71,1,Cody Juarez,Alice,49.44,163.29,102.06,158.76,424.11,Single-ply,SBD,M
Boys,51.71,2,Jeremy Martinez,Robstown,51.71,149.69,74.84,181.44,405.97,Single-ply,SBD,M
Boys,51.71,3,Marcus Gaza,Alice,50.8,149.69,61.23,122.47,333.39,Single-ply,SBD,M
Boys,51.71,4,Jimmy Miller,George West,49.44,136.08,52.16,136.08,324.32,Single-ply,SBD,M
Boys,51.71,5,Rogelio Hernandez,Ben Bolt-Palito Blanco,47.63,115.67,70.31,127.01,312.98,Single-ply,SBD,M
Boys,51.71,6,Cole Terry,Skidmore-Tynan,50.35,113.4,68.04,124.74,306.17,Single-ply,SBD,M
Boys,51.71,7,Trevor Carmona,Alice,48.53,97.52,43.09,99.79,240.4,Single-ply,SBD,M
Boys,55.79,1,Randy Soliz,Hebbronville,54.43,192.78,111.13,213.19,517.1,Single-ply,SBD,M
Boys,55.79,2,Anthony Perez,Ben Bolt-Palito Blanco,54.88,158.76,106.59,167.83,433.18,Single-ply,SBD,M
Boys,55.79,3,Joey Heard,Orange Grove,54.34,129.27,90.72,163.29,383.29,Single-ply,SBD,M
Boys,55.79,4,Niko Munoz,Falfurrias,53.98,122.47,70.31,138.35,331.12,Single-ply,SBD,M
Boys,55.79,5,Juan Alvarez,Orange Grove,55.79,113.4,61.23,149.69,324.32,Single-ply,SBD,M
Boys,55.79,6,Tyler Harris,Skidmore-Tynan,55.34,117.93,63.5,140.61,322.05,Single-ply,SBD,M
Boys,55.79,7,JT Bryce,George West,53.07,113.4,65.77,104.33,283.5,Single-ply,SBD,M
Boys,59.87,1,Richard Saenz,Hebbronville,58.06,206.38,97.52,188.24,492.15,Single-ply,SBD,M
Boys,59.87,2,Sam Martinez,Bishop,58.97,142.88,79.38,176.9,399.16,Single-ply,SBD,M
Boys,59.87,3,Jose Maldonado,Falfurrias,58.97,124.74,104.33,154.22,383.29,Single-ply,SBD,M
Boys,59.87,4,Noe Herrera,Kingsville King,58.06,127.01,79.38,149.69,356.07,Single-ply,SBD,M
Boys,59.87,5,Alejandro Ramirez,Falfurrias,58.51,120.2,83.91,142.88,347,Single-ply,SBD,M
Boys,59.87,6,Ryan Saenz,Hebbronville,59.42,122.47,68.04,147.42,337.93,Single-ply,SBD,M
Boys,59.87,7,Austin Hinijosa,Orange Grove,58.97,108.86,63.5,151.95,324.32,Single-ply,SBD,M
Boys,59.87,8,Armando Escobedo,Orange Grove,58.97,111.13,58.97,149.69,319.78,Single-ply,SBD,M
Boys,59.87,9,Ryan Fransham,Orange Grove,58.15,111.13,61.23,124.74,297.1,Single-ply,SBD,M
Boys,67.13,1,Estevan Galvan,Freer,65.32,206.38,129.27,226.8,562.45,Single-ply,SBD,M
Boys,67.13,2,Oscar Camarillo,Alice,66.22,208.65,120.2,195.04,523.9,Single-ply,SBD,M
Boys,67.13,3,Tristian Perez,Ben Bolt-Palito Blanco,67.13,142.88,83.91,138.35,365.14,Single-ply,SBD,M
Boys,67.13,DQ,Cody Prather,Ben Bolt-Palito Blanco,65.77,,,,,Single-ply,SBD,M
Boys,67.13,DQ,Alex Gonzales,Alice,66.22,,,,,Single-ply,SBD,M
Boys,67.13,DQ,Justin Clifton,Beeville Jones,65.77,170.1,,,,Single-ply,SBD,M
Boys,67.13,DQ,Dustin Torres,Beeville Jones,66.22,,,,,Single-ply,SBD,M
Boys,74.84,1,Javier Rodriguez,San Diego,73.48,242.67,156.49,222.26,621.42,Single-ply,SBD,M
Boys,74.84,2,Matt Olivarri,Alice,73.48,183.7,127.01,206.38,517.1,Single-ply,SBD,M
Boys,74.84,3,Tommy Aguilar,Orange Grove,71.3,197.31,108.86,208.65,514.83,Single-ply,SBD,M
Boys,74.84,4,Derrick Carroll,Beeville Jones,73.94,197.31,104.33,201.85,503.49,Single-ply,SBD,M
Boys,74.84,5,Patrick Prieto,Beeville Jones,71.67,192.78,108.86,199.58,501.22,Single-ply,SBD,M
Boys,74.84,6,Dante Pizana,Odem,73.94,174.63,138.35,183.7,496.68,Single-ply,SBD,M
Boys,74.84,7,Isaac Bueno,Alice,73.48,190.51,113.4,190.51,494.42,Single-ply,SBD,M
Boys,74.84,8,Audrick Mooreer,Beeville Jones,74.84,183.7,106.59,199.58,489.88,Single-ply,SBD,M
Boys,74.84,9,Conner Bowers,Bishop,73.94,181.44,111.13,188.24,480.81,Single-ply,SBD,M
Boys,74.84,10,Arin Saenz,Freer,71.21,183.7,102.06,192.78,478.54,Single-ply,SBD,M
Boys,74.84,11,Gilbert Mendez,Bishop,73.94,165.56,113.4,192.78,471.74,Single-ply,SBD,M
Boys,74.84,12,Ramiro Gonzalez,Falfurrias,68.49,161.03,115.67,183.7,460.4,Single-ply,SBD,M
Boys,74.84,13,John Pizana,Odem,68.04,167.83,102.06,183.7,453.59,Single-ply,SBD,M
Boys,74.84,14,Nathaniel McRae,Hebbronville,68.49,163.29,97.52,188.24,449.06,Single-ply,SBD,M
Boys,74.84,15,Israel Garcia,Falfurrias,73.03,140.61,111.13,192.78,444.52,Single-ply,SBD,M
Boys,74.84,16,Adrian Fuentes,George West,68.49,142.88,95.25,167.83,405.97,Single-ply,SBD,M
Boys,74.84,17,Freddy Martinez,Orange Grove,74.84,131.54,77.11,195.04,403.7,Single-ply,SBD,M
Boys,74.84,18,AJ Moreno,Alice,69.85,149.69,95.25,147.42,392.36,Single-ply,SBD,M
Boys,74.84,19,Cobe Romanos,Orange Grove,73.12,120.2,86.18,172.37,378.75,Single-ply,SBD,M
Boys,74.84,20,Jacob Munoz,Falfurrias,68.49,129.27,74.84,165.56,369.68,Single-ply,SBD,M
Boys,74.84,21,Bonifacio Gutierrez,Odem,71.67,142.88,74.84,145.15,362.87,Single-ply,SBD,M
Boys,74.84,22,Heron Tamez,Falfurrias,73.03,113.4,70.31,133.81,317.51,Single-ply,SBD,M
Boys,74.84,DQ,Latario Gonzalez,Freer,71.21,,,,,Single-ply,SBD,M
Boys,74.84,DQ,Brenden Boales,Skidmore-Tynan,70.31,,,,,Single-ply,SBD,M
Boys,82.1,1,Lane McClelland,George West,81.19,217.72,147.42,224.53,589.67,Single-ply,SBD,M
Boys,82.1,2,Nick Galvan,Beeville Jones,81.65,213.19,147.42,224.53,585.13,Single-ply,SBD,M
Boys,82.1,3,Chris Madrigal,Beeville Jones,78.93,204.12,142.88,233.6,580.6,Single-ply,SBD,M
Boys,82.1,4,Brandon Munoz,George West,80.29,222.26,129.27,224.53,576.06,Single-ply,SBD,M
Boys,82.1,5,Andrew Galvan,Odem,78.47,183.7,115.67,217.72,517.1,Single-ply,SBD,M
Boys,82.1,6,Joshua Olivarez,Falfurrias,78.02,165.56,102.06,199.58,467.2,Single-ply,SBD,M
Boys,82.1,7,David Garza,Kingsville King,76.2,149.69,95.25,158.76,403.7,Single-ply,SBD,M
Boys,82.1,8,Tevin Moreno,Odem,75.75,149.69,79.38,156.49,385.55,Single-ply,SBD,M
Boys,82.1,9,Gabriel Guajardo,Skidmore-Tynan,82.1,127.01,81.65,136.08,344.73,Single-ply,SBD,M
Boys,82.1,DQ,Joey Guerra,San Diego,77.66,,,,,Single-ply,SBD,M
Boys,89.81,1,Rudy Casarez,Beeville Jones,88.45,233.6,131.54,206.38,571.53,Single-ply,SBD,M
Boys,89.81,2,Victor Moreno,Hebbronville,83.01,210.92,127.01,210.92,548.85,Single-ply,SBD,M
Boys,89.81,3,Allan Medrano,Bishop,83.01,195.04,117.93,190.51,503.49,Single-ply,SBD,M
Boys,89.81,4,Ryan De Los Santos,Robstown,85.28,176.9,99.79,183.7,460.4,Single-ply,SBD,M
Boys,89.81,5,Joel Salinas,Falfurrias,82.55,165.56,102.06,185.97,453.59,Single-ply,SBD,M
Boys,89.81,6,Ethan Bernal,George West,86.18,170.1,92.99,190.51,453.59,Single-ply,SBD,M
Boys,89.81,7,Felipe Ruiz,Freer,88,167.83,95.25,165.56,428.64,Single-ply,SBD,M
Boys,89.81,8,Ivan Naranjo,Robstown,85.28,147.42,81.65,151.95,381.02,Single-ply,SBD,M
Boys,89.81,9,Marcus Hinojosa,Skidmore-Tynan,88,161.03,79.38,124.74,365.14,Single-ply,SBD,M
Boys,89.81,10,Tanner Garcia,Orange Grove,86.18,140.61,70.31,149.69,360.61,Single-ply,SBD,M
Boys,89.81,11,Marcos Espinosa,Kingsville King,85.28,90.72,81.65,131.54,303.91,Single-ply,SBD,M
Boys,99.79,1,Jose Moreno,San Diego,98.79,303.91,147.42,294.84,746.16,Single-ply,SBD,M
Boys,99.79,2,Aaron Puga,Beeville Jones,98.43,263.08,149.69,238.14,650.91,Single-ply,SBD,M
Boys,99.79,3,Eric Gutierrez,Robstown,98.88,229.06,124.74,201.85,555.65,Single-ply,SBD,M
Boys,99.79,4,Michael Salaiz,San Diego,99.34,226.8,113.4,204.12,544.31,Single-ply,SBD,M
Boys,99.79,5,Elias Cantu,Hebbronville,94.35,181.44,131.54,217.72,530.7,Single-ply,SBD,M
Boys,99.79,6,Thomas Puentes,Skidmore-Tynan,91.63,151.95,97.52,151.95,401.43,Single-ply,SBD,M
Boys,109.77,1,Steve Covarrubias,Robstown,104.33,213.19,136.08,199.58,548.85,Single-ply,SBD,M
Boys,109.77,2,Jeffrey Perez,Beeville Jones,108.41,215.46,113.4,181.44,510.29,Single-ply,SBD,M
Boys,109.77,3,Jeffery Hobbs,Orange Grove,108.86,163.29,104.33,195.04,462.66,Single-ply,SBD,M
Boys,109.77,4,Joey Garza,Falfurrias,102.06,158.76,88.45,185.97,433.18,Single-ply,SBD,M
Boys,109.77,5,Joe Adam Ramirez,George West,103.42,129.27,79.38,156.49,365.14,Single-ply,SBD,M
Boys,109.77,DQ,Pete Dominguez,Hebbronville,109.32,,,,,Single-ply,SBD,M
Boys,124.74,1,Adrian Acevedo,Beeville Jones,117.03,247.21,142.88,240.4,630.49,Single-ply,SBD,M
Boys,124.74,2,Jose Marquez,Hebbronville,112.04,249.48,136.08,233.6,619.15,Single-ply,SBD,M
Boys,124.74,3,Joe Huerta,Hebbronville,114.76,249.48,140.61,226.8,616.89,Single-ply,SBD,M
Boys,124.74,4,Jaime Rosas,Falfurrias,115.21,238.14,142.88,222.26,603.28,Single-ply,SBD,M
Boys,124.74,5,Ariel Garza,Ben Bolt-Palito Blanco,110.22,190.51,165.56,226.8,582.87,Single-ply,SBD,M
Boys,124.74,6,Abel Tunchez,San Diego,113.4,188.24,104.33,156.49,449.06,Single-ply,SBD,M
Boys,124.74,7,Will Atwood,Orange Grove,121.11,154.22,102.06,158.76,415.04,Single-ply,SBD,M
Boys,124.74,8,Ezra Naranjo,Odem,110.68,124.74,83.91,147.42,356.07,Single-ply,SBD,M
Boys,124.74+,1,George Hughes,San Diego,129.27,226.8,124.74,206.38,557.92,Single-ply,SBD,M
Boys,124.74+,2,David Ramirez,Robstown,147.42,188.24,124.74,183.7,496.68,Single-ply,SBD,M
Boys,124.74+,DQ,Angel Salinas,Orange Grove,164.88,,,,,Single-ply,SBD,M
