Place,Name,Division,BodyweightKg,Squat1Kg,Squat2Kg,Squat3Kg,Best3SquatKg,Bench1Kg,Bench2Kg,Bench3Kg,Best3BenchKg,Deadlift1Kg,Deadlift2Kg,Deadlift3Kg,Best3DeadliftKg,TotalKg,WeightClassKg,Sex,CyrillicName,BirthYear,Tested,Equipment,Event
1,Tetyana Sharkova,T3,51,75,80,82.5,82.5,45,50,52.5,52.5,105,110,115,115,250,52,F,Тетяна Шаркова,1997,Yes,Wraps,SBD
1,Yuliya Konyushenko,J,54.9,105,115,-122.5,115,50,-55,55,55,100,,,100,270,56,F,Юлія Конюшенко,1995,Yes,Wraps,SBD
1,Oksana Prikhodko,O,53.4,140,-150,150,150,85,90,-95,90,150,157.5,-162.5,157.5,397.5,56,F,Оксана Приходько,1991,Yes,Wraps,SBD
2,Anastasiya Muratova,O,56,130,137.5,142.5,142.5,80,85,-90,85,110,120,125,125,352.5,56,F,Анастасія Муратова,1989,Yes,Wraps,SBD
3,Yuliya Dovgal,O,55.9,-90,-90,90,90,42.5,-47.5,-47.5,42.5,100,110,112.5,112.5,245,56,F,Юлія Довгаль,1986,Yes,Wraps,SBD
1,Oleksandra Gorina,J,60,85,90,95,95,40,42.5,-45,42.5,90,-95,-95,90,227.5,60,F,Олександра Горіна,1994,Yes,Wraps,SBD
1,Natalya Kravchenko,O,58.2,85,95,105,105,60,65,-67.5,65,125,130,135,135,305,60,F,Наталья Кравченко,1977,Yes,Wraps,SBD
2,Dina Eremeeva,O,59,-25,-25,40,40,20,-25,25,25,40,50,55,55,120,60,F,Діна Єремеєва,1985,Yes,Wraps,SBD
1,Yana Yonenko,T2,66.2,-110,,110,110,55,60,62.5,62.5,130,135,,135,307.5,67.5,F,Яна Йоненко,1999,Yes,Wraps,SBD
1,Anna Kashperska,J,67.3,-145,-145,145,145,85,90,95,95,150,160,165,165,405,67.5,F,Анна Кашперська,1994,Yes,Wraps,SBD
1,Anna Kashperska,O,67.3,-145,-145,145,145,85,90,95,95,150,160,165,165,405,67.5,F,Анна Кашперська,1994,Yes,Wraps,SBD
2,Yana Yonenko,O,66.2,-110,,110,110,55,60,62.5,62.5,130,135,,135,307.5,67.5,F,Яна Йоненко,1999,Yes,Wraps,SBD
1,Andriy Ivanov,T2,65.8,70,85,-100,85,55,60,65,65,100,110,120,120,270,67.5,M,Андрій Іванов,2000,Yes,Wraps,SBD
1,Illya Antonenko,T3,66.6,-130,,132.5,132.5,100,107.5,110,110,160,,,160,402.5,67.5,M,Ілля Антоненко,1997,Yes,Wraps,SBD
1,Yaroslav Fartushniy,J,65.5,-110,125,135,135,-95,105,-110,105,150,165,-190,165,405,67.5,M,Ярослав Фартушний,1994,Yes,Wraps,SBD
1,Yaroslav Fartushniy,O,65.5,-110,125,135,135,-95,105,-110,105,150,165,-190,165,405,67.5,M,Ярослав Фартушний,1994,Yes,Wraps,SBD
2,Illya Antonenko,O,66.6,-130,,132.5,132.5,100,107.5,110,110,160,,,160,402.5,67.5,M,Ілля Антоненко,1997,Yes,Wraps,SBD
1,Taras Avramenko,T2,73.2,130,-140,145,145,95,102.5,105,105,140,-150,-150,140,390,75,M,Тарас Авраменко,2000,Yes,Wraps,SBD
1,Yaroslav Pushkar,T3,73,195,-205,205,205,140,147.5,152.5,152.5,170,180,190,190,547.5,75,M,Ярослав Пушкарь,1997,Yes,Wraps,SBD
DQ,Volodymyr Mavrenkov,T3,73.1,-130,-130,-135,,,,,,,,,,,75,M,Володимир Мавренков,1997,Yes,Wraps,SBD
1,Oleksandr Grygorenko,J,74.1,150,170,190,190,120,130,-135,130,150,170,-177.5,170,490,75,M,Олександр Григоренко,1993,Yes,Wraps,SBD
2,Artem Tislenko,J,71.5,-167.5,-167.5,167.5,167.5,120,-127.5,-127.5,120,190,200,-210,200,487.5,75,M,Артем Тисленко,1993,Yes,Wraps,SBD
3,Denys Martynyuk,J,72.5,160,170,,170,90,-95,-95,90,180,-190,,180,440,75,M,Денис Мартинюк,1995,Yes,Wraps,SBD
4,Dmitro Solonenko,J,71.6,140,150,-155,150,100,110,-115,110,140,150,155,155,415,75,M,Дмитро Солоненко,1994,Yes,Wraps,SBD
DQ,Vladislav Daneykin,J,73.8,140,150,160,160,85,90,95,95,-160,-160,-160,,,75,M,Владислав Данейкін,1994,Yes,Wraps,SBD
1,Mykyta Filonenko,T3,81.2,150,160,170,170,120,-130,-130,120,190,205,-215,205,495,82.5,M,Микита Філоненко,1998,Yes,Wraps,SBD
2,Vladislav Fartushniy,T3,79.1,160,175,,175,90,95,100,100,200,215,-225,215,490,82.5,M,Владислав Фартушний,1997,Yes,Wraps,SBD
1,Sergiy Mazur,O,81.8,170,185,-200,185,120,-135,-135,120,215,-230,-230,215,520,82.5,M,Сергій Мазур,1981,Yes,Wraps,SBD
2,Evgen Kitaygorodskiy,O,81.3,150,-170,-170,150,130,-135,,130,200,210,220,220,500,82.5,M,Євген Китайгородський,1989,Yes,Wraps,SBD
3,Roman Maksak,O,81.8,160,170,175,175,110,-115,-115,110,190,205,215,215,500,82.5,M,Роман Максак,1986,Yes,Wraps,SBD
4,Vladislav Fartushniy,O,79.1,160,175,,175,90,95,100,100,200,215,-225,215,490,82.5,M,Владислав Фартушний,1997,Yes,Wraps,SBD
5,Sergiy Plakhotniy,O,82.1,160,170,175,175,110,115,-120,115,190,200,,200,490,82.5,M,Сергій Плахотний,1987,Yes,Wraps,SBD
1,Pavlo Shevchenko,J,88.6,140,-150,150,150,100,105,-110,105,170,180,195,195,450,90,M,Павло Шевченко,1994,Yes,Wraps,SBD
DQ,Denis Bragin,J,84.9,-200,-210,210,210,-135,-135,-135,,,,,,,90,M,Денис Брагін,1993,Yes,Wraps,SBD
DQ,Illya Voroshilo,J,86.6,-220,-230,-230,,,,,,,,,,,90,M,Ілля Ворошило,1994,Yes,Wraps,SBD
1,Eduard Dolgov,O,89.2,230,250,-270,250,160,170,180,180,290,300,,300,730,90,M,Едуард Долгов,1987,Yes,Wraps,SBD
2,Dmytro Vorobey,O,87.3,220,-230,-235,220,150,160,-165,160,240,-260,-260,240,620,90,M,Дмитро Воробей,1988,Yes,Wraps,SBD
3,Oleg Pustovoy,O,88.2,210,225,235,235,140,145,150,150,-200,-200,200,200,585,90,M,Олег Пустовой,1987,Yes,Wraps,SBD
4,Volodimir Penya,O,87.8,185,195,210,210,140,150,157.5,157.5,190,200,212.5,212.5,580,90,M,Володимир Пеня,1977,Yes,Wraps,SBD
5,Yuriy Vidyukov,O,87.3,180,190,-195,190,110,115,120,120,215,225,235,235,545,90,M,Юрій Відюков,1990,Yes,Wraps,SBD
6,Andriy Pustovoy,O,88.3,-180,,182.5,182.5,130,142.5,-150,142.5,175,190,-200,190,515,90,M,Андрій Пустовой,1991,Yes,Wraps,SBD
7,Andriy Kovtonyuk,O,88.3,-140,140,155,155,100,-110,110,110,155,165,175,175,440,90,M,Андрій Ковтонюк,1989,Yes,Wraps,SBD
1,Vitaliy Poryadkov,M1,85.7,130,140,-150,140,120,125,130,130,160,175,190,190,460,90,M,Віталій Порядков,1972,Yes,Wraps,SBD
1,Nikita Kitayko,T1,100,120,130,140,140,90,100,-110,100,110,130,140,140,380,100,M,Нікіта Китайко,2002,Yes,Wraps,SBD
1,Oleg Pravedniy,T3,97.1,160,175,185,185,120,127.5,,127.5,200,207.5,,207.5,520,100,M,Олег Праведний,1996,Yes,Wraps,SBD
1,Illya Kaftan,J,94.2,200,-210,-210,200,110,120,130,130,200,220,235,235,565,100,M,Ілля Кафтан,1995,Yes,Wraps,SBD
1,Pavlo Chygryn,O,91.7,210,225,-230,225,-140,140,-145,140,240,255,-267.5,255,620,100,M,Павло Чигрин,1989,Yes,Wraps,SBD
2,Vadim Shkarupa,O,94,210,220,-225,220,142.5,152.5,160,160,210,217.5,-220,217.5,597.5,100,M,Вадим Шкарупа,1992,Yes,Wraps,SBD
3,Volodymyr Ogloblin,O,100,205,215,,215,110,115,-120,115,250,260,-267.5,260,590,100,M,Володимир Оглоблін,1965,Yes,Wraps,SBD
4,Artem Rogozin,O,97,-210,-210,210,210,120,-132.5,135,135,225,232.5,237.5,237.5,582.5,100,M,Артем Рогозін,1979,Yes,Wraps,SBD
5,Anton Tomyak,O,95.5,-175,185,-195,185,130,140,145,145,210,232.5,-240,232.5,562.5,100,M,Антон Томяк,1992,Yes,Wraps,SBD
1,Dmitro Strelnikov,M1,99,140,160,165,165,120,-125,-125,120,180,185,190,190,475,100,M,Дмитро Стрельніков,1975,Yes,Wraps,SBD
1,Volodymyr Ogloblin,M3,100,205,215,,215,110,115,-120,115,250,260,-267.5,260,590,100,M,Володимир Оглоблін,1965,Yes,Wraps,SBD
1,Andriy Voloshinenko,O,110,150,165,-175,165,152.5,157.5,160,160,207.5,215,-220,215,540,110,M,Андрій Волошиненко,1980,Yes,Wraps,SBD
1,Vladislav Shevchenko,T3,118.5,260,270,-280,270,155,-165,165,165,260,280,,280,715,125,M,Владислав Шевченко,1997,Yes,Wraps,SBD
DQ,Viktor Grishechkin,J,120.3,-170,-180,-182.5,,,,,,,,,,,125,M,Віктор Гришечкін,1996,Yes,Wraps,SBD
1,Vladislav Shevchenko,O,118.5,260,270,-280,270,155,-165,165,165,260,280,,280,715,125,M,Владислав Шевченко,1997,Yes,Wraps,SBD
1,Sergiy Zhabitenko,M4,117.2,170,-190,,170,-130,130,-140,130,180,200,-220,200,500,125,M,Сергій Жабітенко,1959,Yes,Wraps,SBD
1,Anatoliy Starostenko,T2,65.2,-160,160,-170,160,110,-115,-115,110,190,200,-205,200,470,67.5,M,Анатолій Старостенко,1999,No,Wraps,SBD
1,Mykola Bilozerov,O,71.4,190,200,205,205,120,125,-130,125,230,-242.5,-242.5,230,560,75,M,Николай Белозеров,1982,No,Wraps,SBD
2,Artur Dubinin,O,71.4,170,180,-190,180,130,140,,140,200,210,220,220,540,75,M,Артур Дубінін,1987,No,Wraps,SBD
1,Oleksandr Statnik,O,82.5,230,245,255,255,-175,175,182.5,182.5,240,255,262.5,262.5,700,82.5,M,Олександр Статник,1988,No,Wraps,SBD
2,Sergiy Baranenko,O,80.3,180,192.5,205,205,140,145,150,150,190,200,210,210,565,82.5,M,Сергій Бараненко,1983,No,Wraps,SBD
3,Yevgen Konovalov,O,81.8,200,-210,-210,200,145,-150,-150,145,220,,,220,565,82.5,M,Євген Коновалов,1987,No,Wraps,SBD
1,Oleksandr Martsenyuk,J,85.1,120,130,-140,130,90,-95,-95,90,160,170,175,175,395,90,M,Олександр Марценюк,1995,No,Wraps,SBD
1,Yaroslav Litvinenko,O,89,240,255,-265,255,150,157.5,,157.5,270,-287.5,-287.5,270,682.5,90,M,Ярослав Литвиненко,1976,No,Wraps,SBD
2,Andriy Lesin,O,89.7,-240,-240,240,240,-160,160,,160,220,230,-235,230,630,90,M,Андрій Лесін,1987,No,Wraps,SBD
DQ,Grigoriy Avakyan,O,89.9,230,250,,250,-160,,,,,,,,,90,M,Григорій Авакян,1989,No,Wraps,SBD
1,Evgen Litvinenko,J,91.7,230,240,250,250,160,170,175,175,260,280,,280,705,100,M,Євген Литвиненко,1992,No,Wraps,SBD
1,Oleksandr Denisov,O,99.1,340,355,365,365,185,195,205,205,295,310,-320,310,880,100,M,Олександр Денисов,1992,No,Wraps,SBD
DQ,Mikhaylo Zhelyazkov,O,99.3,330,-340,-340,330,-190,-190,,,,,,,,100,M,Михайло Желязков,1980,No,Wraps,SBD
1,Evgen Rudeychuk,T3,107.5,230,245,-252.5,245,-185,185,190,190,260,275,,275,710,110,M,Євген Рудейчук,1998,No,Wraps,SBD
1,Stanislav Poznyak,J,103.6,-240,240,250,250,165,-175,-175,165,250,270,287.5,287.5,702.5,110,M,Станіслав Позняк,1993,No,Wraps,SBD
1,Oleksandr Kucher,O,105,240,260,280,280,215,-225,225,225,215,225,-240,225,730,110,M,Олександр Кучер,1985,No,Wraps,SBD
2,Evgen Rudeychuk,O,107.5,230,245,-252.5,245,-185,185,190,190,260,275,,275,710,110,M,Євген Рудейчук,1998,No,Wraps,SBD
3,Stanislav Poznyak,O,103.6,-240,240,250,250,165,-175,-175,165,250,270,287.5,287.5,702.5,110,M,Станіслав Позняк,1993,No,Wraps,SBD
4,Andriy Bobylev,O,109.3,240,260,-270,260,175,182.5,,182.5,260,-272.5,,260,702.5,110,M,Андрій Бобилєв,1976,No,Wraps,SBD
DQ,Oleg Cherchel,O,103.3,-220,-220,-220,,,,,,,,,,,110,M,,1978,No,Wraps,SBD
DQ,Sergiy Makarovych,O,118.7,-330,330,-340,330,-200,-200,-200,,,,,,,125,M,Сергій Макарович,1991,No,Wraps,SBD
1,Katerina Chorna,T3,56,105,112.5,-120,112.5,65,-70,70,70,110,117.5,-127.5,117.5,300,56,F,Катерина Чорна,1997,Yes,Multi-ply,SBD
1,Glib Leschenko,T3,80.1,300,315,330,330,-160,160,170,170,215,227.5,-245,227.5,727.5,82.5,M,Гліб Лещенко,1997,Yes,Multi-ply,SBD
1,Oleksiy Tkachuk,J,110,250,260,-270,260,170,-190,-190,170,250,265,280,280,710,110,M,Олексій Ткачук,1996,Yes,Multi-ply,SBD
1,Kyrylo Ostapishin,O,89.9,360,-380,380,380,-220,-220,220,220,270,285,-300,285,885,90,M,Кирило Остапішин,1985,No,Multi-ply,SBD
1,Anastasiya Trofimenko,J,47.8,,,,,45,50,-52.5,50,,,,,50,48,F,Анастасія Трофименко,1993,Yes,Raw,B
1,Oleksandra Astakhova,O,51.2,,,,,55,-57.5,57.5,57.5,,,,,57.5,52,F,Олександра Астахова,1990,Yes,Raw,B
2,Lyudmila Balakhanova,O,50.2,,,,,40,42.5,-45,42.5,,,,,42.5,52,F,Людмила Балаханова,1982,Yes,Raw,B
1,Oksana Prikhodko,O,53.4,,,,,85,90,-95,90,,,,,90,56,F,Оксана Приходько,1991,Yes,Raw,B
2,Nadiya Bilanchuk,O,55.6,,,,,45,52.5,55,55,,,,,55,56,F,Надія Біланчук,1989,Yes,Raw,B
3,Lyana Yakimenko,O,55.1,,,,,45,-50,-50,45,,,,,45,56,F,Ляна Якименко,1992,Yes,Raw,B
4,Bogdana Korogid,O,53.7,,,,,35,37.5,40,40,,,,,40,56,F,Богдана Корогид,1990,Yes,Raw,B
1,Olena Lysenko,M1,54.2,,,,,70,75,-77.5,75,,,,,75,56,F,Олена Лисенко,1975,Yes,Raw,B
1,Valeriya Chernyavska,J,59.3,,,,,55,60,-65,60,,,,,60,60,F,Валерія Чернявська,1996,Yes,Raw,B
1,Daryna Prysyazhna,O,56.1,,,,,67.5,-70,70,70,,,,,70,60,F,Дарина Присяжна,1989,Yes,Raw,B
2,Yanina Karpeeva,O,59.5,,,,,65,70,-72.5,70,,,,,70,60,F,Яніна Карпєєва,1980,Yes,Raw,B
3,Dina Eremeeva,O,59,,,,,20,-25,25,25,,,,,25,60,F,Діна Єремеєва,1985,Yes,Raw,B
DQ,Evgeniya Chepurnenko,O,58.3,,,,,-65,-65,-65,,,,,,,60,F,Євгенія Чепурненко,1978,Yes,Raw,B
1,Yana Yonenko,T2,66.2,,,,,55,60,62.5,62.5,,,,,62.5,67.5,F,Яна Йоненко,1999,Yes,Raw,B
1,Irina Koropets,O,67.5,,,,,70,72.5,-77.5,72.5,,,,,72.5,67.5,F,Ірина Коропець,1981,Yes,Raw,B
1,Darya Kryuchkova,O,73.5,,,,,40,45,50,50,,,,,50,75,F,Дарья Крючкова,1992,Yes,Raw,B
1,Volodymyr Tyutyushkin,T1,59.6,,,,,-100,-100,100,100,,,,,100,60,M,Володимир Тютюшкін,2001,Yes,Raw,B
1,Oleksandr Sitko,T2,58.2,,,,,-75,75,80,80,,,,,80,60,M,Олександр Ситько,1999,Yes,Raw,B
2,Kirilo Khristus,T2,59.8,,,,,70,75,80,80,,,,,80,60,M,Кирило Христусь,1999,Yes,Raw,B
1,Oleksandr Sitko,O,58.2,,,,,-75,75,80,80,,,,,80,60,M,Олександр Ситько,1999,Yes,Raw,B
1,Yegor Kurochkin,T2,64,,,,,75,80,85,85,,,,,85,67.5,M,Єгор Курочкін,1999,Yes,Raw,B
2,Andriy Ivanov,T2,65.8,,,,,55,60,65,65,,,,,65,67.5,M,Андрій Іванов,2000,Yes,Raw,B
1,Illya Antonenko,T3,66.6,,,,,100,107.5,110,110,,,,,110,67.5,M,Ілля Антоненко,1997,Yes,Raw,B
2,Nazariy Benovskiy,T3,61.9,,,,,65,75,-85,75,,,,,75,67.5,M,Назарій Беновський,1998,Yes,Raw,B
1,Nazar Zagrichuk,J,64.6,,,,,-140,140,145,145,,,,,145,67.5,M,Назар Загричук,1994,Yes,Raw,B
2,Vitaliy Khmara,J,65.9,,,,,120,130,-142.5,130,,,,,130,67.5,M,Віталій Хмара,1993,Yes,Raw,B
1,Illya Antonenko,O,66.6,,,,,100,107.5,110,110,,,,,110,67.5,M,Ілля Антоненко,1997,Yes,Raw,B
1,Evgen Bobchenko,T2,74.5,,,,,105,110,115,115,,,,,115,75,M,Євген Бобченко,1999,Yes,Raw,B
2,Igor Shulga,T2,72.8,,,,,-90,-95,95,95,,,,,95,75,M,Ігор Шульга,1999,Yes,Raw,B
1,Illya Marchenko,T3,72.4,,,,,115,120,-125,120,,,,,120,75,M,Ілля Марченко,1998,Yes,Raw,B
2,Evgen Sokolenko,T3,75,,,,,110,117.5,120,120,,,,,120,75,M,Євген Соколенко,1997,Yes,Raw,B
3,Miroslav Dryagin,T3,69,,,,,112.5,-117.5,-117.5,112.5,,,,,112.5,75,M,Мирослав Дрягін,1997,Yes,Raw,B
DD,Yevgen Tymko,T3,72.6,,,,,-162.5,-162.5,-162.5,,,,,,,75,M,Євген Тимко,1996,Yes,Raw,B
1,Viktor Kalynovskyy,J,74,,,,,175,185,190,190,,,,,190,75,M,Віктор Калиновський,1995,Yes,Raw,B
2,Oleksiy Gonchar,J,72.9,,,,,130,137.5,142.5,142.5,,,,,142.5,75,M,Олексій Гончар,1993,Yes,Raw,B
3,Valeriy Makarchuk,J,71.9,,,,,130,135,-140,135,,,,,135,75,M,Валерій Макарчук,1992,Yes,Raw,B
1,Viktor Kalynovskyy,O,74,,,,,175,185,190,190,,,,,190,75,M,Віктор Калиновський,1995,Yes,Raw,B
2,Stanislav Khaitov,O,73.8,,,,,150,160,165,165,,,,,165,75,M,Станіслав Хаїтов,1990,Yes,Raw,B
3,Vadim Marinich,O,75,,,,,150,155,160,160,,,,,160,75,M,Вадим Маринич,1981,Yes,Raw,B
4,Oleksandr Tyurnikov,O,73.5,,,,,125,130,-135,130,,,,,130,75,M,Олександр Тюрников,1983,Yes,Raw,B
5,Oleksiy Pitsenko,O,75,,,,,125,-130,130,130,,,,,130,75,M,Олексій Піценко,1986,Yes,Raw,B
6,Sergiy Grushin,O,71.9,,,,,115,122.5,-130,122.5,,,,,122.5,75,M,Сергій Грушин,1990,Yes,Raw,B
7,Miroslav Dryagin,O,69,,,,,112.5,-117.5,-117.5,112.5,,,,,112.5,75,M,Мирослав Дрягін,1997,Yes,Raw,B
DQ,Mikola Sedov,O,74.6,,,,,-142.5,-142.5,-142.5,,,,,,,75,M,Микола Сєдов,1984,Yes,Raw,B
1,Oleksiy Kuznetsov,T2,80.5,,,,,112.5,117.5,-122.5,117.5,,,,,117.5,82.5,M,Олексій Кузнецов,1999,Yes,Raw,B
1,Maksim Guzinov,J,78.7,,,,,150,155,160,160,,,,,160,82.5,M,Максим Гузинов,1994,Yes,Raw,B
1,Sergiy Schur,O,82,,,,,190,200,205,205,,,,,205,82.5,M,Сергій Щур,1989,Yes,Raw,B
2,Evgen Boyko,O,82,,,,,165,170,172.5,172.5,,,,,172.5,82.5,M,Євген Бойко,1988,Yes,Raw,B
3,Ivan Krivoshey,O,80.9,,,,,160,165,-170,165,,,,,165,82.5,M,Іван Кривошей,1983,Yes,Raw,B
4,Yaroslav Telker,O,82.3,,,,,-162.5,162.5,-167.5,162.5,,,,,162.5,82.5,M,Ярослав Телькер,1988,Yes,Raw,B
5,Maksim Guzinov,O,78.7,,,,,150,155,160,160,,,,,160,82.5,M,Максим Гузинов,1994,Yes,Raw,B
6,Taras Smachilo,O,79.8,,,,,-135,-140,140,140,,,,,140,82.5,M,Тарас Смачило,1987,Yes,Raw,B
7,Sergiy Meletenko,O,82.1,,,,,-125,130,-140,130,,,,,130,82.5,M,Сергій Мелетенко,1978,Yes,Raw,B
8,Oleksandr Chuprin,O,80.6,,,,,117.5,125,-132.5,125,,,,,125,82.5,M,Олександр Чуприн,1987,Yes,Raw,B
9,Sergiy Mazur,O,81.8,,,,,120,-135,-145,120,,,,,120,82.5,M,Сергій Мазур,1981,Yes,Raw,B
1,Mykola Popov,M5,79.9,,,,,90,-100,-100,90,,,,,90,82.5,M,Микола Попов,1954,Yes,Raw,B
1,Valeriy Melnichenko,T3,89.8,,,,,115,125,-135,125,,,,,125,90,M,Валерий Мельниченко,1998,Yes,Raw,B
1,Pavlo Yablonskiy,J,89.2,,,,,140,150,152.5,152.5,,,,,152.5,90,M,Павло Яблонський,1993,Yes,Raw,B
2,Oleksiy Parnak,J,87.6,,,,,140,145,150,150,,,,,150,90,M,Олексій Парнак,1993,Yes,Raw,B
1,Oleksandr Kovalenko,O,86.7,,,,,205,210,-212.5,210,,,,,210,90,M,Олександр Коваленко,1991,Yes,Raw,B
2,Andriy Yuris,O,90,,,,,150,160,-162.5,160,,,,,160,90,M,Андрій Юріс,1981,Yes,Raw,B
3,Dmitro Bogomaz,O,84.8,,,,,127.5,132.5,137.5,137.5,,,,,137.5,90,M,Дмитро Богомаз,1990,Yes,Raw,B
1,Vyacheslav Ukhovskiy,M1,89,,,,,140,150,152.5,152.5,,,,,152.5,90,M,В'ячеслав Уховський,1974,Yes,Raw,B
2,Oleksandr Sidorenko,M1,89.1,,,,,120,127.5,132.5,132.5,,,,,132.5,90,M,Олександр Сидоренко,1976,Yes,Raw,B
1,Andriy Vasylenko,M2,88.9,,,,,160,165,170,170,,,,,170,90,M,Андрій Василенко,1968,Yes,Raw,B
1,Danilo Lopatin,T3,96.8,,,,,160,-167.5,-167.56,160,,,,,160,100,M,Данило Лопатін,1997,Yes,Raw,B
1,Mykola Shataylo,J,96,,,,,150,155,157.5,157.5,,,,,157.5,100,M,Микола Шатайло,1994,Yes,Raw,B
2,Maksim Omelchenko,J,98.7,,,,,155,-167.5,-167.5,155,,,,,155,100,M,Максим Омельченко,1996,Yes,Raw,B
1,V'Yacheslav Telyura,O,100,,,,,180,187.5,-190,187.5,,,,,187.5,100,M,В'ячеслав Телюра,1967,Yes,Raw,B
2,Oleksandr Reva,O,95.3,,,,,175,182.5,-190,182.5,,,,,182.5,100,M,Олександр Рева,1982,Yes,Raw,B
3,Sergiy Kafilinos,O,96.4,,,,,167.5,180,-190,180,,,,,180,100,M,Сергій Кафілінос,1977,Yes,Raw,B
4,Stanislav Smolyanyk,O,97.7,,,,,170,177.5,-182.5,177.5,,,,,177.5,100,M,Станіслав Смоляник,1989,Yes,Raw,B
5,Gennadiy Larin,O,100,,,,,155,170,-175,170,,,,,170,100,M,Геннадій Ларін,1973,Yes,Raw,B
6,Sergiy Yuris,O,95.9,,,,,160,-167.5,167.5,167.5,,,,,167.5,100,M,Сергій Юріс,1981,Yes,Raw,B
7,Oleg Abashin,O,99.1,,,,,152.5,167.5,-172.5,167.5,,,,,167.5,100,M,Олег Абашин,1990,Yes,Raw,B
8,Yuriy Ivonin,O,94.4,,,,,150,160,-167.5,160,,,,,160,100,M,Юрій Івонін,1976,Yes,Raw,B
9,Volodimir Moskalenko,O,97.8,,,,,145,152.5,-157.5,152.5,,,,,152.5,100,M,Володимир Москаленко,1988,Yes,Raw,B
1,Gennadiy Larin,M1,100,,,,,155,170,-175,170,,,,,170,100,M,Геннадій Ларін,1973,Yes,Raw,B
2,Dmitro Strelnikov,M1,99,,,,,120,-125,-125,120,,,,,120,100,M,Дмитро Стрельніков,1975,Yes,Raw,B
1,V'Yacheslav Telyura,M2,100,,,,,180,187.5,-190,187.5,,,,,187.5,100,M,В'ячеслав Телюра,1967,Yes,Raw,B
1,Igor Ischuk,O,110,,,,,185,195,200,200,,,,,200,110,M,Ігор Іщук,1984,Yes,Raw,B
2,Vladyslav Borys,O,105,,,,,-180,,182.5,182.5,,,,,182.5,110,M,Владислав Борис,1988,Yes,Raw,B
3,Aleksandr Sukhomlin,O,105.9,,,,,175,-182.5,182.5,182.5,,,,,182.5,110,M,Александр Сухомлин,1989,Yes,Raw,B
4,Yevgen Godyna,O,107.5,,,,,-180,180,-190,180,,,,,180,110,M,Євген Година,1987,Yes,Raw,B
5,Andriy Voloshinenko,O,110,,,,,152.5,157.5,160,160,,,,,160,110,M,Андрій Волошиненко,1980,Yes,Raw,B
1,Mikhaylo Korolev,M1,109.9,,,,,110,117.5,125,125,,,,,125,110,M,Михайло Корольов,1975,Yes,Raw,B
1,Oleksandr Tertichniy,M2,108.7,,,,,180,185,190,190,,,,,190,110,M,Олександр Тертичний,1968,Yes,Raw,B
1,Anatoliy Tiroshko,M3,106.4,,,,,140,145,150,150,,,,,150,110,M,Анатолій Тирошко,1966,Yes,Raw,B
1,Vladislav Shevchenko,T3,118.5,,,,,155,-165,165,165,,,,,165,125,M,Владислав Шевченко,1997,Yes,Raw,B
1,Dmytro Gosman,J,121.8,,,,,185,195,-200,195,,,,,195,125,M,Дмитро Госман,1993,Yes,Raw,B
1,Evgen Napryaglo,O,118.8,,,,,235,-242.5,242.5,242.5,,,,,242.5,125,M,Євген Напрягло,1983,Yes,Raw,B
2,Dmitro Malchenko,O,125,,,,,175,-182.5,-182.5,175,,,,,175,125,M,Дмитро Мальченко,1983,Yes,Raw,B
3,Vladislav Shevchenko,O,118.5,,,,,155,-165,165,165,,,,,165,125,M,Владислав Шевченко,1997,Yes,Raw,B
1,Vitaliy Markheva,M1,111.9,,,,,130,140,-150,140,,,,,140,125,M,Віталій Мархева,1974,Yes,Raw,B
1,Olga Maevska,M2,73,,,,,30,-35,35,35,,,,,35,75,F,Ольга Маевська,1968,No,Raw,B
1,Maxim Novychenko,J,40.6,,,,,110,117.5,120,120,,,,,120,52,M,Максим Новыченко,1993,No,Raw,B
1,Maxim Novychenko,O,40.6,,,,,110,117.5,120,120,,,,,120,52,M,Максим Новыченко,1993,No,Raw,B
1,Oleksandr Zhariy,M1,63,,,,,120,125,-130,125,,,,,125,67.5,M,Олександр Жарий,1972,No,Raw,B
1,Oleksandr Chernets,O,75,,,,,170,180,192.5,192.5,,,,,192.5,75,M,Олександр Чернець,1991,No,Raw,B
2,Andriy Kudryavtsev,O,71.7,,,,,140,150,-160,150,,,,,150,75,M,Андрій Кудрявцев,1974,No,Raw,B
1,Andriy Kudryavtsev,M1,71.7,,,,,140,150,-160,150,,,,,150,75,M,Андрій Кудрявцев,1974,No,Raw,B
1,Oleksandr Sydorenko,T3,79.1,,,,,165,177.5,-180,177.5,,,,,177.5,82.5,M,Олександр Сидоренко,1997,No,Raw,B
1,Yuriy Osadchenko,O,82.1,,,,,160,170,175,175,,,,,175,82.5,M,Юрій Осадченко,1961,No,Raw,B
1,Yuriy Osadchenko,M4,82.1,,,,,160,170,175,175,,,,,175,82.5,M,Юрій Осадченко,1961,No,Raw,B
1,Valentin Dzhumaylo,J,89.6,,,,,210,220,-225,220,,,,,220,90,M,Валентин Джумайло,1993,No,Raw,B
1,Aleksandr Scherbakov,O,90,,,,,200,212.5,225,225,,,,,225,90,M,,1966,No,Raw,B
2,Roman Plakhotnyuk,O,88.8,,,,,205,212.5,-225,212.5,,,,,212.5,90,M,Роман Плахотнюк,1986,No,Raw,B
1,Aleksandr Scherbakov,M3,90,,,,,200,212.5,225,225,,,,,225,90,M,,1966,No,Raw,B
1,Oleksandr Mironov,O,97.7,,,,,160,-170,175,175,,,,,175,100,M,Олександр Міронов,1985,No,Raw,B
2,Igor Veretyuk,O,99.5,,,,,165,-172.5,172.5,172.5,,,,,172.5,100,M,Ігор Веретюк,1989,No,Raw,B
3,Artem Kvashnin,O,97.8,,,,,150,160,170,170,,,,,170,100,M,Артем Квашнін,1985,No,Raw,B
DQ,Ruslan Sidorenko,O,97.3,,,,,-205,-205,-205,,,,,,,100,M,Руслан Сидоренко,1987,No,Raw,B
1,Sergiy Erofeev,M1,91.3,,,,,160,175,180,180,,,,,180,100,M,Сергій Єрофєєв,1974,No,Raw,B
1,Egor Polomoshnov,O,101,,,,,210,220,227.5,227.5,,,,,227.5,110,M,Єгор Поломошнов,1980,No,Raw,B
2,Artem Medvedev,O,102.5,,,,,165,175,-180,175,,,,,175,110,M,Артем Медведєв,1990,No,Raw,B
3,Viktor Kurochkin,O,104,,,,,130,135,137.5,137.5,,,,,137.5,110,M,Віктор Курочкін,1955,No,Raw,B
1,Oleksandr Kostyrya,M3,108.8,,,,,170,180,-182.5,180,,,,,180,110,M,Олександр Костиря,1963,No,Raw,B
1,Viktor Kurochkin,M5,104,,,,,130,135,137.5,137.5,,,,,137.5,110,M,Віктор Курочкін,1955,No,Raw,B
1,Artem Nikitenko,O,133,,,,,270,280,-285,280,,,,,280,140,M,Артем Никитенко,1991,No,Raw,B
2,Ruslan Matveev,O,126.3,,,,,162.5,167.5,-172.5,167.5,,,,,167.5,140,M,Руслан Матвеєв,1972,No,Raw,B
1,Ruslan Matveev,M1,126.3,,,,,162.5,167.5,-172.5,167.5,,,,,167.5,140,M,Руслан Матвеєв,1972,No,Raw,B
1,Artem Pridatko,O,82.4,,,,,-150,150,160,160,,,,,160,82.5,M,Артем Придатко,1989,Yes,Multi-ply,B
1,Borys Kovbasyuk,M2,98.5,,,,,220,-240,240,240,,,,,240,100,M,Борис Ковбасюк,1966,Yes,Multi-ply,B
1,Vladislav Gurtovenko,J,102.5,,,,,-225,225,-235,225,,,,,225,110,M,Владислав Гуртовенко,1995,Yes,Multi-ply,B
1,Irina Nikolaenko,O,67.5,,,,,-90,95,100,100,,,,,100,67.5,F,Ірина Ніколаєнко,1979,No,Multi-ply,B
1,Sergiy Naleykin,O,78.2,,,,,260,270,-280,270,,,,,270,82.5,M,Сергій Налейкін,1981,No,Multi-ply,B
1,Volodymyr Pinchuk,T2,87.8,,,,,-190,190,-200,190,,,,,190,90,M,Володимир Пінчук,1999,No,Multi-ply,B
DQ,Rostislav Lepekha,J,88.9,,,,,-220,-220,,,,,,,,90,M,Ростислав Лепеха,1993,No,Multi-ply,B
DQ,Sergiy Ivanov,O,105.9,,,,,-340,-340,-340,,,,,,,110,M,Сергій Іванов,1990,No,Multi-ply,B
1,Yevgen Savchenko,O,114.5,,,,,360,-370,-382.5,360,,,,,360,125,M,Євген Савченко,1989,No,Multi-ply,B
2,Stanislav Nikolaenko,O,116.2,,,,,-280,280,295,295,,,,,295,125,M,Станіслав Ніколаєнко,1978,No,Multi-ply,B
3,Andriy Lomnitskiy,O,119.5,,,,,270,280,-290,280,,,,,280,125,M,Андрій Ломницький,1980,No,Multi-ply,B
1,Anna Nichiporuk,T3,48,,,,,,,,,-110,110,115,115,115,48,F,Анна Ничипорук,1996,Yes,Raw,D
1,Mariya Filonova,T2,50.5,,,,,,,,,85,-95,95,95,95,52,F,Марія Філонова,1999,Yes,Raw,D
1,Tetyana Sharkova,T3,51,,,,,,,,,105,110,115,115,115,52,F,Тетяна Шаркова,1997,Yes,Raw,D
1,Oleksandra Astakhova,O,51.5,,,,,,,,,110,115,-120,115,115,52,F,Олександра Астахова,1990,Yes,Raw,D
2,Evgeniya Rubanova,O,51.9,,,,,,,,,90,100,-110,100,100,52,F,Євгенія Рубанова,1990,Yes,Raw,D
1,Oksana Prikhodko,O,53.4,,,,,,,,,150,157.5,-162.5,157.5,157.5,56,F,Оксана Приходько,1991,Yes,Raw,D
2,Nadiya Bilanchuk,O,55.6,,,,,,,,,100,112.5,115,115,115,56,F,Надія Біланчук,1989,Yes,Raw,D
3,Yuliya Dovgal,O,55.9,,,,,,,,,100,110,112.5,112.5,112.5,56,F,Юлія Довгаль,1986,Yes,Raw,D
4,Lyana Yakimenko,O,55.1,,,,,,,,,75,-80,-80,75,75,56,F,Ляна Якименко,1992,Yes,Raw,D
1,Tamara Bichevaya,J,58.2,,,,,,,,,105,115,120,120,120,60,F,Тамара Бічевая,1995,Yes,Raw,D
1,Natalya Kravchenko,O,58.5,,,,,,,,,125,130,135,135,135,60,F,Наталья Кравченко,1977,Yes,Raw,D
2,Anastasiya Karpenko,O,60,,,,,,,,,115,120,125,125,125,60,F,Анастасія Карпенко,1990,Yes,Raw,D
3,Dina Erofeeva,O,59,,,,,,,,,40,50,55,55,55,60,F,Діна Єрофеєва,1985,Yes,Raw,D
1,Yana Yonenko,T2,66.2,,,,,,,,,130,135,,135,135,67.5,F,Яна Йоненко,1999,Yes,Raw,D
1,Yuliya Zhuravel,O,64.6,,,,,,,,,120,130,135,135,135,67.5,F,Юлія Журавель,1982,Yes,Raw,D
1,Zoya Timko,O,73,,,,,,,,,130,140,142.5,142.5,142.5,75,F,Зоя Тимко,1978,Yes,Raw,D
1,Igor Zaplatin,T1,63,,,,,,,,,80,85,90,90,90,67.5,M,Ігор Заплатін,2001,Yes,Raw,D
1,Andriy Ivanov,T2,65.8,,,,,,,,,100,110,120,120,120,67.5,M,Андрій Іванов,2000,Yes,Raw,D
1,Illya Antonenko,T3,66.6,,,,,,,,,160,,-162.5,160,160,67.5,M,Ілля Антоненко,1997,Yes,Raw,D
2,Vladislav Bondar,T3,66,,,,,,,,,120,125,130,130,130,67.5,M,Владислав Бондар,1998,Yes,Raw,D
1,Yaroslav Fartushniy,J,65.5,,,,,,,,,150,165,-190,165,165,67.5,M,Ярослав Фартушний,1994,Yes,Raw,D
1,Taras Avramenko,T2,73.2,,,,,,,,,140,-150,-150,140,140,75,M,Тарас Авраменко,2000,Yes,Raw,D
1,Illya Marchenko,T3,72.4,,,,,,,,,190,202.5,210,210,210,75,M,Ілля Марченко,1998,Yes,Raw,D
2,Yuriy Garkusha,T3,73.9,,,,,,,,,200,210,-215,210,210,75,M,Юрий Гаркуша,1998,Yes,Raw,D
3,Eduard Buyan,T3,70.7,,,,,,,,,170,177.5,-180,177.5,177.5,75,M,Едуард Буян,1998,Yes,Raw,D
DQ,Volodymyr Mavrenkov,T3,73.1,,,,,,,,,-170,,,,,75,M,Володимир Мавренков,1997,Yes,Raw,D
1,Denys Martynyuk,J,72.5,,,,,,,,,180,-190,,180,180,75,M,Денис Мартинюк,1995,Yes,Raw,D
DQ,Vladislav Daneykin,J,73.8,,,,,,,,,-160,-160,-160,,,75,M,Владислав Данейкін,1994,Yes,Raw,D
1,Vadim Marinich,O,75,,,,,,,,,215,220,232.5,232.5,232.5,75,M,Вадим Маринич,1981,Yes,Raw,D
2,Borys Novoselov,O,71.9,,,,,,,,,190,205,217.5,217.5,217.5,75,M,Борис Новосьолов,1992,Yes,Raw,D
3,Illya Marchenko,O,72.4,,,,,,,,,190,202.5,210,210,210,75,M,Ілля Марченко,1998,Yes,Raw,D
4,Dmitro Mischenko,O,73.6,,,,,,,,,160,-170,-170,160,160,75,M,Дмитро Міщенко,1992,Yes,Raw,D
1,Aleksandr Pashkovets,T3,79.8,,,,,,,,,225,230,-245,230,230,82.5,M,Александр Пашковец,1997,Yes,Raw,D
2,Vladislav Fartushniy,T3,79.1,,,,,,,,,200,215,-225,215,215,82.5,M,Владислав Фартушний,1997,Yes,Raw,D
3,Nikita Filonenko,T3,81.2,,,,,,,,,190,205,-215,205,205,82.5,M,Нікіта Філоненко,1998,Yes,Raw,D
1,Yevgeniy Kalko,J,76.1,,,,,,,,,240,250,-255,250,250,82.5,M,Євгеній Калько,1993,Yes,Raw,D
2,Anton Khandusenko,J,80.9,,,,,,,,,-205,215,-222.5,215,215,82.5,M,Антон Хандусенко,1993,Yes,Raw,D
1,Yevgeniy Kalko,O,76.1,,,,,,,,,240,250,-255,250,250,82.5,M,Євгеній Калько,1993,Yes,Raw,D
2,Oleksandr Yatsenko,O,80.4,,,,,,,,,225,235,-240,235,235,82.5,M,Олександр Яценко,1981,Yes,Raw,D
3,Anton Khandusenko,O,80.9,,,,,,,,,-205,215,-222.5,215,215,82.5,M,Антон Хандусенко,1993,Yes,Raw,D
4,Sergiy Mazur,O,81.8,,,,,,,,,215,-230,-230,215,215,82.5,M,Сергій Мазур,1981,Yes,Raw,D
5,Sergiy Meletenko,O,82.1,,,,,,,,,185,-200,-200,185,185,82.5,M,Сергій Мелетенко,1978,Yes,Raw,D
1,Dmytro Vorobey,O,87.3,,,,,,,,,240,-260,-260,240,240,90,M,Дмитро Воробей,1988,Yes,Raw,D
2,Ivan Galchenko,O,83.9,,,,,,,,,210,225,230,230,230,90,M,Іван Гальченко,1991,Yes,Raw,D
3,Dmitro Bogomaz,O,84.8,,,,,,,,,197.5,207.5,217.5,217.5,217.5,90,M,Дмитро Богомаз,1990,Yes,Raw,D
1,Volodymyr Ogloblin,O,100,,,,,,,,,250,260,-267.5,260,260,100,M,Володимир Оглоблін,1965,Yes,Raw,D
2,Pavlo Chygryn,O,91.7,,,,,,,,,240,255,-267.5,255,255,100,M,Павло Чигрин,1989,Yes,Raw,D
3,Anton Tomyak,O,95.5,,,,,,,,,210,232.5,-240,232.5,232.5,100,M,Антон Томяк,1992,Yes,Raw,D
1,Dmitro Strelnikov,M1,99,,,,,,,,,180,185,190,190,190,100,M,Дмитро Стрельніков,1975,Yes,Raw,D
1,Volodymyr Ogloblin,M3,91.7,,,,,,,,,250,260,-267.5,260,260,100,M,Володимир Оглоблін,1965,Yes,Raw,D
1,Yevgen Godyna,O,107.5,,,,,,,,,240,250,260,260,260,110,M,Євген Година,1987,Yes,Raw,D
2,Andriy Voloshinenko,O,110,,,,,,,,,207.5,215,-220,215,215,110,M,Андрій Волошиненко,1980,Yes,Raw,D
1,Vladislav Shevchenko,T3,118.5,,,,,,,,,270,280,,280,280,125,M,Владислав Шевченко,1997,Yes,Raw,D
1,Vladislav Shevchenko,O,118.5,,,,,,,,,270,280,,280,280,125,M,Владислав Шевченко,1997,Yes,Raw,D
1,Sergiy Zhabitenko,M4,117.2,,,,,,,,,180,200,-220,200,200,125,M,Сергій Жабітенко,1959,Yes,Raw,D
1,Andriy Boyko,J,71,,,,,,,,,170,185,-200,185,185,75,M,Андрій Бойко,1993,No,Raw,D
1,Mykola Bilozerov,O,71.4,,,,,,,,,230,-242.5,-242.5,230,230,75,M,Николай Белозеров,1982,No,Raw,D
2,Andriy Boyko,O,71,,,,,,,,,170,185,-200,185,185,75,M,Андрій Бойко,1993,No,Raw,D
1,Yevgen Konovalov,O,81.8,,,,,,,,,220,,,220,220,82.5,M,Євген Коновалов,1987,No,Raw,D
1,Pavlo Ischenko,O,89.9,,,,,,,,,272.5,282.5,297.5,297.5,297.5,90,M,Павло Іщенко,1991,No,Raw,D
2,Yaroslav Litvinenko,O,89,,,,,,,,,270,-287.5,-287.5,270,270,90,M,Ярослав Литвиненко,1976,No,Raw,D
3,Dmitro Kukharenko,O,88.4,,,,,,,,,230,240,250,250,250,90,M,Дмитро Кухаренко,1991,No,Raw,D
1,Artemiy Papin,J,96.2,,,,,,,,,275,300,305,305,305,100,M,Артемій Папін,1994,No,Raw,D
1,Mikhaylo Zhelyazkov,O,99.3,,,,,,,,,300,310,320,320,320,100,M,Михайло Желязков,1980,No,Raw,D
2,Artemiy Papin,O,96.2,,,,,,,,,275,300,305,305,305,100,M,Артемій Папін,1994,No,Raw,D
3,Oleg Yanovych,O,92.7,,,,,,,,,260,270,280,280,280,100,M,Олег Янович,1992,No,Raw,D
4,Igor Veretyuk,O,99.5,,,,,,,,,230,240,242.5,242.5,242.5,100,M,Ігор Веретюк,1989,No,Raw,D
5,Artem Kvashnin,O,97.8,,,,,,,,,210,230,-245,230,230,100,M,Артем Квашнін,1985,No,Raw,D
1,Artem Medvedev,O,102.5,,,,,,,,,235,250,-260,250,250,110,M,Артем Медведєв,1990,No,Raw,D
1,Vladislav Krivokonev,O,130.5,,,,,,,,,345,365,-400,365,365,140,M,Владислав Кривоконєв,1988,No,Raw,D
