Division,WeightClassKg,Place,Name,Team,BodyweightKg,Best3SquatKg,Best3BenchKg,Best3DeadliftKg,TotalKg,Equipment,Event,Sex
Boys,51.71,1,Jose Sanchez,Gilmer,48.53,140.61,79.38,133.81,353.8,Single-ply,SBD,M
Boys,51.71,2,Pablo Gutierrez,Mount Pleasant,49.21,113.4,68.04,136.08,317.51,Single-ply,SBD,M
Boys,51.71,3,Alex Rodriguez,Sulphur Springs,51.71,113.4,63.5,129.27,306.17,Single-ply,SBD,M
Boys,51.71,4,Oscar Yanez,Sulphur Springs,51.71,106.59,63.5,120.2,290.3,Single-ply,SBD,M
Boys,51.71,5,Corbin Strain,Pattonville Prairiland,51.71,92.99,61.23,102.06,256.28,Single-ply,SBD,M
Boys,51.71,6,Keldon May,Pattonville Prairiland,50.8,74.84,58.97,97.52,231.33,Single-ply,SBD,M
Boys,51.71,DQ,Deuntre Adamson,Paris,48.31,,,,,Single-ply,SBD,M
Boys,55.79,1,Richard Lowrie,Kemp,55.57,174.63,104.33,170.1,449.06,Single-ply,SBD,M
Boys,55.79,2,Nate Mendoza,Kemp,54.88,136.08,70.31,156.49,362.87,Single-ply,SBD,M
Boys,55.79,3,Evelio Mendoza,Gilmer,55.79,133.81,65.77,140.61,340.19,Single-ply,SBD,M
Boys,55.79,4,Carl Shehane,Quinlan Ford,54.88,142.88,70.31,113.4,326.59,Single-ply,SBD,M
Boys,55.79,5,Preston Booker,Honey Grove,53.52,120.2,65.77,138.35,324.32,Single-ply,SBD,M
Boys,55.79,6,Juan Castanon,Mount Pleasant,55.79,113.4,58.97,136.08,308.44,Single-ply,SBD,M
Boys,55.79,7,Dwight Cook,Gilmer Union Hill,55.11,104.33,58.97,138.35,301.64,Single-ply,SBD,M
Boys,55.79,8,Caleb Ashley,Paris Chisum,53.52,102.06,72.57,120.2,294.84,Single-ply,SBD,M
Boys,55.79,9,Colby Connelly,Honey Grove,54.66,99.79,52.16,111.13,263.08,Single-ply,SBD,M
Boys,55.79,10,Jesse Ortiz,Quinlan Ford,55.79,88.45,45.36,104.33,238.14,Single-ply,SBD,M
Boys,59.87,1,Christian Contreras,Greenville,59.42,181.44,106.59,163.29,451.32,Single-ply,SBD,M
Boys,59.87,2,James Fisher,Texarkana Texas,56.7,151.95,81.65,158.76,392.36,Single-ply,SBD,M
Boys,59.87,3,Daniel Landaverde,Mount Pleasant,58.06,131.54,83.91,165.56,381.02,Single-ply,SBD,M
Boys,59.87,4,Langdon Bautista,Quitman,59.53,131.54,81.65,158.76,371.95,Single-ply,SBD,M
Boys,59.87,5,Cason Goodson,Sulphur Springs,59.87,147.42,74.84,147.42,369.68,Single-ply,SBD,M
Boys,59.87,6,Keiotti Bray,Paris,56.93,147.42,83.91,124.74,356.07,Single-ply,SBD,M
Boys,59.87,7,River Chaney,Quitman,59.31,131.54,72.57,147.42,351.53,Single-ply,SBD,M
Boys,59.87,8,Robert Salorzano,Greenville,59.42,131.54,72.57,136.08,340.19,Single-ply,SBD,M
Boys,59.87,9,Trey Corbett,Honey Grove,57.61,124.74,52.16,149.69,326.59,Single-ply,SBD,M
Boys,59.87,10,Rigo Herrera,Van,58.97,117.93,70.31,136.08,324.32,Single-ply,SBD,M
Boys,59.87,11,Haydan Keller,Sulphur Springs,59.87,111.13,74.84,127.01,312.98,Single-ply,SBD,M
Boys,59.87,12,Cesar Leija,Bogata Rivercrest,58.06,102.06,65.77,136.08,303.91,Single-ply,SBD,M
Boys,67.13,1,Andrew Magedson,Greenville,66.68,215.46,108.86,215.46,539.77,Single-ply,SBD,M
Boys,67.13,2,Dakota Vanderburg,Paris Chisum,65.09,183.7,102.06,176.9,462.66,Single-ply,SBD,M
Boys,67.13,3,Tristen Martin,Rockwall-Heath,67.13,181.44,106.59,165.56,453.59,Single-ply,SBD,M
Boys,67.13,4,Garrett Davis,Quinlan Ford,61.01,181.44,95.25,167.83,444.52,Single-ply,SBD,M
Boys,67.13,5,Sean Collins,Gilmer,66.9,185.97,97.52,158.76,442.25,Single-ply,SBD,M
Boys,67.13,6,Christian Garcia,Emory Rains,66.9,165.56,90.72,181.44,437.72,Single-ply,SBD,M
Boys,67.13,7,Zach Wilson,Kemp,65.77,149.69,97.52,183.7,430.91,Single-ply,SBD,M
Boys,67.13,8,Ahmad Johnson,Greenville,64.41,158.76,90.72,154.22,403.7,Single-ply,SBD,M
Boys,67.13,9,Lukas Enloe,Gilmer,66.9,156.49,88.45,158.76,403.7,Single-ply,SBD,M
Boys,67.13,10,George Greenway,Sulphur Springs,67.13,156.49,83.91,163.29,403.7,Single-ply,SBD,M
Boys,67.13,11,James Smith,Bogata Rivercrest,65.32,151.95,77.11,163.29,392.36,Single-ply,SBD,M
Boys,67.13,12,Myles Knudsen,Honey Grove,65.77,149.69,74.84,167.83,392.36,Single-ply,SBD,M
Boys,67.13,13,Sam Collins,Paris Chisum,66,131.54,86.18,149.69,367.41,Single-ply,SBD,M
Boys,67.13,14,Dylan McElroy,Honey Grove,60.55,129.27,72.57,142.88,344.73,Single-ply,SBD,M
Boys,67.13,15,Dylan Bell,Lone Oak,66.22,131.54,72.57,131.54,335.66,Single-ply,SBD,M
Boys,67.13,16,Jaycob Elliott,Grapeland,65.32,131.54,74.84,127.01,333.39,Single-ply,SBD,M
Boys,67.13,17,Jared Gibo,Paris,65.32,115.67,79.38,115.67,310.71,Single-ply,SBD,M
Boys,67.13,18,Oscar Munoz,Mount Pleasant,66.9,113.4,56.7,138.35,308.44,Single-ply,SBD,M
Boys,67.13,19,Rayce Briscoe,Paris Chisum,65.09,124.74,72.57,97.52,294.84,Single-ply,SBD,M
Boys,67.13,20,Bryan Perez,Grapeland,64.86,111.13,43.09,120.2,274.42,Single-ply,SBD,M
Boys,67.13,21,Johnny Knighton,Emory Rains,66.9,90.72,70.31,95.25,256.28,Single-ply,SBD,M
Boys,67.13,22,Ethan Mays,Mount Pleasant,61.69,90.72,45.36,113.4,249.48,Single-ply,SBD,M
Boys,67.13,DQ,Chris Kirby,Emory Rains,65.32,,,,,Single-ply,SBD,M
Boys,67.13,DQ,Brian Wilson,Paris Chisum,63.73,142.88,,,,Single-ply,SBD,M
Boys,74.84,1,Keidrick Reeves,Texarkana Texas,74.39,183.7,95.25,219.99,498.95,Single-ply,SBD,M
Boys,74.84,2,Travius Bronner,Paris,68.27,208.65,104.33,183.7,496.68,Single-ply,SBD,M
Boys,74.84,3,Brady Manning,Kemp,73.71,176.9,113.4,181.44,471.74,Single-ply,SBD,M
Boys,74.84,4,Carson Bridges,Sulphur Springs,73.48,163.29,99.79,195.04,458.13,Single-ply,SBD,M
Boys,74.84,5,Jaylon King,Paris,70.53,167.83,104.33,183.7,455.86,Single-ply,SBD,M
Boys,74.84,6,Jesus Perez,Mount Pleasant,71.44,176.9,88.45,181.44,446.79,Single-ply,SBD,M
Boys,74.84,7,Greg Yarbrough,Paris,68.95,158.76,81.65,197.31,437.72,Single-ply,SBD,M
Boys,74.84,8,Michael Broyles,Canton,71.67,165.56,88.45,181.44,435.45,Single-ply,SBD,M
Boys,74.84,9,Carson Barber,Gilmer,70.76,147.42,88.45,183.7,419.57,Single-ply,SBD,M
Boys,74.84,10,Trace Smith,Pattonville Prairiland,73.71,142.88,106.59,170.1,419.57,Single-ply,SBD,M
Boys,74.84,11,Garrett Hawkins,Paris Chisum,74.16,145.15,102.06,167.83,415.04,Single-ply,SBD,M
Boys,74.84,12,Emmanuel Conkleton,Texarkana Texas,68.95,136.08,99.79,170.1,405.97,Single-ply,SBD,M
Boys,74.84,13,Landry Tyson,Sulphur Springs,73.03,142.88,88.45,170.1,401.43,Single-ply,SBD,M
Boys,74.84,14,Carl Thurmond,Emory Rains,71.44,145.15,70.31,163.29,378.75,Single-ply,SBD,M
Boys,74.84,15,Nathan Siemmons,Lone Oak,70.08,165.56,74.84,136.08,376.48,Single-ply,SBD,M
Boys,74.84,16,Nicholas Graves,Texarkana Texas,74.16,136.08,88.45,147.42,371.95,Single-ply,SBD,M
Boys,74.84,17,Jake Mayham,Gilmer,72.35,138.35,81.65,149.69,369.68,Single-ply,SBD,M
Boys,74.84,18,Javicia Shepherd,Grapeland,70.31,151.95,79.38,136.08,367.41,Single-ply,SBD,M
Boys,74.84,19,Dewoine Leeks,Texarkana Texas,74.62,124.74,68.04,136.08,328.85,Single-ply,SBD,M
Boys,74.84,20,Imanol Gamez,Honey Grove,70.76,122.47,58.97,140.61,322.05,Single-ply,SBD,M
Boys,74.84,21,Holt Reese,Canton,72.35,124.74,61.23,136.08,322.05,Single-ply,SBD,M
Boys,74.84,22,Colby Underwood,Lone Oak,70.99,124.74,56.7,133.81,315.25,Single-ply,SBD,M
Boys,74.84,23,Braydon Miller,Quitman,70.76,108.86,63.5,129.27,301.64,Single-ply,SBD,M
Boys,74.84,24,Brock Braley,Honey Grove,72.57,115.67,56.7,129.27,301.64,Single-ply,SBD,M
Boys,74.84,25,Jonathon Werner,Van,74.39,142.88,70.31,,213.19,Single-ply,SB,M
Boys,74.84,26,Jayden Rodemaker,Grapeland,72.57,129.27,58.97,,188.24,Single-ply,SB,M
Boys,74.84,27,Kenny Campbell,Honey Grove,68.04,115.67,58.97,,174.63,Single-ply,SB,M
Boys,74.84,DQ,Damascus Sanders,Greenville,73.94,,,,,Single-ply,SBD,M
Boys,82.1,1,Cor'tavius Pruitt,Sulphur Springs,76.88,226.8,127.01,213.19,566.99,Single-ply,SBD,M
Boys,82.1,2,Sam Cunningham,Pattonville Prairiland,78.02,204.12,124.74,215.46,544.31,Single-ply,SBD,M
Boys,82.1,3,Jeremy Glenn,Greenville,76.2,204.12,113.4,204.12,521.63,Single-ply,SBD,M
Boys,82.1,4,Naim Diego,Emory Rains,82.1,204.12,97.52,215.46,517.1,Single-ply,SBD,M
Boys,82.1,5,Jeffery Sapp,Texarkana Texas,79.83,195.04,106.59,213.19,514.83,Single-ply,SBD,M
Boys,82.1,6,Vincent Morales,Sulphur Springs,79.83,183.7,113.4,215.46,512.56,Single-ply,SBD,M
Boys,82.1,7,Calvin Corbett,Honey Grove,78.47,181.44,95.25,215.46,492.15,Single-ply,SBD,M
Boys,82.1,8,Cameron Wisdom,Gilmer,75.75,174.63,97.52,190.51,462.66,Single-ply,SBD,M
Boys,82.1,9,Jeremy Lambert,Canton,81.19,156.49,97.52,179.17,433.18,Single-ply,SBD,M
Boys,82.1,10,Trakeci Cooper,Texarkana Texas,76.32,154.22,92.99,183.7,430.91,Single-ply,SBD,M
Boys,82.1,11,Harley Manders,Kemp,76.88,170.1,92.99,156.49,419.57,Single-ply,SBD,M
Boys,82.1,12,Jonathan Woods,Mount Pleasant,79.61,149.69,83.91,158.76,392.36,Single-ply,SBD,M
Boys,82.1,13,Jason Wiroll,Lone Oak,81.42,145.15,68.04,163.29,376.48,Single-ply,SBD,M
Boys,82.1,14,Evan Rushing,Sulphur Springs,82.1,163.29,65.77,142.88,371.95,Single-ply,SBD,M
Boys,82.1,15,Kaleb Mills,Sulphur Springs,77.11,136.08,88.45,142.88,367.41,Single-ply,SBD,M
Boys,82.1,16,Drake Walker,Van,77.56,131.54,72.57,158.76,362.87,Single-ply,SBD,M
Boys,82.1,17,Jermar Wheeler,Gilmer,80.97,142.88,61.23,154.22,358.34,Single-ply,SBD,M
Boys,82.1,18,Chris Sims,Lone Oak,79.61,129.27,68.04,158.76,356.07,Single-ply,SBD,M
Boys,82.1,19,Matthew Acton,Canton,79.61,138.35,68.04,129.27,335.66,Single-ply,SBD,M
Boys,82.1,20,Drake Wooten,Honey Grove,78.93,120.2,70.31,129.27,319.78,Single-ply,SBD,M
Boys,82.1,21,Tyler Williams,Lone Oak,80.51,115.67,63.5,129.27,308.44,Single-ply,SBD,M
Boys,82.1,22,Roman Gonzalez,Quinlan Ford,78.93,108.86,61.23,131.54,301.64,Single-ply,SBD,M
Boys,82.1,23,Spencer Martin,Grapeland,77.56,106.59,63.5,117.93,288.03,Single-ply,SBD,M
Boys,82.1,24,Alan Rodriguez,Mount Pleasant,80.06,95.25,56.7,113.4,265.35,Single-ply,SBD,M
Boys,82.1,DQ,Leramy Drew,Texarkana Texas,80.06,,,,,Single-ply,SBD,M
Boys,89.81,1,Chris Arnold,Texarkana Texas,88.45,233.6,115.67,244.94,594.21,Single-ply,SBD,M
Boys,89.81,2,Alan Quezada,Kemp,87.32,226.8,147.42,217.72,591.94,Single-ply,SBD,M
Boys,89.81,3,Morgan Landreth,Pattonville Prairiland,86.64,238.14,138.35,213.19,589.67,Single-ply,SBD,M
Boys,89.81,4,Christian Lemus,Van,86.41,206.38,142.88,190.51,539.77,Single-ply,SBD,M
Boys,89.81,5,Taylor Little,Kemp,87.54,210.92,117.93,204.12,532.97,Single-ply,SBD,M
Boys,89.81,6,Ashton Henry,Grapeland,89.81,204.12,92.99,219.99,517.1,Single-ply,SBD,M
Boys,89.81,7,Austin Mesick,Pattonville Prairiland,83.91,174.63,115.67,204.12,494.42,Single-ply,SBD,M
Boys,89.81,8,Jon Paye,Gilmer,89.81,188.24,108.86,185.97,483.08,Single-ply,SBD,M
Boys,89.81,9,Andrew Murphy #3,Paris Chisum,84.59,174.63,97.52,181.44,453.59,Single-ply,SBD,M
Boys,89.81,10,Searn Rodgers,Sulphur Springs,87.54,181.44,113.4,158.76,453.59,Single-ply,SBD,M
Boys,89.81,11,John Bunch,Quinlan Ford,89.24,188.24,102.06,161.03,451.32,Single-ply,SBD,M
Boys,89.81,12,Seth Grammage,Lone Oak,86.64,172.37,90.72,172.37,435.45,Single-ply,SBD,M
Boys,89.81,13,Jeremiah Bradway,Canton,85.28,163.29,88.45,170.1,421.84,Single-ply,SBD,M
Boys,89.81,14,Kendall Reid,Texarkana Texas,86.86,149.69,86.18,165.56,401.43,Single-ply,SBD,M
Boys,89.81,15,Jacob Segura,Mount Pleasant,85.28,154.22,83.91,151.95,390.09,Single-ply,SBD,M
Boys,89.81,16,Kentrell Jones,Texarkana Texas,88.9,136.08,83.91,158.76,378.75,Single-ply,SBD,M
Boys,89.81,17,Reese Gardner,Van,87.09,149.69,79.38,147.42,376.48,Single-ply,SBD,M
Boys,89.81,18,Anthony Bomar,Emory Rains,89.81,151.95,86.18,138.35,376.48,Single-ply,SBD,M
Boys,89.81,19,Brady Shackleford,Van,89.81,142.88,72.57,149.69,365.14,Single-ply,SBD,M
Boys,89.81,20,Dylan Dodson,Gilmer,83.23,149.69,72.57,140.61,362.87,Single-ply,SBD,M
Boys,89.81,21,Cameron Norwood,Honey Grove,88.9,127.01,79.38,124.74,331.12,Single-ply,SBD,M
Boys,89.81,22,Blake Mays,Mount Pleasant,82.55,102.06,74.84,124.74,301.64,Single-ply,SBD,M
Boys,89.81,23,Danny Banker,Honey Grove,83.01,99.79,61.23,120.2,281.23,Single-ply,SBD,M
Boys,99.79,1,D'Idrec Dugan,Sulphur Springs,98.88,215.46,124.74,260.82,601.01,Single-ply,SBD,M
Boys,99.79,2,Bryton Jimenez,Lone Oak,94.8,244.94,115.67,238.14,598.74,Single-ply,SBD,M
Boys,99.79,3,Kasey Cockrell,Kemp,97.98,206.38,117.93,199.58,523.9,Single-ply,SBD,M
Boys,99.79,4,Luke Cannon,Rockwall-Heath,92.53,188.24,129.27,190.51,508.02,Single-ply,SBD,M
Boys,99.79,5,Ignacio Guerrero,Sulphur Springs,99.34,199.58,124.74,181.44,505.76,Single-ply,SBD,M
Boys,99.79,6,Michael Godwin,Paris,96.39,192.78,115.67,192.78,501.22,Single-ply,SBD,M
Boys,99.79,7,Taylor Juarez-Conner,Honey Grove,96.16,190.51,102.06,185.97,478.54,Single-ply,SBD,M
Boys,99.79,8,William Cotton,Quinlan Ford,99.56,181.44,97.52,192.78,471.74,Single-ply,SBD,M
Boys,99.79,9,Aaron Davis,Grapeland,95.25,179.17,92.99,188.24,460.4,Single-ply,SBD,M
Boys,99.79,10,Joel Guerrero,Mount Pleasant,98.88,204.12,79.38,174.63,458.13,Single-ply,SBD,M
Boys,99.79,11,Adam Slubowski,Pattonville Prairiland,96.62,161.03,124.74,167.83,453.59,Single-ply,SBD,M
Boys,99.79,12,Edner Oviedo,Mount Pleasant,94.35,165.56,102.06,174.63,442.25,Single-ply,SBD,M
Boys,99.79,13,Michael Cortez,Mount Pleasant,92.99,170.1,74.84,174.63,419.57,Single-ply,SBD,M
Boys,99.79,14,Quintarious Dangerfield,Paris,98.66,145.15,106.59,165.56,417.3,Single-ply,SBD,M
Boys,99.79,15,Roberto Vasquez,Honey Grove,91.17,156.49,79.38,165.56,401.43,Single-ply,SBD,M
Boys,99.79,16,Chris Clavel,Mount Pleasant,99.79,145.15,90.72,158.76,394.63,Single-ply,SBD,M
Boys,99.79,17,Hunter Huggins,Quitman,97.07,151.95,72.57,158.76,383.29,Single-ply,SBD,M
Boys,99.79,18,Jamar Person,Honey Grove,96.16,129.27,72.57,170.1,371.95,Single-ply,SBD,M
Boys,109.77,1,Andrew Turner,Mount Pleasant,104.1,263.08,163.29,254.01,680.39,Single-ply,SBD,M
Boys,109.77,2,Jose Rodriguez,Gilmer,102.74,249.48,113.4,235.87,598.74,Single-ply,SBD,M
Boys,109.77,3,David Partida,Rockwall-Heath,106.14,226.8,142.88,215.46,585.13,Single-ply,SBD,M
Boys,109.77,4,Landon Green,Gilmer,107.5,226.8,104.33,226.8,557.92,Single-ply,SBD,M
Boys,109.77,5,Simon Rico,Greenville,101.15,233.6,113.4,195.04,542.04,Single-ply,SBD,M
Boys,109.77,6,Gunner Vest,Paris,102.29,201.85,120.2,199.58,521.63,Single-ply,SBD,M
Boys,109.77,7,Alexander Harder,Canton,101.15,183.7,115.67,165.56,464.93,Single-ply,SBD,M
Boys,109.77,8,Dustin Wallace,Emory Rains,104.78,181.44,92.99,172.37,446.79,Single-ply,SBD,M
Boys,109.77,9,Deandre Brown,Texarkana Texas,108.86,156.49,106.59,183.7,446.79,Single-ply,SBD,M
Boys,109.77,10,Ceranrian Davis,Grapeland,102.51,174.63,77.11,185.97,437.72,Single-ply,SBD,M
Boys,109.77,11,Jose Rodriguez,Sulphur Springs,102.74,172.37,102.06,161.03,435.45,Single-ply,SBD,M
Boys,109.77,12,Jack Willis,Van,100.47,181.44,106.59,142.88,430.91,Single-ply,SBD,M
Boys,109.77,13,Bladen Collum,Gilmer,102.51,170.1,86.18,172.37,428.64,Single-ply,SBD,M
Boys,109.77,14,Logen Clopp,Texarkana Texas,101.38,156.49,83.91,163.29,403.7,Single-ply,SBD,M
Boys,109.77,15,Victor Esparza,Honey Grove,103.87,147.42,83.91,151.95,383.29,Single-ply,SBD,M
Boys,109.77,DQ,Adrian Aumada,Emory Rains,100.47,97.52,49.9,,,Single-ply,SBD,M
Boys,124.74,1,Fili Rincon,Lone Oak,119.98,272.16,151.95,222.26,646.37,Single-ply,SBD,M
Boys,124.74,2,Ian Blanch,Sulphur Springs,114.31,254.01,136.08,235.87,625.96,Single-ply,SBD,M
Boys,124.74,3,Caleb York,Van,114.31,249.48,149.69,217.72,616.89,Single-ply,SBD,M
Boys,124.74,4,Garrett Carpenter,Lone Oak,114.08,219.99,102.06,215.46,537.51,Single-ply,SBD,M
Boys,124.74,5,Blake Olivares,Gilmer,118.16,199.58,111.13,222.26,532.97,Single-ply,SBD,M
Boys,124.74,6,Elian Bustos,Texarkana Texas,124.28,206.38,113.4,208.65,528.44,Single-ply,SBD,M
Boys,124.74,7,Jesus Olivio,Sulphur Springs,121.11,204.12,111.13,190.51,505.76,Single-ply,SBD,M
Boys,124.74,8,Andrew Nunn,Canton,124.74,181.44,90.72,199.58,471.74,Single-ply,SBD,M
Boys,124.74,9,Franco Rea,Grapeland,111.13,188.24,108.86,167.83,464.93,Single-ply,SBD,M
Boys,124.74,10,Adam Aldridge,Honey Grove,119.29,176.9,99.79,183.7,460.4,Single-ply,SBD,M
Boys,124.74,11,Jacob Barbosa,Grapeland,113.4,192.78,92.99,165.56,451.32,Single-ply,SBD,M
Boys,124.74,12,Mason Shoalmire,Texarkana Texas,119.29,167.83,86.18,185.97,439.98,Single-ply,SBD,M
Boys,124.74,13,Ladd Preston,Texarkana Texas,111.36,142.88,104.33,181.44,428.64,Single-ply,SBD,M
Boys,124.74,14,Carson McCoy,Van,113.4,145.15,95.25,136.08,376.48,Single-ply,SBD,M
Boys,124.74,15,Ian Hancock,Van,118.84,140.61,79.38,151.95,371.95,Single-ply,SBD,M
Boys,124.74,16,Ryan Hammons,Sulphur Springs,119.29,147.42,90.72,124.74,362.87,Single-ply,SBD,M
Boys,124.74+,1,Josh Jackson,Rockwall-Heath,128.82,272.16,156.49,249.48,678.12,Single-ply,SBD,M
Boys,124.74+,2,Joseph Lopez,Kemp,157.85,238.14,158.76,222.26,619.15,Single-ply,SBD,M
Boys,124.74+,3,Manuel Saavedra,Greenville,156.94,278.96,142.88,195.04,616.89,Single-ply,SBD,M
Boys,124.74+,4,Logan DeGarso,Greenville,140.16,260.82,140.61,204.12,605.55,Single-ply,SBD,M
Boys,124.74+,5,Ernesto Lopez,Greenville,131.09,254.01,145.15,204.12,603.28,Single-ply,SBD,M
Boys,124.74+,6,Dakota Smith,Canton,134.04,249.48,138.35,195.04,582.87,Single-ply,SBD,M
Boys,124.74+,7,Jayden Fichtel,Rockwall-Heath,136.53,226.8,138.35,204.12,569.26,Single-ply,SBD,M
Boys,124.74+,8,Devon King,Gilmer,132.22,215.46,106.59,226.8,548.85,Single-ply,SBD,M
Boys,124.74+,9,Kyle Box,Kemp,134.26,210.92,124.74,213.19,548.85,Single-ply,SBD,M
Boys,124.74+,10,Norris English,Sulphur Springs,150.14,238.14,122.47,181.44,542.04,Single-ply,SBD,M
Boys,124.74+,11,Joel Barbosa,Grapeland,129.27,231.33,117.93,188.24,537.51,Single-ply,SBD,M
Boys,124.74+,12,Jair Velazquez,Greenville,130.18,251.74,115.67,167.83,535.24,Single-ply,SBD,M
Boys,124.74+,13,Isaac Sims,Quitman,140.61,190.51,113.4,208.65,512.56,Single-ply,SBD,M
Boys,124.74+,14,Noah Luelling,Quitman,130.18,181.44,122.47,181.44,485.34,Single-ply,SBD,M
Boys,124.74+,15,Camden Bowles,Gilmer,127.91,183.7,115.67,167.83,467.2,Single-ply,SBD,M
Boys,124.74+,16,Carl Oliver,Texarkana Texas,159.21,183.7,92.99,183.7,460.4,Single-ply,SBD,M
Boys,124.74+,17,Tanner Keith,Grapeland,135.62,215.46,120.2,117.93,453.59,Single-ply,SBD,M
Boys,124.74+,18,Jordan Young,Van,140.27,195.04,102.06,147.42,444.52,Single-ply,SBD,M
Boys,124.74+,19,Matao Jacinto,Quinlan Ford,155.58,181.44,90.72,142.88,415.04,Single-ply,SBD,M
