Place,Name,BirthYear,Country,BodyweightKg,Squat1Kg,Squat2Kg,Squat3Kg,Squat4Kg,Best3SquatKg,Bench1Kg,Bench2Kg,Bench3Kg,Bench4Kg,Best3BenchKg,Deadlift1Kg,Deadlift2Kg,Deadlift3Kg,Best3DeadliftKg,TotalKg,WeightClassKg,Division,Event,Sex,Equipment
1,Yvelise Martin,1982,France,43.25,100,110,-120,,110,50,52.5,-55,,52.5,100,105,107.5,107.5,270,44,Open,SBD,F,Single-ply
1,Karin Hollaus,1971,Austria,51.98,130,-140,140,,140,-72.5,-72.5,75,,75,132.5,-140,-140,132.5,347.5,52,Open,SBD,F,Single-ply
2,Maria Pia Salemme,1975,Italy,50.82,120,-130,130,,130,60,65,67.5,,67.5,140,-150,-150,140,337.5,52,Open,SBD,F,Single-ply
1,Jenny Hunter,1958,UK,55.84,130,140,-145,,140,82.5,85,87.5,,87.5,150,160,-165,160,387.5,56,Open,SBD,F,Single-ply
2,Tatjana Mele,1973,Italy,54.2,90,95,102.5,,102.5,57.5,60,-65,,60,100,107.5,-120,107.5,270,56,Open,SBD,F,Single-ply
1,Aly Keizer,1951,Netherlands,58.98,-135,142.5,-150,,142.5,85,87.5,,,87.5,145,-155,-155,145,375,60,Open,SBD,F,Single-ply
1,Hege Helseth,1982,Norway,66.1,155,-162.5,-167.5,,155,-90,90,-97.5,,90,150,157.5,165,165,410,67.5,Open,SBD,F,Single-ply
2,Judith Meerding,1981,Netherlands,66.4,135,142.5,147.5,,147.5,85,92.5,97.5,,97.5,140,-150,150,150,395,67.5,Open,SBD,F,Single-ply
3,Daniela Falck,1975,Germany,62.28,135,142.5,-145,,142.5,75,-80,80,,80,162.5,-170,-172.5,162.5,385,67.5,Open,SBD,F,Single-ply
4,Katherine Bak,1981,Denmark,62.22,110,-120,-120,,110,-70,70,-77.5,,70,140,-155,-155,140,320,67.5,Open,SBD,F,Single-ply
1,Ingunn Haakonsen,1976,Norway,68.83,190,197.5,200,,200,115,-117.5,117.5,,117.5,190,200,202.5,202.5,520,75,Open,SBD,F,Single-ply
2,Jackie Blasbery,1963,UK,70.22,140,150,157.5,,157.5,65,85,95,,95,160,172.5,180,180,432.5,75,Open,SBD,F,Single-ply
3,Bianca van der Beugen,1982,Netherlands,71.66,105,115,120,,120,70,75,-77.5,,75,130,140,145,145,340,75,Open,SBD,F,Single-ply
4,Alexandra Tichy,1990,Austria,74.17,125,130,-137.5,,130,85,-90,-90,,85,120,125,-130,125,340,75,Open,SBD,F,Single-ply
1,Jean Maton,1963,UK,82.05,155,165,170,,170,100,107.5,-112.5,,107.5,170,177.5,180,180,457.5,82.5,Open,SBD,F,Single-ply
2,Anita Sabo,1968,Norway,75.72,170,175,180,,180,100,-105,105,,105,160,167.5,-170,167.5,452.5,82.5,Open,SBD,F,Single-ply
3,Sue Hollands,1951,UK,82.3,170,-180,180,,180,-80,80,82.5,,82.5,150,160,165,165,427.5,82.5,Open,SBD,F,Single-ply
1,Ielja Strik,1973,Netherlands,87.77,220,240,250,,250,165,175,182.5,,182.5,190,210,220,220,652.5,90,Open,SBD,F,Single-ply
2,Rosemarie Beer,1945,Austria,87.28,160,-170,170,,170,125,-130,130,,130,160,170,180,180,480,90,Open,SBD,F,Single-ply
1,Brenda van der Meulen,1978,Netherlands,108.38,200,212.5,217.5,,217.5,147.5,155,160,,160,180,190,-195,190,567.5,90+,Open,SBD,F,Single-ply
2,Marie Thornton,1981,UK,97.73,-205,205,-215,,205,95,100,105,,105,180,190,195,195,505,90+,Open,SBD,F,Single-ply
1,Paolo Petrongari,1966,Italy,58.03,130,-155,-155,,130,80,-92.5,-92.5,,80,165,-180,-180,165,375,60,Open,SBD,M,Single-ply
1,Antoni Mastrolorenzo,1982,France,66.84,240,252.5,260,265.5,260,145,152.5,157.5,,157.5,230,240,-245,240,657.5,67.5,Open,SBD,M,Single-ply
2,Barry Sheering,1971,UK,66.99,190,205,210,,210,145,-160,-160,,145,240,255,-260,255,610,67.5,Open,SBD,M,Single-ply
1,Manoj Chahal,1971,UK,74.66,225,235,245,,245,145,152.5,160,,160,220,232.5,240,240,645,75,Open,SBD,M,Single-ply
2,Vincent Van De Perre,1981,Belgium,73.96,220,-230,-230,,220,140,-145,145,,145,220,225,-232.5,225,590,75,Open,SBD,M,Single-ply
3,Leon Koschnik,1988,Germany,74.58,220,230,-240,,230,110,120,127.5,,127.5,210,220,230,230,587.5,75,Open,SBD,M,Single-ply
4,Harald Grubauer,1981,Austria,73.65,200,210,-215,,210,130,135,-140,,135,220,-230,-232.5,220,565,75,Open,SBD,M,Single-ply
5,Roger Remy,1953,Belgium,74.64,205,-217.5,217.5,,217.5,120,-125,-125,,120,225,-242.5,-252.5,225,562.5,75,Open,SBD,M,Single-ply
6,Denis Leider,1989,Luxembourg,73.75,135,145,152.5,,152.5,82.5,-87.5,87.5,,87.5,160,175,182.5,182.5,422.5,75,Open,SBD,M,Single-ply
1,Marco Sura,1978,Germany,82.32,250,270,285,,285,180,190,-200,,190,270,285,-295,285,760,82.5,Open,SBD,M,Single-ply
2,Simone Sanasi,1970,Italy,81.94,240,255,265,,265,150,162.5,175,,175,250,270,290,290,730,82.5,Open,SBD,M,Single-ply
3,Pierre Tirifahy,1971,Belgium,78.83,180,190,195,,195,120,130,135,,135,210,217.6,222.5,222.5,552.5,82.5,Open,SBD,M,Single-ply
1,Mathieu Pingeot,1982,France,84.37,240,250,255,,255,165,172.5,-177.5,,172.5,240,255,257.5,257.5,685,90,Open,SBD,M,Single-ply
2,Anne Bierma,1975,Netherlands,89.22,240,255,260,,260,160,167.5,172.5,,172.5,230,245,252.5,252.5,685,90,Open,SBD,M,Single-ply
3,Giorgio Agostinoni,1958,Italy,82.93,-240,250,260,,260,140,147.5,-150,,147.5,230,250,-260,250,657.5,90,Open,SBD,M,Single-ply
4,Mimmo Dabusc,1974,Italy,84.79,-205,205,220,,220,140,150,-160,,150,210,220,235,235,605,90,Open,SBD,M,Single-ply
1,Anibal Manuel Coimbra Marques,1972,Luxembourg,98.51,345,355,-362.5,,355,-232.5,-232.5,232.5,-237.5,232.5,335,-345,,335,922.5,100,Open,SBD,M,Single-ply
2,Stephane Hergott,1982,France,98.65,290,-305,-305,,290,215,225,230,-235.5,230,260,270,280,280,800,100,Open,SBD,M,Single-ply
3,Matthias Simpig,1972,Germany,99.35,285,300,310,,310,180,190,-200,,190,260,275,-297.5,275,775,100,Open,SBD,M,Single-ply
4,Stewart Ogg,1977,UK,94.82,-265,265,-280,,265,180,190,195,,195,272.5,285,292.5,292.5,752.5,100,Open,SBD,M,Single-ply
5,Kim Dahl Hansen,1971,Denmark,99.91,-260,260,-275,,260,-180,180,192.5,,192.5,270,-282.5,-292.5,270,722.5,100,Open,SBD,M,Single-ply
6,Rommie Zoethout,1973,Netherlands,99.62,230,245,-250,,245,170,-180,180,,180,260,-270,-270,260,685,100,Open,SBD,M,Single-ply
7,Jo Schamin,1987,Luxembourg,98.79,170,182.5,192.5,,192.5,120,-127.5,-130,,120,170,185,195,195,507.5,100,Open,SBD,M,Single-ply
1,Tor-Herman Omland,1977,Norway,105.81,335,345,-350,,345,240,245,-250,,245,-300,300,-310,300,890,110,Open,SBD,M,Single-ply
2,Harald Kreuzer,1969,Austria,109.85,300,325,345,,345,190,205,-215,,205,300,-315,,300,850,110,Open,SBD,M,Single-ply
3,Andrew Rodney,1965,UK,109.86,265,285,300,,300,165,175,-185,,175,265,285,300,300,775,110,Open,SBD,M,Single-ply
DQ,Christoph Senn,1981,Austria,,,,,,,,,,,,,,,,,110,Open,SBD,M,Single-ply
DQ,Claus Jørgensen,1964,Denmark,108.6,-260,,,,,,,,,,,,,,,110,Open,SBD,M,Single-ply
1,Lars Dalby Markussen,1974,Norway,122.9,-337.5,337.5,-342.5,,337.5,232.5,240,-245,,240,320,-327.5,-327.5,320,897.5,125,Open,SBD,M,Single-ply
2,Jean-Luc Collart,1959,Belgium,116.85,320,335,342.5,,342.5,210,220,-227.5,,220,270,290,-300,290,852.5,125,Open,SBD,M,Single-ply
3,Michael Ashurst,1975,UK,124.17,-325,325,-340,,325,175,185,190,,190,310,320,-340,320,835,125,Open,SBD,M,Single-ply
4,Jens Jepsen,1970,Denmark,114.6,255,-267.5,267.5,,267.5,-197.5,-197.5,197.5,,197.5,220,240,-252.5,240,705,125,Open,SBD,M,Single-ply
1,Olaf Dahl,1977,Norway,134.99,335,347.5,-355,,347.5,242.5,247.5,-250,,247.5,335,350,-355,350,945,125+,Open,SBD,M,Single-ply
2,Wim Wamsteeker,1969,Netherlands,128.08,280,-300,-315,,280,190,197.5,-202.5,,197.5,260,272.5,-280,272.5,750,125+,Open,SBD,M,Single-ply
