Division,WeightClassKg,Place,Name,Team,BodyweightKg,Best3SquatKg,Best3BenchKg,Best3DeadliftKg,TotalKg,Equipment,Event,Sex
Boys,51.71,1,Dayce Drennan,Winnsboro,51.62,142.88,81.65,147.42,371.95,Single-ply,SBD,M
Boys,51.71,2,Hunter Dew,Redwater,47.9,111.13,52.16,113.4,276.69,Single-ply,SBD,M
Boys,51.71,3,Jake Huckaby,Redwater,42.91,92.99,43.09,83.91,219.99,Single-ply,SBD,M
Boys,51.71,DQ,Tre Mincher,New Boston,43.18,63.5,58.97,,,Single-ply,SBD,M
Boys,55.79,1,Xavier Edwards,Texarkana Liberty-Eylau,54.7,142.88,83.91,142.88,369.68,Single-ply,SBD,M
Boys,55.79,2,Cody Maxie,Atlanta,54.88,127.01,61.23,131.54,319.78,Single-ply,SBD,M
Boys,59.87,1,Jordan Prignit,Atlanta,59.78,129.27,61.23,147.42,337.93,Single-ply,SBD,M
Boys,59.87,2,Mister Sumner,New Boston,59.87,111.13,72.57,136.08,319.78,Single-ply,SBD,M
Boys,59.87,3,Tacorey Kelly,Texarkana Liberty-Eylau,57.79,102.06,68.04,147.42,317.51,Single-ply,SBD,M
Boys,59.87,DQ,Ben Harris,Queen City,57.06,,,,,Single-ply,SBD,M
Boys,67.13,1,Dalton Johnson,Atlanta,64.14,181.44,90.72,174.63,446.79,Single-ply,SBD,M
Boys,67.13,2,Christian Ifuku,Winnsboro,66.68,167.83,90.72,176.9,435.45,Single-ply,SBD,M
Boys,67.13,3,Kobe McAdoo,Winnsboro,67.04,151.95,79.38,172.37,403.7,Single-ply,SBD,M
Boys,67.13,4,Brody Powledge,Big Sandy Harmony,63.5,145.15,81.65,170.1,396.89,Single-ply,SBD,M
Boys,67.13,5,Jake Byrd,Big Sandy Harmony,65.68,158.76,88.45,138.35,385.55,Single-ply,SBD,M
Boys,67.13,6,Kade Cliton,Redwater,67.13,151.95,77.11,154.22,383.29,Single-ply,SBD,M
Boys,67.13,7,Drake Moore,Queen City,65.41,129.27,68.04,154.22,351.53,Single-ply,SBD,M
Boys,67.13,8,Zachariah Jefferson,Atlanta,66.5,136.08,61.23,151.95,349.27,Single-ply,SBD,M
Boys,67.13,9,Colin Morris,Atlanta,61.6,124.74,77.11,136.08,337.93,Single-ply,SBD,M
Boys,67.13,10,Kyd Cole,Winnsboro,62.32,117.93,70.31,136.08,324.32,Single-ply,SBD,M
Boys,67.13,11,Thomas Steward,Atlanta,60.42,108.86,70.31,124.74,303.91,Single-ply,SBD,M
Boys,67.13,12,Lakeceion Richardson,Atlanta,61.33,95.25,61.23,129.27,285.76,Single-ply,SBD,M
Boys,74.84,1,Jacob Nash,Atlanta,73.66,229.06,129.27,231.33,589.67,Single-ply,SBD,M
Boys,74.84,2,La-Jathan Allen,Omaha Pewitt,74.03,192.78,113.4,204.12,510.29,Single-ply,SBD,M
Boys,74.84,3,Lawson McBain,Redwater,74.84,181.44,102.06,183.7,467.2,Single-ply,SBD,M
Boys,74.84,4,Austin Brewton,Redwater,69.67,147.42,95.25,179.17,421.84,Single-ply,SBD,M
Boys,74.84,5,Tj Stagner,Queen City,68.13,158.76,86.18,167.83,412.77,Single-ply,SBD,M
Boys,74.84,6,Logan Minick,Winnsboro,70.03,158.76,81.65,172.37,412.77,Single-ply,SBD,M
Boys,74.84,7,Jordan Stiger,Atlanta,74.84,151.95,95.25,161.03,408.23,Single-ply,SBD,M
Boys,74.84,8,Keri Garner,Winnsboro,74.84,97.52,58.97,208.65,365.14,Single-ply,SBD,M
Boys,82.1,1,Jordan Helms,Redwater,81.83,235.87,145.15,231.33,612.35,Single-ply,SBD,M
Boys,82.1,2,Clayton Mosley,Atlanta,77.66,229.06,142.88,222.26,594.21,Single-ply,SBD,M
Boys,82.1,3,Marzavin Riles,Texarkana Liberty-Eylau,78.38,192.78,106.59,206.38,505.76,Single-ply,SBD,M
Boys,82.1,4,Cedric Dickerson,Texarkana Liberty-Eylau,77.66,183.7,113.4,188.24,485.34,Single-ply,SBD,M
Boys,82.1,5,Colton Davis,Queen City,79.2,172.37,113.4,199.58,485.34,Single-ply,SBD,M
Boys,82.1,6,Dylan Perkins,New Boston,80.47,181.44,104.33,188.24,474,Single-ply,SBD,M
Boys,82.1,7,Luis Lozano,Big Sandy Harmony,81.56,185.97,90.72,183.7,460.4,Single-ply,SBD,M
Boys,82.1,8,Caden Swink,Big Sandy Harmony,77.38,149.69,122.47,170.1,442.25,Single-ply,SBD,M
Boys,82.1,9,Brian Amason,Winnsboro,80.83,165.56,111.13,149.69,426.38,Single-ply,SBD,M
Boys,82.1,10,Jeremiah Jefferson,Atlanta,80.92,170.1,79.38,163.29,412.77,Single-ply,SBD,M
Boys,82.1,11,Kei'Untray Hawkins,Omaha Pewitt,78.2,149.69,95.25,163.29,408.23,Single-ply,SBD,M
Boys,82.1,12,Conderus Shears,Texarkana Liberty-Eylau,80.1,113.4,102.06,188.24,403.7,Single-ply,SBD,M
Boys,82.1,13,James Gilmore,Omaha Pewitt,77.11,138.35,92.99,163.29,394.63,Single-ply,SBD,M
Boys,82.1,14,Ethan Arrington,Winnsboro,79.02,149.69,90.72,154.22,394.63,Single-ply,SBD,M
Boys,82.1,15,James Stacy,Redwater,81.1,117.93,58.97,117.93,294.84,Single-ply,SBD,M
Boys,89.81,1,Zee Barfoot,Atlanta,85,226.8,145.15,215.46,587.4,Single-ply,SBD,M
Boys,89.81,2,Dylan Roberts,Redwater,85.37,190.51,113.4,204.12,508.02,Single-ply,SBD,M
Boys,89.81,3,Kilder Ortega,Winnsboro,87.63,179.17,111.13,197.31,487.61,Single-ply,SBD,M
Boys,89.81,4,David Martinez,Omaha Pewitt,84.19,181.44,102.06,170.1,453.59,Single-ply,SBD,M
Boys,89.81,5,Lakken Stuart,Texarkana Liberty-Eylau,88.9,154.22,111.13,183.7,449.06,Single-ply,SBD,M
Boys,89.81,6,Conner Samples,Atlanta,84.19,172.37,108.86,158.76,439.98,Single-ply,SBD,M
Boys,89.81,7,Nick Parker,Redwater,87.14,154.22,102.06,156.49,412.77,Single-ply,SBD,M
Boys,89.81,8,Jerrett McCollum,Omaha Pewitt,88.27,142.88,92.99,176.9,412.77,Single-ply,SBD,M
Boys,89.81,9,Demetry Hunter,Texarkana Liberty-Eylau,88.63,147.42,102.06,158.76,408.23,Single-ply,SBD,M
Boys,89.81,10,Maleik Riley,Texarkana Liberty-Eylau,88.9,142.88,79.38,170.1,392.36,Single-ply,SBD,M
Boys,99.79,1,Garrett Harp,Redwater,99.79,226.8,136.08,206.38,569.26,Single-ply,SBD,M
Boys,99.79,2,Daniel Keene,Queen City,97.61,226.8,138.35,195.04,560.19,Single-ply,SBD,M
Boys,99.79,3,Trey Adams,Atlanta,93.26,229.06,142.88,183.7,555.65,Single-ply,SBD,M
Boys,99.79,4,James Bevill,Redwater,92.17,204.12,115.67,204.12,523.9,Single-ply,SBD,M
Boys,99.79,5,Cade Fant,Atlanta,97.52,206.38,117.93,197.31,521.63,Single-ply,SBD,M
Boys,99.79,6,Jordan Alvarez,Atlanta,94.17,199.58,131.54,185.97,517.1,Single-ply,SBD,M
Boys,99.79,7,Austin Meredith,Redwater,94.62,215.46,108.86,188.24,512.56,Single-ply,SBD,M
Boys,99.79,8,Nicholas Latham,Texarkana Liberty-Eylau,98.61,170.1,129.27,190.51,489.88,Single-ply,SBD,M
Boys,99.79,9,Carlos Rojas,Redwater,93.17,195.04,92.99,199.58,487.61,Single-ply,SBD,M
Boys,99.79,10,Jared Cowgill,Atlanta,96.52,185.97,117.93,174.63,478.54,Single-ply,SBD,M
Boys,109.77,1,Stancio Battles,New Boston,104.87,240.4,142.88,260.82,644.1,Single-ply,SBD,M
Boys,109.77,2,Dalton Howell,Queen City,107.14,238.14,131.54,217.72,587.4,Single-ply,SBD,M
Boys,109.77,3,Aaron Hill,New Boston,107.41,204.12,120.2,226.8,551.11,Single-ply,SBD,M
Boys,109.77,4,Tyrell King,Atlanta,100.02,204.12,129.27,210.92,544.31,Single-ply,SBD,M
Boys,109.77,5,Colt Bradford,Redwater,109.32,195.04,122.47,192.78,510.29,Single-ply,SBD,M
Boys,109.77,6,Trey Revels,Texarkana Liberty-Eylau,106.5,183.7,113.4,183.7,480.81,Single-ply,SBD,M
Boys,109.77,7,Kade Freeman,Redwater,107.23,158.76,90.72,181.44,430.91,Single-ply,SBD,M
Boys,109.77,8,Tate Mitchell,Atlanta,100.97,183.7,92.99,142.88,419.57,Single-ply,SBD,M
Boys,109.77,9,Jacob Humphrey,Atlanta,107.86,158.76,74.84,165.56,399.16,Single-ply,SBD,M
Boys,109.77,10,Josh Gamble,Texarkana Liberty-Eylau,108.59,142.88,111.13,142.88,396.89,Single-ply,SBD,M
Boys,109.77,11,Dakota Roberts,Winnsboro,103.6,111.13,70.31,115.67,297.1,Single-ply,SBD,M
Boys,109.77,12,Rhys Kelley,Omaha Pewitt,102.87,120.2,,142.88,263.08,Single-ply,SD,M
Boys,124.74,1,Christian Little,Queen City,118.48,263.08,154.22,260.82,678.12,Single-ply,SBD,M
Boys,124.74,2,Grant Newton,Winnsboro,118.12,238.14,147.42,179.17,564.72,Single-ply,SBD,M
Boys,124.74,3,Francisco Martinez,Atlanta,113.04,231.33,115.67,213.19,560.19,Single-ply,SBD,M
Boys,124.74,4,Victor Sanchez,New Boston,111.31,213.19,124.74,197.31,535.24,Single-ply,SBD,M
Boys,124.74,5,Payton Burch,Omaha Pewitt,120.56,151.95,124.74,183.7,460.4,Single-ply,SBD,M
Boys,124.74+,1,John McCurdy,Winnsboro,135.53,274.42,179.17,217.72,671.32,Single-ply,SBD,M
Boys,124.74+,2,Dustin Williams,Atlanta,140.52,231.33,181.44,210.92,623.69,Single-ply,SBD,M
Boys,124.74+,3,Jacob Thompson,New Boston,125.55,213.19,147.42,181.44,542.04,Single-ply,SBD,M
Boys,124.74+,4,Demarcus Hill,Omaha Pewitt,166.74,185.97,108.86,201.85,496.68,Single-ply,SBD,M
Boys,124.74+,5,Jaelin Williams,Texarkana Liberty-Eylau,174.27,226.8,97.52,172.37,496.68,Single-ply,SBD,M
Boys,124.74+,6,Cody Rutherford,New Boston,131.81,188.24,111.13,195.04,494.42,Single-ply,SBD,M
Boys,124.74+,7,David Williams,Omaha Pewitt,142.88,170.1,99.79,185.97,455.86,Single-ply,SBD,M
