Division,WeightClassKg,Place,Name,Team,BodyweightKg,Best3SquatKg,Best3BenchKg,Best3DeadliftKg,TotalKg,Equipment,Event,Sex
Boys,51.71,1,Mason Cottam,Burleson,51.71,142.88,58.97,147.42,349.27,Single-ply,SBD,M
Boys,51.71,2,David Cook,Burleson Centennial,51.71,122.47,74.84,138.35,335.66,Single-ply,SBD,M
Boys,51.71,3,Cesar Ledesma,Burleson,47.58,120.2,70.31,131.54,322.05,Single-ply,SBD,M
Boys,51.71,4,Josh Lambert,Burleson Centennial,51.62,97.52,54.43,111.13,263.08,Single-ply,SBD,M
Boys,55.79,1,Ethan Ford,Burleson Centennial,55.34,131.54,79.38,174.63,385.55,Single-ply,SBD,M
Boys,55.79,2,Jabril Clayborne,North Crowley,55.75,115.67,70.31,156.49,342.46,Single-ply,SBD,M
Boys,59.87,1,Jason Jones,Burleson,58.56,172.37,97.52,204.12,474,Single-ply,SBD,M
Boys,59.87,2,Tyler Robinson,Burleson,58.97,147.42,90.72,183.7,421.84,Single-ply,SBD,M
Boys,59.87,3,Hunter Ford,Burleson Centennial,59.87,142.88,86.18,165.56,394.63,Single-ply,SBD,M
Boys,59.87,4,Mike Jones #2,Midlothian,59.6,140.61,81.65,136.08,358.34,Single-ply,SBD,M
Boys,59.87,5,Josua Oyewole,North Crowley,58.47,129.27,65.77,142.88,337.93,Single-ply,SBD,M
Boys,59.87,6,Jayden Huse,Midlothian,59.6,113.4,70.31,124.74,308.44,Single-ply,SBD,M
Boys,67.13,1,Ethan Haynes,Burleson,65.5,192.78,104.33,208.65,505.76,Single-ply,SBD,M
Boys,67.13,2,Houston Johnson,North Crowley,64.95,172.37,86.18,188.24,446.79,Single-ply,SBD,M
Boys,67.13,3,Ross Martinez,Midlothian,66.95,161.03,86.18,170.1,417.3,Single-ply,SBD,M
Boys,67.13,4,Steven Davis,Burleson Centennial,67.13,158.76,81.65,163.29,403.7,Single-ply,SBD,M
Boys,67.13,DQ,Noel Munoz,North Crowley,65.41,,,,,Single-ply,SBD,M
Boys,74.84,1,Jayton DeLeon,Midlothian,74.34,179.17,99.79,190.51,469.47,Single-ply,SBD,M
Boys,74.84,2,Casey Jackson,Burleson,73.39,165.56,95.25,192.78,453.59,Single-ply,SBD,M
Boys,74.84,3,Brayden Smith,Joshua,74.84,156.49,108.86,172.37,437.72,Single-ply,SBD,M
Boys,74.84,4,Samuel Dennis,Midlothian,69.04,154.22,95.25,174.63,424.11,Single-ply,SBD,M
Boys,74.84,5,Gerardo Vasquez,Burleson Centennial,74.75,129.27,90.72,172.37,392.36,Single-ply,SBD,M
Boys,74.84,6,Aaron Bodine,Joshua,72.57,127.01,83.91,176.9,387.82,Single-ply,SBD,M
Boys,82.1,1,Campbell Masteller,Burleson,80.74,208.65,136.08,224.53,569.26,Single-ply,SBD,M
Boys,82.1,2,Brek Galbreath,Joshua,81.6,204.12,131.54,217.72,553.38,Single-ply,SBD,M
Boys,82.1,3,Michael Mebane,Joshua,80.83,204.12,106.59,192.78,503.49,Single-ply,SBD,M
Boys,82.1,4,Jacob Martin,Burleson Centennial,79.47,167.83,106.59,156.49,430.91,Single-ply,SBD,M
Boys,82.1,5,Zane Hairston,Joshua,80.74,151.95,99.79,174.63,426.38,Single-ply,SBD,M
Boys,89.81,1,Garrett Parkhill,Burleson Centennial,89.72,231.33,136.08,233.6,601.01,Single-ply,SBD,M
Boys,89.81,2,Corey Hartfield,North Crowley,88.95,222.26,88.45,240.4,551.11,Single-ply,SBD,M
Boys,89.81,3,Eric Ortega,Burleson Centennial,88.99,188.24,117.93,190.51,496.68,Single-ply,SBD,M
Boys,89.81,4,Sean McKinley,Joshua,87.5,181.44,127.01,183.7,492.15,Single-ply,SBD,M
Boys,89.81,5,Justis Chaney,Joshua,88.13,181.44,115.67,188.24,485.34,Single-ply,SBD,M
Boys,89.81,6,Mathu Blanton,Cleburne,88.86,147.42,97.52,165.56,410.5,Single-ply,SBD,M
Boys,89.81,7,Scott Hayes,Midlothian,83.55,140.61,77.11,149.69,367.41,Single-ply,SBD,M
Boys,89.81,8,William Griffin,North Crowley,84.19,133.81,77.11,149.69,360.61,Single-ply,SBD,M
Boys,99.79,1,Dylan Hipsman,Midlothian,98.57,244.94,149.69,281.23,675.85,Single-ply,SBD,M
Boys,99.79,2,Blake Edgington,Joshua,97.52,247.21,138.35,247.21,632.76,Single-ply,SBD,M
Boys,99.79,3,Hayden Lewis,Burleson,96.89,226.8,158.76,233.6,619.15,Single-ply,SBD,M
Boys,99.79,4,Michael Farnsworth,Midlothian,98.61,226.8,145.15,226.8,598.74,Single-ply,SBD,M
Boys,99.79,5,Cailon Washington,North Crowley,97.52,213.19,133.81,226.8,573.79,Single-ply,SBD,M
Boys,99.79,6,Adilio Alaniz,Cleburne,96.98,188.24,99.79,183.7,471.74,Single-ply,SBD,M
Boys,99.79,7,Cooper Walthall,Cleburne,99.79,192.78,92.99,163.29,449.06,Single-ply,SBD,M
Boys,99.79,8,Jacob Jackson,Burleson Centennial,91.17,176.9,102.06,163.29,442.25,Single-ply,SBD,M
Boys,99.79,9,Cole Porter,Burleson Centennial,97.98,165.56,97.52,165.56,428.64,Single-ply,SBD,M
Boys,99.79,10,Daniel Medina,North Crowley,99.79,142.88,86.18,156.49,385.55,Single-ply,SBD,M
Boys,99.79,DQ,Lezra Dews,North Crowley,96.3,213.19,,,,Single-ply,SBD,M
Boys,109.77,1,Brayden Mercer,Burleson,108.05,272.16,195.04,267.62,734.82,Single-ply,SBD,M
Boys,109.77,2,Jordan Mauntel,Burleson,106.32,213.19,140.61,238.14,591.94,Single-ply,SBD,M
Boys,109.77,3,Kenneth Lay,Cleburne,105.78,206.38,149.69,208.65,564.72,Single-ply,SBD,M
Boys,109.77,4,Duane Johnson,Midlothian,106.32,199.58,127.01,226.8,553.38,Single-ply,SBD,M
Boys,109.77,5,Michael Kornak,Burleson Centennial,102.78,195.04,102.06,199.58,496.68,Single-ply,SBD,M
Boys,109.77,6,Steven Pena,North Crowley,106.68,188.24,102.06,199.58,489.88,Single-ply,SBD,M
Boys,109.77,7,Kelton Davis,North Crowley,102.42,185.97,117.93,183.7,487.61,Single-ply,SBD,M
Boys,109.77,8,Blake Jones,North Crowley,103.51,151.95,106.59,172.37,430.91,Single-ply,SBD,M
Boys,124.74,1,Jaterrius Pleasant,Burleson,120.38,247.21,147.42,265.35,659.98,Single-ply,SBD,M
Boys,124.74,2,Richard Cuellar,Cleburne,124.74,294.84,147.42,190.51,632.76,Single-ply,SBD,M
Boys,124.74,3,Holt Honeycutt,Joshua,118.39,231.33,140.61,215.46,587.4,Single-ply,SBD,M
Boys,124.74,4,Tyler Meksavanh,Burleson Centennial,121.56,199.58,115.67,192.78,508.02,Single-ply,SBD,M
Boys,124.74,5,Talwinder Singh,North Crowley,115.21,185.97,113.4,204.12,503.49,Single-ply,SBD,M
Boys,124.74+,1,Luke Galan,Cleburne,131.63,226.8,117.93,210.92,555.65,Single-ply,SBD,M
Boys,124.74+,DQ,James Bell,North Crowley,135.71,210.92,,,,Single-ply,SBD,M
Boys,,NS,Thomas Godi,Burleson Centennial,,,,,,Single-ply,SBD,M
