Division,WeightClassKg,Place,Name,Team,BodyweightKg,Best3SquatKg,Best3BenchKg,Best3DeadliftKg,TotalKg,Equipment,Event,Sex
Girls,47.85,1,Brittany Zwahr,Needville,47.63,90.72,43.09,113.4,247.21,Single-ply,SBD,F
Girls,47.85,2,Sarah Dinh,Palacios,47.72,81.65,40.82,92.99,215.46,Single-ply,SBD,F
Girls,47.85,3,Kaylie Sorrel,Bay City,46.4,65.77,38.56,74.84,179.17,Single-ply,SBD,F
Girls,47.85,DQ,Jennifer Duong,Fort Bend Kempner,47.45,,,,,Single-ply,SBD,F
Girls,47.85,DQ,MeyLynn Le,Palacios,45.54,81.65,40.82,,,Single-ply,SBD,F
Girls,51.94,1,Katie Vacek,Needville,51.17,115.67,47.63,102.06,265.35,Single-ply,SBD,F
Girls,51.94,2,Elana Boudreaux,Santa Fe,51.03,102.06,54.43,102.06,258.55,Single-ply,SBD,F
Girls,51.94,3,Danielle Puentes,Louise,48.85,95.25,45.36,106.59,247.21,Single-ply,SBD,F
Girls,51.94,4,Kaitlyn Surratt,Louise,49.85,90.72,47.63,104.33,242.67,Single-ply,SBD,F
Girls,51.94,5,Valerie Tran,Fort Bend Kempner,49.58,86.18,40.82,106.59,233.6,Single-ply,SBD,F
Girls,51.94,6,Gabby Murphy,Freeport Brazosport,51.71,90.72,38.56,104.33,233.6,Single-ply,SBD,F
Girls,51.94,7,Crystalvan Phan,Dickinson,49.85,83.91,34.02,88.45,206.38,Single-ply,SBD,F
Girls,51.94,8,Hannah Medina,Bay City,51.12,72.57,34.02,70.31,176.9,Single-ply,SBD,F
Girls,51.94,DQ,Carmen Gomez,Freeport Brazosport,50.85,,,,,Single-ply,SBD,F
Girls,56.02,1,Skyleigh Sears,Port Lavaca Calhoun,55.52,151.95,72.57,158.76,383.29,Single-ply,SBD,F
Girls,56.02,2,Josephine Sliva,Port Lavaca Calhoun,55.29,113.4,54.43,113.4,281.23,Single-ply,SBD,F
Girls,56.02,3,Mercedez Gonzalez,Needville,54.11,106.59,54.43,113.4,274.42,Single-ply,SBD,F
Girls,56.02,4,Aliyah Jack,Needville,54.25,102.06,54.43,99.79,256.28,Single-ply,SBD,F
Girls,56.02,5,Anna Trammell,Danbury,54.52,79.38,38.56,92.99,210.92,Single-ply,SBD,F
Girls,56.02,6,Nuhoang Phan,Dickinson,53.66,79.38,29.48,79.38,188.24,Single-ply,SBD,F
Girls,56.02,7,Kia Wells,Texas City,55.7,56.7,29.48,70.31,156.49,Single-ply,SBD,F
Girls,56.02,DQ,Cassie Whitmire,Santa Fe,54.88,97.52,36.29,,,Single-ply,SBD,F
Girls,60.1,1,Frances Ajaero,Stafford,57.97,136.08,40.82,147.42,324.32,Single-ply,SBD,F
Girls,60.1,2,Shelby Freudensprung,Santa Fe,59.33,127.01,56.7,117.93,301.64,Single-ply,SBD,F
Girls,60.1,3,Yasmin Trejo,Dickinson,59.87,122.47,54.43,117.93,294.84,Single-ply,SBD,F
Girls,60.1,4,Rosa Naverette,Freeport Brazosport,58.83,113.4,47.63,120.2,281.23,Single-ply,SBD,F
Girls,60.1,5,Savannah Flores,Needville,58.01,92.99,49.9,115.67,258.55,Single-ply,SBD,F
Girls,60.1,6,Harmony Hysten,Sweeny,59.51,102.06,45.36,97.52,244.94,Single-ply,SBD,F
Girls,60.1,7,Jacie DiSalvo,Dickinson,58.2,86.18,40.82,99.79,226.8,Single-ply,SBD,F
Girls,60.1,8,Andie Martinez,Santa Fe,57.11,88.45,36.29,92.99,217.72,Single-ply,SBD,F
Girls,60.1,9,Jasie Melancon,Santa Fe,59.33,92.99,29.48,95.25,217.72,Single-ply,SBD,F
Girls,60.1,10,Desiree Scott,Fort Bend Kempner,58.51,81.65,36.29,90.72,208.65,Single-ply,SBD,F
Girls,60.1,11,Sarai De La Fuente,Freeport Brazosport,58.83,90.72,31.75,79.38,201.85,Single-ply,SBD,F
Girls,60.1,12,Melissa Castillo,Freeport Brazosport,59.6,77.11,40.82,79.38,197.31,Single-ply,SBD,F
Girls,67.36,1,Erica Garcia,Port Lavaca Calhoun,65.95,158.76,68.04,151.95,378.75,Single-ply,SBD,F
Girls,67.36,2,Luna Wev,Texas City,65,142.88,58.97,124.74,326.59,Single-ply,SBD,F
Girls,67.36,3,Sarah Weinmann,Edna,63.82,113.4,56.7,136.08,306.17,Single-ply,SBD,F
Girls,67.36,4,Abigail Denny,Conroe Oak Ridge,63.41,111.13,54.43,99.79,265.35,Single-ply,SBD,F
Girls,67.36,5,Hailey Sebastian,Needville,66.59,106.59,54.43,102.06,263.08,Single-ply,SBD,F
Girls,67.36,6,Reagan Gaona,Santa Fe,66.68,97.52,47.63,111.13,256.28,Single-ply,SBD,F
Girls,67.36,7,Emily Lott,Needville,65.18,86.18,49.9,115.67,251.74,Single-ply,SBD,F
Girls,67.36,8,Alexandria Ceasar,Palacios,65.95,102.06,52.16,92.99,247.21,Single-ply,SBD,F
Girls,67.36,9,Anna Green,Sweeny,63.91,90.72,45.36,108.86,244.94,Single-ply,SBD,F
Girls,67.36,10,Emily Northen,Conroe Oak Ridge,64.36,97.52,34.02,106.59,238.14,Single-ply,SBD,F
Girls,67.36,11,Isabel Lilie,Louise,66.09,88.45,43.09,97.52,229.06,Single-ply,SBD,F
Girls,67.36,12,Jacey Thompson,Sweeny,67.09,92.99,47.63,88.45,229.06,Single-ply,SBD,F
Girls,75.07,1,Karina Ramon,Palacios,68.9,149.69,97.52,151.95,399.16,Single-ply,SBD,F
Girls,75.07,2,Morgan Boody,Santa Fe,73.48,161.03,74.84,145.15,381.02,Single-ply,SBD,F
Girls,75.07,3,Brianna Gilliam,Needville,74.3,117.93,47.63,131.54,297.1,Single-ply,SBD,F
Girls,75.07,4,Sarah Briggs,Sweeny,74.8,115.67,63.5,108.86,288.03,Single-ply,SBD,F
Girls,75.07,5,Aspen Howe,Conroe Oak Ridge,73.57,117.93,45.36,120.2,283.5,Single-ply,SBD,F
Girls,75.07,6,Alliyah Galvez,Bay City,72.8,111.13,56.7,104.33,272.16,Single-ply,SBD,F
Girls,75.07,7,Kaylei Edmonston,Texas City,71.99,113.4,40.82,111.13,265.35,Single-ply,SBD,F
Girls,75.07,8,Gisella Chavez,Palacios,70.85,95.25,58.97,104.33,258.55,Single-ply,SBD,F
Girls,75.07,DQ,Breanne Grace,Conroe Oak Ridge,71.26,,,,,Single-ply,SBD,F
Girls,82.33,1,Rosa Marroquin,Needville,81.74,127.01,65.77,127.01,319.78,Single-ply,SBD,F
Girls,82.33,2,Kansas Smith,Edna,75.57,111.13,49.9,127.01,288.03,Single-ply,SBD,F
Girls,82.33,3,Karla Hernandez,Freeport Brazosport,78.65,111.13,47.63,122.47,281.23,Single-ply,SBD,F
Girls,82.33,4,Kaitlyn Richards,Santa Fe,78.93,108.86,43.09,113.4,265.35,Single-ply,SBD,F
Girls,82.33,DQ,Adara Land,Conroe Oak Ridge,81.47,133.81,63.5,,,Single-ply,SBD,F
Girls,82.33,DQ,Gladness Fisher Alfilobi,Stafford,76.34,,,,,Single-ply,SBD,F
Girls,90.04,1,Marissa Rodriguez,Bay City,86.45,129.27,70.31,151.95,351.53,Single-ply,SBD,F
Girls,90.04,2,Karla Caudillo,Freeport Brazosport,86.23,129.27,61.23,136.08,326.59,Single-ply,SBD,F
Girls,90.04,3,Lorelei Irby,Sweeny,83.6,122.47,63.5,120.2,306.17,Single-ply,SBD,F
Girls,90.04,4,Stephanie Hawkins,Dickinson,88.95,102.06,56.7,111.13,269.89,Single-ply,SBD,F
Girls,90.04,5,Tyra Patterson,Sweeny,88.18,104.33,47.63,104.33,256.28,Single-ply,SBD,F
Girls,90.04,6,Ashlon Williams,Sweeny,85,83.91,43.09,108.86,235.87,Single-ply,SBD,F
Girls,100.02,1,Lauren Taylor,Conroe Oak Ridge,94.44,172.37,92.99,161.03,426.38,Single-ply,SBD,F
Girls,100.02,2,Halie Guajardo,Port Lavaca Calhoun,95.44,165.56,61.23,149.69,376.48,Single-ply,SBD,F
Girls,100.02,3,Savannah Davey,Needville,98.57,161.03,79.38,129.27,369.68,Single-ply,SBD,F
Girls,100.02,4,Latavia Thomas,Freeport Brazosport,95.3,120.2,70.31,151.95,342.46,Single-ply,SBD,F
Girls,100.02,5,Areli Mendez,Sweeny,91.22,136.08,65.77,113.4,315.25,Single-ply,SBD,F
Girls,100.02,6,Brooke Potts,Palacios,98.16,108.86,77.11,129.27,315.25,Single-ply,SBD,F
Girls,100.02,7,Christa Swartz,Santa Fe,98.79,127.01,45.36,124.74,297.1,Single-ply,SBD,F
Girls,100.02,8,Madison Mirelez,Bay City,96.39,88.45,54.43,102.06,244.94,Single-ply,SBD,F
Girls,100.02,9,Ashlyn Moore,Sweeny,97.16,95.25,40.82,104.33,240.4,Single-ply,SBD,F
Girls,100.02,DQ,Celia Rosas,Conroe Oak Ridge,96.48,136.08,,,,Single-ply,SBD,F
Girls,117.71,1,Tiffany Goranson,Edna,101.65,163.29,79.38,158.76,401.43,Single-ply,SBD,F
Girls,117.71,2,Nadia Reyna,Edna,108,127.01,58.97,136.08,322.05,Single-ply,SBD,F
Girls,117.71,3,Miranda Fuentes,Palacios,100.92,120.2,72.57,122.47,315.25,Single-ply,SBD,F
Girls,117.71,4,Christina Peterson,Palacios,109.18,117.93,63.5,124.74,306.17,Single-ply,SBD,F
Girls,117.71,5,Hailey Fuentes,Palacios,105.1,113.4,63.5,120.2,297.1,Single-ply,SBD,F
Girls,117.71,6,Jalecia Myles,Dickinson,108.36,117.93,47.63,122.47,288.03,Single-ply,SBD,F
Girls,117.71,7,Ryann Brown,Stafford,102.1,102.06,45.36,122.47,269.89,Single-ply,SBD,F
Girls,117.71,8,Katelyn Kneis,Freeport Brazosport,115.71,104.33,49.9,108.86,263.08,Single-ply,SBD,F
Girls,117.71,9,Lauren Martinez,Texas City,104.83,108.86,47.63,95.25,251.74,Single-ply,SBD,F
