Place,WeightClassKg,Name,Equipment,Team,BodyweightKg,Squat1Kg,Squat2Kg,Squat3Kg,Best3SquatKg,Bench1Kg,Bench2Kg,Bench3Kg,Best3BenchKg,Deadlift1Kg,Deadlift2Kg,Deadlift3Kg,Best3DeadliftKg,TotalKg,Division,Sex,Event
1,56,Heidi Berg,Single-ply,SPUVI,56.00,70,80,-90,80.0,52.5,-55,55,55.0,65,80,85,85.0,220,Juniors 19-23,F,SBD
1,67.5,Kai Henning Olsen,Single-ply,SPUVI,66.40,135,145,,145.0,75,80,82.5,82.5,150,172.5,-180,172.5,400,Juniors 19-23,M,SBD
1,90,Fröde Gundersen,Single-ply,SPUVI,86.70,200,,,200.0,135,150,,150.0,200,,,200.0,550,Open,M,SBD
