Division,Name,Sex,WeightClassKg,BodyweightKg,Squat1Kg,Squat2Kg,Squat3Kg,Best3SquatKg,Bench1Kg,Bench2Kg,Bench3Kg,Best3BenchKg,Deadlift1Kg,Deadlift2Kg,Deadlift3Kg,Best3DeadliftKg,TotalKg,Place,Event,Equipment
F-C-Open,Laura Swandel,F,52,52,,,,,40,45,47.5,47.5,95,102.5,107.5,107.5,155,1,BD,Raw
F-C-Open,Maria McKeown,F,52,51.3,,,,,35,42.5,-45,42.5,85,95,100,100,142.5,2,BD,Raw
F-C-M1,Rachel Mccaffrey,F,57,55.7,,,,,45,47.5,50,50,110,-117.5,120,120,170,1,BD,Raw
F-C-M1,Karen Burns,F,57,54.3,,,,,47.5,-50,-50,47.5,110,117.5,120,120,167.5,2,BD,Raw
F-C-Open,Amy Dickson,F,57,56.3,,,,,55,62.5,67.5,67.5,135,147.5,157.5,157.5,225,1,BD,Raw
F-C-M1,Patricia Logan,F,63,61.4,,,,,42.5,-45,-45,42.5,110,120,130,130,172.5,1,BD,Raw
F-C-M1,Geraldine Goligher,F,63,61,,,,,47.5,52.5,57.5,57.5,85,95,-107.5,95,152.5,2,BD,Raw
F-C-Open,Lauren Elder,F,63,61.8,,,,,50,52.5,-55,52.5,145,155,162.5,162.5,215,1,BD,Raw
F-C-Open,Leigh-Ann McQuillan,F,63,59.5,,,,,50,52.5,,52.5,132.5,142.5,147.5,147.5,200,2,BD,Raw
F-C-Open,Hannah Tracey,F,63,61.6,,,,,40,42.5,-45,42.5,-117.5,117.5,125,125,167.5,3,BD,Raw
F-C-Open,Ciara Fullam,F,63,58.4,,,,,30,35,40,40,85,95,105,105,145,4,BD,Raw
F-C-Open,Kim Coates,F,72,69.9,,,,,52.5,-55,55,55,125,130,135,135,190,1,BD,Raw
F-C-Open,Louise O'Doherty,F,72,68.8,,,,,50,55,57.5,57.5,120,130,-140,130,187.5,2,BD,Raw
F-C-Open,Laura Lowry,F,72,70.6,,,,,47.5,52.5,-55,52.5,85,95,-105,95,147.5,3,BD,Raw
F-C-Open,Jessica Armour,F,84,81.5,,,,,52.5,57.5,62.5,62.5,110,125,135,135,197.5,1,BD,Raw
F-C-Open,Rebecca Lutton,F,84,83,,,,,-65,65,67.5,67.5,100,107.5,117.5,117.5,185,2,BD,Raw
F-C-Open,Noreen Wall,F,84,82.1,,,,,55,60,-62.5,60,110,120,-125,120,180,3,BD,Raw
F-C-Open,Stephanie McGonigle,F,84,76.1,,,,,40,47.5,-52.5,47.5,100,110,120,120,167.5,4,BD,Raw
F-C-M1,Jacqui Pope,F,84+,87.6,,,,,67.5,72.5,75,75,132.5,145,152.5,152.5,227.5,1,BD,Raw
F-C-U23,Rebecca Mckeefry,F,84+,101.2,,,,,50,57.5,-62.5,57.5,107.5,122.5,140,140,197.5,1,BD,Raw
F-C-Open,Elaine Mcflynn,F,84+,121.4,,,,,50,-57.5,-57.5,50,110,127.5,137.5,137.5,187.5,1,BD,Raw
M-C-M1,Jason Kelly,M,74,73.6,,,,,90,-100,-100,90,200,210,215,215,305,1,BD,Raw
M-C-M1,Stephen Gregory,M,74,73.6,,,,,105,110,-115,110,170,180,190,190,300,2,BD,Raw
M-C-M1,Mark Thompson,M,74,69.5,,,,,45,52.5,62.5,62.5,120,132.5,142.5,142.5,205,3,BD,Raw
M-C-M2,Chris Dorrian,M,74,70.1,,,,,-65,65,75,75,125,135,142.5,142.5,217.5,1,BD,Raw
M-C-M4,Desmond Scott,M,74,70.2,,,,,-55,55,60,60,115,120,125,125,185,1,BD,Raw
M-C-U23,Philip Gardiner,M,74,73.7,,,,,100,110,-115,110,200,215,227.5,227.5,337.5,1,BD,Raw
M-C-U23,Ross Allen,M,74,71.4,,,,,75,82.5,-85,82.5,165,177.5,182.5,182.5,265,2,BD,Raw
M-C-Open,Conor Gelston,M,74,72.8,,,,,100,-105,105,105,195,205,207.5,207.5,312.5,1,BD,Raw
M-C-Open,Ricky Morrison,M,74,74,,,,,-117.5,127.5,132.5,132.5,180,-200,-200,180,312.5,2,BD,Raw
M-C-U18,Peter Jackson,M,74,69.9,,,,,85,-95,-95,85,170,-190,-190,170,255,1,BD,Raw
M-C-U23,Ciaran McNally,M,83,77.9,,,,,-95,95,105,105,170,185,-200,185,290,1,BD,Raw
M-C-U23,Stephen McKenna,M,83,76.4,,,,,90,-100,-100,90,-175,187.5,-200,187.5,277.5,2,BD,Raw
M-C-U23,Elliot Harpur,M,83,79.8,,,,,65,70,72.5,72.5,170,-182.5,182.5,182.5,255,3,BD,Raw
M-C-U23,Thomas Flynn,M,83,80.2,,,,,60,72.5,80,80,125,135,145,145,225,4,BD,Raw
M-C-Open,Maurice Gelston,M,83,79.6,,,,,95,-100,-100,95,140,152.5,160,160,255,1,BD,Raw
M-C-M1,Iain McAllister,M,93,89.7,,,,,135,142.5,-147.5,142.5,210,225,-235,225,367.5,1,BD,Raw
M-C-U23,Karl Merritt,M,93,87.5,,,,,-120,125,132.5,132.5,200,210,-220,210,342.5,1,BD,Raw
M-C-Open,Aaron Kelly,M,93,89.4,,,,,125,130,132.5,132.5,170,190,200,200,332.5,1,BD,Raw
M-C-Open,Calum Duthie,M,93,91.5,,,,,-120,-120,-120,,-200,215,227.5,227.5,,DQ,BD,Raw
M-C-M1,Stephen Quigley,M,105,101,,,,,105,115,120,120,200,210,215,215,335,1,BD,Raw
M-C-Open,Paul Michael,M,105,100.3,,,,,115,120,125,125,207.5,222.5,235,235,360,1,BD,Raw
M-C-Open,Peter Lawrence,M,105,101.4,,,,,-122.5,122.5,130,130,200,210,220,220,350,2,BD,Raw
M-C-Open,Adam Toner,M,105,103.4,,,,,115,-120,-120,115,180,-190,-190,180,295,3,BD,Raw
M-C-M1,Nik Patton,M,120,115.9,,,,,105,-107.5,-107.5,105,175,185,-192.5,185,290,1,BD,Raw
M-C-Open,Ciaran May,M,120,112.4,,,,,105,125,-130,125,205,235,,235,360,1,BD,Raw
M-C-Open,Mark McClenaghan,M,120,105.4,,,,,90,-95,95,95,170,180,-182.5,180,275,2,BD,Raw
M-C-U18,Lee McCafferty,M,120,107.2,,,,,90,95,100,100,-177.5,182.5,-190,182.5,282.5,1,BD,Raw
F-C-Open,Maria McKeown,F,52,51.3,55,60,65,65,35,42.5,-45,42.5,85,95,100,100,207.5,1,SBD,Raw
F-C-Open,Amy Dickson,F,57,56.3,-100,100,110,110,55,62.5,67.5,67.5,135,147.5,157.5,157.5,335,1,SBD,Raw
F-C-M1,Geraldine Goligher,F,63,61,-50,-60,60,60,47.5,52.5,57.5,57.5,85,95,-107.5,95,212.5,1,SBD,Raw
F-C-Open,Louise O'Doherty,F,72,68.8,90,-100,100,100,50,55,57.5,57.5,120,130,-140,130,287.5,1,SBD,Raw
F-C-Open,Jessica Armour,F,84,81.5,70,80,90,90,52.5,57.5,62.5,62.5,110,125,135,135,287.5,1,SBD,Raw
F-C-Open,Noreen Wall,F,84,82.1,70,-75,-80,70,55,60,-62.5,60,110,120,-125,120,250,2,SBD,Raw
M-C-M1,Stephen Gregory,M,74,73.6,145,155,165,165,105,110,-115,110,170,180,190,190,465,1,SBD,Raw
M-C-M1,Mark Thompson,M,74,69.5,90,97.5,105,105,45,52.5,62.5,62.5,120,132.5,142.5,142.5,310,2,SBD,Raw
M-C-U23,Philip Gardiner,M,74,73.7,180,192.5,200,200,100,110,-115,110,200,215,227.5,227.5,537.5,1,SBD,Raw
M-C-U18,Peter Jackson,M,74,69.9,150,155,160,160,85,-95,-95,85,170,-190,-190,170,415,1,SBD,Raw
M-C-U23,Thomas Flynn,M,83,80.2,90,97.5,105,105,60,72.5,80,80,125,135,145,145,330,1,SBD,Raw
M-C-Open,Maurice Gelston,M,83,79.6,125,132.5,137.5,137.5,95,-100,-100,95,140,152.5,160,160,392.5,1,SBD,Raw
M-C-M1,Iain McAllister,M,93,89.7,150,-160,-160,150,135,142.5,-147.5,142.5,210,225,-235,225,517.5,1,SBD,Raw
M-C-Open,Aaron Kelly,M,93,89.4,160,-165,167.5,167.5,125,130,132.5,132.5,170,190,200,200,500,1,SBD,Raw
M-C-Open,Paul Michael,M,105,100.3,170,177.5,185,185,115,120,125,125,207.5,222.5,235,235,545,1,SBD,Raw
M-C-Open,Peter Lawrence,M,105,101.4,-160,160,170,170,-122.5,122.5,130,130,200,210,220,220,520,2,SBD,Raw
M-C-Open,Ciaran May,M,120,112.4,170,195,200,200,105,125,-130,125,205,235,,235,560,1,SBD,Raw
