Place,Name,BirthYear,WeightClassKg,BodyweightKg,Country,Best3SquatKg,Best3BenchKg,Best3DeadliftKg,Deadlift4Kg,TotalKg,Sex,Division,Event,Equipment
1,Silvaine Bechar,1959,44,43.9,France,115,72.5,130,,317.5,F,Open,SBD,Single-ply
1,Raija Koskinen-Jurkko,1969,48,47.3,Finland,165,75.5,160,,400,F,Open,SBD,Single-ply
2,Va Serrano-Martin,1976,48,47,France,125,70,130,,325,F,Open,SBD,Single-ply
DQ,Christian Guingal,1955,48,47.7,France,,,,,,F,Open,SBD,Single-ply
1,Leena Jokitalo,1961,52,51.9,Finland,150,77.5,175,,402.5,F,Open,SBD,Single-ply
2,Heather Hampson,1966,52,48.6,UK,120,65,145,,330,F,Open,SBD,Single-ply
1,Mervi Sirkiä,1972,56,54.9,Finland,152.5,90,165.5,167.5,407.5,F,Open,SBD,Single-ply
2,Maria Erikson,1961,56,54.6,Sweden,140,85,160,,385,F,Open,SBD,Single-ply
1,Päivi Haapoja,1965,60,59.7,Finland,180,82.5,190,,452.5,F,Open,SBD,Single-ply
2,Heini Laitinen,1967,60,59.8,Finland,162.5,90,182.5,,435,F,Open,SBD,Single-ply
3,Birgi Hammarström,1964,60,59.1,Sweden,135,90,160,,385,F,Open,SBD,Single-ply
4,Marleen Houg,1959,60,58.8,Netherlands,120,82.5,140,,342.5,F,Open,SBD,Single-ply
1,Ester Harris,1972,67.5,67,UK,165,102.5,165,,432.5,F,Open,SBD,Single-ply
2,Aly Keizer,1951,67.5,63,Netherlands,145,85,167.5,,397.5,F,Open,SBD,Single-ply
3,Helena Svensson,1975,67.5,65.9,Sweden,152.5,105,135,,392.5,F,Open,SBD,Single-ply
DQ,Helene Johage,1967,67.5,65.4,Sweden,,,,,,F,Open,SBD,Single-ply
1,Yvonne Stoep,1960,75,67.9,Netherlands,160,110,180,,450,F,Open,SBD,Single-ply
2,Jackie Blasbery,1963,75,67.9,UK,160,90,190,,440,F,Open,SBD,Single-ply
1,Cathar Haraldsson,1964,82.5,80.9,Sweden,155,95,65,,315,F,Open,SBD,Single-ply
1,Jennifer Busby,1977,90,83.8,UK,165,90.5,170,,425,F,Open,SBD,Single-ply
1,Joanne Schaefer,1967,90+,101.6,Netherlands,185,130,190,,505,F,Open,SBD,Single-ply
2,Suzanne Last,1970,90+,117.7,UK,180,100,180,,460,F,Open,SBD,Single-ply
1,Jürgen Nemeth,1972,56,55.7,Austria,195,117.5,230,,542.5,M,Open,SBD,Single-ply
1,Jean-Franco Boyer,1975,60,57.4,France,210,120,230,,560,M,Open,SBD,Single-ply
1,Phillip Richard,1971,67.5,66.9,UK,265,162.5,230,,657.5,M,Open,SBD,Single-ply
2,J.Max Riviere,1967,67.5,67.2,France,260,150,235,,645,M,Open,SBD,Single-ply
1,Ismo Lappi,1973,75,74.9,Finland,245,165,338.5,,748.5,M,Open,SBD,Single-ply
2,Hans Andersson,1977,75,74.7,Sweden,272.5,180,285,,737.5,M,Open,SBD,Single-ply
3,Hassan El Belghiti,1975,75,70.3,France,260,152.5,280,,692.5,M,Open,SBD,Single-ply
4,Frode Berentsen,1976,75,74.3,Norway,265,185,242.5,,692.5,M,Open,SBD,Single-ply
5,Steve Walker,1956,75,74.6,UK,230,180,257.5,,667.5,M,Open,SBD,Single-ply
6,Erik Rasmussen,1962,75,74.6,Denmark,232.5,155,230,,617.5,M,Open,SBD,Single-ply
1,Seppo Sohlman,1975,82.5,82.1,Finland,270,175,315,,760,M,Open,SBD,Single-ply
2,Jaswinder Singh,1976,82.5,82.4,UK,260,190,260,,710,M,Open,SBD,Single-ply
3,Shane Brodie,1974,82.5,82.1,Ireland,270,160,267.5,,697.5,M,Open,SBD,Single-ply
4,Gerhard Grossbeck,1976,82.5,80.9,Austria,245,180,250,,675,M,Open,SBD,Single-ply
5,Bill Healy,1949,82.5,81.7,Ireland,240,150,245,,635,M,Open,SBD,Single-ply
6,Manfred Sabathy,1961,82.5,81.9,Austria,207.5,177.5,210,,595,M,Open,SBD,Single-ply
7,Humberto Rocha,1971,82.5,80.3,Portugal,205,150,220,,575,M,Open,SBD,Single-ply
1,Jarmo Sohlman,1969,90,89.8,Finland,300,205,320,,825,M,Open,SBD,Single-ply
2,Anibal Manuel Coimbra Marques,1972,90,89.1,Luxembourg,315,195,305,,815,M,Open,SBD,Single-ply
3,Pat Kelley,1965,90,86.7,Ireland,280,200,290,,770,M,Open,SBD,Single-ply
4,Geir Johansen,1966,90,90,Norway,265,190,245,,700,M,Open,SBD,Single-ply
5,Tony Ardes,1974,90,89.3,France,255,165,275,,695,M,Open,SBD,Single-ply
DQ,José Teixeira,1970,90,88.1,Portugal,,,,,,M,Open,SBD,Single-ply
1,André Peeters,1970,100,96.9,France,310,207.5,300,,817.5,M,Open,SBD,Single-ply
2,Paolo Rodrigues,1966,100,99,Portugal,315,150,325,,790,M,Open,SBD,Single-ply
3,Tor Omland,1977,100,99.7,Norway,300,185,282.5,,767.5,M,Open,SBD,Single-ply
4,Olav Kompelien,1972,100,98.1,Norway,285,180,275,,740,M,Open,SBD,Single-ply
DQ,Stephan Vorup,1973,100,100,Denmark,315,,,,,M,Open,SBD,Single-ply
1,Tommi Paavilainen,1976,110,109,Finland,315,195,315,,825,M,Open,SBD,Single-ply
2,Kristoffer Willebrand,1975,110,104.5,Sweden,300,197.5,300,,797.5,M,Open,SBD,Single-ply
3,Lars Sørige,1968,110,108,Denmark,295,207.5,285,,787.5,M,Open,SBD,Single-ply
4,Geir Korvald,1966,110,100.4,Norway,265,170,270,,705,M,Open,SBD,Single-ply
5,Bram Hazeu,1960,110,105,Netherlands,250,170,272.5,,692.5,M,Open,SBD,Single-ply
6,Dennis Visser,1977,110,102,Netherlands,270,165,250,,685,M,Open,SBD,Single-ply
DD,Ricardo Pereira,1972,110,101.4,Portugal,300,185,,,,M,Open,SBD,Single-ply
DD,Tom Kelley,1968,110,109.4,Ireland,345,220,300,,,M,Open,SBD,Single-ply
1,Clive Henry,1966,125,119.9,UK,385,217.5,326,,928.5,M,Open,SBD,Single-ply
2,Jari Martikainen,1975,125,124.3,Finland,337.5,195,330,,862.5,M,Open,SBD,Single-ply
3,Morten Sørig,1969,125,124.9,Denmark,305,217.5,280,,802.5,M,Open,SBD,Single-ply
4,Jaap Fahner,1961,125,116.4,Netherlands,285,192.5,292.5,,770,M,Open,SBD,Single-ply
5,Wim Wamsteeker,1969,125,124.6,Netherlands,290,170,270,,730,M,Open,SBD,Single-ply
1,Gerald Pilling,1974,125+,127.3,UK,325,212.5,312.5,,850,M,Open,SBD,Single-ply
2,Niels Stærkjær,1966,125+,157.4,Denmark,335,260,255,,850,M,Open,SBD,Single-ply
3,Robert Eriksson,1966,125+,133.2,Sweden,332.5,202.5,305,,840,M,Open,SBD,Single-ply
DD,Michael Kossen,1969,125+,153.9,Netherlands,337.5,232.5,322.5,,,M,Open,SBD,Single-ply
