Division,WeightClassKg,Place,Name,Team,BodyweightKg,Best3SquatKg,Best3BenchKg,Best3DeadliftKg,TotalKg,Equipment,Event,Sex
Boys,51.71,1,Logan Shaw,Buffalo,50.53,106.59,63.5,92.99,263.08,Single-ply,SBD,M
Boys,51.71,2,Rojae Kizzee,Trinity,48.63,68.04,36.29,88.45,192.78,Single-ply,SBD,M
Boys,51.71,3,Caden Mullican,Cayuga,50.35,68.04,36.29,79.38,183.7,Single-ply,SBD,M
Boys,55.79,1,Chandler Prnka,Malakoff,53.8,140.61,81.65,156.49,378.75,Single-ply,SBD,M
Boys,55.79,2,Coleman Hardin,Frankston,53.98,147.42,70.31,140.61,358.34,Single-ply,SBD,M
Boys,55.79,3,Mark Hanna,Grapeland,54.88,92.99,61.23,124.74,278.96,Single-ply,SBD,M
Boys,59.87,1,Aundrea Holmes,Trinity,59.87,188.24,83.91,170.1,442.25,Single-ply,SBD,M
Boys,59.87,2,Cameron Stepp,Frankston,57.42,90.72,47.63,99.79,238.14,Single-ply,SBD,M
Boys,67.13,1,Kyle Kennerck,Cayuga,66.59,147.42,74.84,147.42,369.68,Single-ply,SBD,M
Boys,67.13,2,JJ Beckfield,Frankston,60.69,138.35,70.31,147.42,356.07,Single-ply,SBD,M
Boys,67.13,3,Noble Giles,Frankston,60.15,117.93,77.11,154.22,349.27,Single-ply,SBD,M
Boys,67.13,4,David Hall,Mount Enterprise,64.77,92.99,68.04,133.81,294.84,Single-ply,SBD,M
Boys,67.13,5,Jordan King,Malakoff,61.6,92.99,65.77,106.59,265.35,Single-ply,SBD,M
Boys,67.13,DQ,Roger Gonzalez,Elkhart,66.5,111.13,,,,Single-ply,SBD,M
Boys,67.13,DQ,Carter Grasch,Cayuga,66.86,124.74,,,,Single-ply,SBD,M
Boys,74.84,1,Parker Hay,Trinity,73.66,226.8,145.15,217.72,589.67,Single-ply,SBD,M
Boys,74.84,2,Zach Morrow,Palestine Westwood,67.49,188.24,108.86,188.24,485.34,Single-ply,SBD,M
Boys,74.84,3,John Vaughn,Buffalo,73.94,161.03,106.59,167.83,435.45,Single-ply,SBD,M
Boys,74.84,4,Israel Enriquez,Rusk,73.12,167.83,102.06,163.29,433.18,Single-ply,SBD,M
Boys,74.84,5,Sebastian Mesojednik,Malakoff,69.04,133.81,79.38,158.76,371.95,Single-ply,SBD,M
Boys,74.84,6,Robert Buckley,Cayuga,72.12,142.88,83.91,138.35,365.14,Single-ply,SBD,M
Boys,74.84,7,Bryan Perez,Grapeland,72.39,136.08,72.57,154.22,362.87,Single-ply,SBD,M
Boys,74.84,8,Jay Shepherd,Grapeland,71.21,142.88,79.38,136.08,358.34,Single-ply,SBD,M
Boys,74.84,9,Jay Mickens,Cayuga,69.85,106.59,61.23,104.33,272.16,Single-ply,SBD,M
Boys,82.1,1,Ryan Lindsay,Elkhart,80.29,247.21,129.27,238.14,614.62,Single-ply,SBD,M
Boys,82.1,2,Michael Jones,Elkhart,82.1,222.26,149.69,231.33,603.28,Single-ply,SBD,M
Boys,82.1,3,Byron Johnson,Rusk,79.56,195.04,115.67,190.51,501.22,Single-ply,SBD,M
Boys,82.1,4,Kevin Kennerck,Cayuga,77.47,174.63,83.91,181.44,439.98,Single-ply,SBD,M
Boys,82.1,5,Jp Hucklebridge,Palestine Westwood,76.38,156.49,79.38,170.1,405.97,Single-ply,SBD,M
Boys,82.1,6,Cason Grasch,Cayuga,78.47,163.29,83.91,158.76,405.97,Single-ply,SBD,M
Boys,82.1,7,Austin Prevost,Malakoff,80.1,154.22,90.72,158.76,403.7,Single-ply,SBD,M
Boys,82.1,8,Tyler Crews,Malakoff,80.47,154.22,74.84,154.22,383.29,Single-ply,SBD,M
Boys,82.1,9,Conner Griffith,Frankston,79.38,124.74,92.99,158.76,376.48,Single-ply,SBD,M
Boys,82.1,10,Kaden Loebig,Frankston,82.1,129.27,81.65,149.69,360.61,Single-ply,SBD,M
Boys,82.1,11,Blake Szabo,Elkhart,78.93,104.33,77.11,124.74,306.17,Single-ply,SBD,M
Boys,82.1,12,Jayden Rodemaker,Grapeland,77.66,102.06,56.7,140.61,299.37,Single-ply,SBD,M
Boys,82.1,DQ,Andy Garcia,Trinity,78.93,,,,,Single-ply,SBD,M
Boys,89.81,1,Witt Dockens,Center,88.81,260.82,151.95,222.26,635.03,Single-ply,SBD,M
Boys,89.81,2,Hector Dominguez,Buffalo,82.46,229.06,122.47,219.99,571.53,Single-ply,SBD,M
Boys,89.81,3,Sebastian Maldonado,Trinity,82.83,199.58,138.35,226.8,564.72,Single-ply,SBD,M
Boys,89.81,4,Michael Agan,Elkhart,85.28,204.12,142.88,215.46,562.45,Single-ply,SBD,M
Boys,89.81,5,Sean Crabtree,Trinity,89.27,172.37,133.81,206.38,512.56,Single-ply,SBD,M
Boys,89.81,6,LaJuan Davis,Palestine Westwood,87,158.76,104.33,204.12,467.2,Single-ply,SBD,M
Boys,89.81,7,Jamicah Gregg,Malakoff,83.73,158.76,108.86,170.1,437.72,Single-ply,SBD,M
Boys,89.81,DQ,Treyvaun Crawford,Trinity,87.72,,,,,Single-ply,SBD,M
Boys,99.79,1,Brandon Phillips,Trinity,99.61,215.46,149.69,195.04,560.19,Single-ply,SBD,M
Boys,99.79,2,Caleb Adams,Malakoff,94.17,226.8,127.01,183.7,537.51,Single-ply,SBD,M
Boys,99.79,3,Garrett King,Trinity,99.06,201.85,120.2,199.58,521.63,Single-ply,SBD,M
Boys,99.79,4,Ashton Henry,Grapeland,91.35,204.12,92.99,219.99,517.1,Single-ply,SBD,M
Boys,99.79,5,Katavious Evans,Center,93.89,210.92,111.13,188.24,510.29,Single-ply,SBD,M
Boys,99.79,6,Jacob Oswald,Mount Enterprise,94.53,170.1,151.95,188.24,510.29,Single-ply,SBD,M
Boys,99.79,7,Aaron Davis,Grapeland,93.26,199.58,95.25,204.12,498.95,Single-ply,SBD,M
Boys,99.79,8,Brendan McClintock,Malakoff,95.25,199.58,111.13,185.97,496.68,Single-ply,SBD,M
Boys,99.79,9,Nick Acker,Rusk,99.52,190.51,113.4,181.44,485.34,Single-ply,SBD,M
Boys,99.79,10,Cerdarian Davis,Grapeland,93.71,190.51,77.11,208.65,476.27,Single-ply,SBD,M
Boys,99.79,11,Matthew Barber,Cayuga,98.97,129.27,90.72,158.76,378.75,Single-ply,SBD,M
Boys,99.79,12,Colten Crawford,Center,92.53,151.95,86.18,136.08,374.21,Single-ply,SBD,M
Boys,99.79,13,Nathan Deeb,Frankston,95.25,136.08,83.91,133.81,353.8,Single-ply,SBD,M
Boys,99.79,14,Raul Cazares,Elkhart,98.88,127.01,77.11,147.42,351.53,Single-ply,SBD,M
Boys,99.79,15,Dalton Fitzpatrick,Cayuga,97.34,136.08,68.04,129.27,333.39,Single-ply,SBD,M
Boys,109.77,1,TJ Jones,Elkhart,109.41,260.82,163.29,244.94,669.05,Single-ply,SBD,M
Boys,109.77,2,Devorriay Anderson,Trinity,101.33,190.51,102.06,210.92,503.49,Single-ply,SBD,M
Boys,109.77,3,Weldon Brooks,Elkhart,103.87,176.9,115.67,172.37,464.93,Single-ply,SBD,M
Boys,109.77,4,Tristan LeGard,Cayuga,102.33,136.08,117.93,154.22,408.23,Single-ply,SBD,M
Boys,109.77,DQ,Nick Haney,Frankston,100.43,136.08,90.72,,,Single-ply,SBD,M
Boys,124.74,1,Jermaine Lewis,Rusk,116.21,249.48,120.2,249.48,619.15,Single-ply,SBD,M
Boys,124.74,2,Jesse Owen,Frankston,110.68,226.8,161.03,217.72,605.55,Single-ply,SBD,M
Boys,124.74,3,Lincoln Rogers,Malakoff,118.02,217.72,136.08,183.7,537.51,Single-ply,SBD,M
Boys,124.74,4,Seth Hoffman,Elkhart,111.13,208.65,120.2,199.58,528.44,Single-ply,SBD,M
Boys,124.74,5,Logan Holloway,Center,111.31,206.38,133.81,188.24,528.44,Single-ply,SBD,M
Boys,124.74,6,Gio Garcia,Trinity,115.3,197.31,156.49,174.63,528.44,Single-ply,SBD,M
Boys,124.74,7,Keevon Jackson,Palestine Westwood,115.76,206.38,113.4,174.63,494.42,Single-ply,SBD,M
Boys,124.74,8,Franco Rea,Grapeland,114.67,181.44,120.2,181.44,483.08,Single-ply,SBD,M
Boys,124.74,9,Dontavious Robinson,Palestine Westwood,123.83,195.04,115.67,151.95,462.66,Single-ply,SBD,M
Boys,124.74,10,Ethan Patterson,Buffalo,124.1,102.06,115.67,147.42,365.14,Single-ply,SBD,M
Boys,124.74+,1,Jacob Barbosa,Grapeland,126.82,167.83,99.79,158.76,426.38,Single-ply,SBD,M
Boys,124.74+,2,Corey Jackson,Frankston,133.36,124.74,102.06,129.27,356.07,Single-ply,SBD,M
Boys,,NS,Johnathan Hernandez,Malakoff,,,,,,Single-ply,SBD,M
Boys,,NS,Kasey Scoggins',Grapeland,,,,,,Single-ply,SBD,M
Boys,,NS,Michael Rosales,Rusk,,,,,,Single-ply,SBD,M
Boys,,NS,Kyler Dalrymple,Malakoff,,,,,,Single-ply,SBD,M
Boys,,NS,Jason Bobbitt,Grapeland,,,,,,Single-ply,SBD,M
Boys,,NS,Brandon Renteria,Buffalo,,,,,,Single-ply,SBD,M
Boys,,NS,Benito Rivas,Buffalo,,,,,,Single-ply,SBD,M
Boys,,NS,Demarkus Ray,Elkhart,,,,,,Single-ply,SBD,M
Boys,,NS,Gavin Bohannon,Center,,,,,,Single-ply,SBD,M
