Division,WeightClassKg,Place,Name,Team,BodyweightKg,Best3SquatKg,Best3BenchKg,Best3DeadliftKg,TotalKg,Equipment,Event,Sex
Boys,51.71,1,Juan Sanchez,Laredo Cigarroa,44.5,70.31,40.82,90.72,201.85,Single-ply,SBD,M
Boys,55.79,1,Joshua Figueroa,Laredo Johnson,54.61,102.06,45.36,124.74,272.16,Single-ply,SBD,M
Boys,55.79,2,Steven Maszatics,Laredo Alexander,55.47,86.18,52.16,106.59,244.94,Single-ply,SBD,M
Boys,59.87,1,Cesar Soto,Laredo United,57.33,92.99,56.7,95.25,244.94,Single-ply,SBD,M
Boys,67.13,1,Mark Santillan,Laredo Johnson,65.5,136.08,74.84,151.95,362.87,Single-ply,SBD,M
Boys,67.13,2,Pablo Salazar,Laredo Cigarroa,66.04,131.54,70.31,158.76,360.61,Single-ply,SBD,M
Boys,67.13,3,Eddie Santillan,Laredo Johnson,65.36,136.08,65.77,151.95,353.8,Single-ply,SBD,M
Boys,67.13,4,Luis Mendez,Laredo United,63.23,108.86,63.5,149.69,322.05,Single-ply,SBD,M
Boys,67.13,5,Trystan Colon,Laredo United,65.36,108.86,63.5,142.88,315.25,Single-ply,SBD,M
Boys,67.13,6,Marcos Saldivar,Laredo Alexander,66,111.13,70.31,131.54,312.98,Single-ply,SBD,M
Boys,67.13,7,Sebastian Villagomez,Laredo Alexander,66.81,113.4,58.97,131.54,303.91,Single-ply,SBD,M
Boys,67.13,8,Armando Lerma,Laredo United,61.64,88.45,49.9,120.2,258.55,Single-ply,SBD,M
Boys,67.13,9,Albert Salinas,Laredo United,63.19,83.91,52.16,113.4,249.48,Single-ply,SBD,M
Boys,74.84,1,Victor Castro,Laredo Johnson,70.44,151.95,95.25,179.17,426.38,Single-ply,SBD,M
Boys,74.84,2,Edwin Gonzalez,Laredo Nixon,68.49,136.08,79.38,154.22,369.68,Single-ply,SBD,M
Boys,74.84,3,Juan Gonzalez,Laredo Johnson,68.27,142.88,81.65,136.08,360.61,Single-ply,SBD,M
Boys,74.84,4,Ricardo Ramirez,Laredo Alexander,68.63,106.59,70.31,136.08,312.98,Single-ply,SBD,M
Boys,74.84,DQ,Rene Zuniga,Laredo Martin,71.67,,,,,Single-ply,SBD,M
Boys,74.84,DQ,Jordy Ramirez,Laredo Martin,72.08,,,,,Single-ply,SBD,M
Boys,74.84,DQ,Braulio Solis,Laredo Martin,74.66,,,,,Single-ply,SBD,M
Boys,74.84,DQ,Baltazar Perez,Roma,73.71,133.81,,,,Single-ply,SBD,M
Boys,82.1,1,Damian Gutierrez,Roma,77.43,142.88,90.72,142.88,376.48,Single-ply,SBD,M
Boys,82.1,2,Jesse Santos,Laredo United,81.1,122.47,70.31,145.15,337.93,Single-ply,SBD,M
Boys,82.1,3,Luis Alvarado,Laredo Alexander,80.47,129.27,70.31,136.08,335.66,Single-ply,SBD,M
Boys,82.1,4,Roberto Rincon,Laredo Martin,82.05,113.4,83.91,133.81,331.12,Single-ply,SBD,M
Boys,89.81,1,Luis Avila,Roma,87.82,176.9,86.18,154.22,417.3,Single-ply,SBD,M
Boys,89.81,2,Dominique Madrid,Laredo Johnson,88,133.81,79.38,183.7,396.89,Single-ply,SBD,M
Boys,89.81,3,Francisco Galaviz,Laredo Johnson,84.69,151.95,83.91,158.76,394.63,Single-ply,SBD,M
Boys,89.81,4,Tony Rojas,Roma,89.81,136.08,86.18,142.88,365.14,Single-ply,SBD,M
Boys,89.81,5,Magdaleno Palacios,Laredo United,89.77,113.4,65.77,158.76,337.93,Single-ply,SBD,M
Boys,89.81,6,Javier Reyna,Laredo United,82.46,138.35,63.5,127.01,328.85,Single-ply,SBD,M
Boys,89.81,7,Mark Nieto,Laredo Nixon,84.32,113.4,58.97,95.25,267.62,Single-ply,SBD,M
Boys,99.79,1,Laurencio Lopez,Roma,93.08,163.29,83.91,183.7,430.91,Single-ply,SBD,M
Boys,99.79,2,Frank Villanueva,Laredo Nixon,97.34,131.54,74.84,140.61,347,Single-ply,SBD,M
Boys,99.79,3,Rigoberto Rodriguez,Laredo Alexander,97.11,106.59,72.57,129.27,308.44,Single-ply,SBD,M
Boys,109.77,1,Aaron Trevino,Laredo Johnson,101.42,142.88,122.47,195.04,460.4,Single-ply,SBD,M
Boys,109.77,2,Robert Ramos,Roma,101.47,188.24,86.18,183.7,458.13,Single-ply,SBD,M
Boys,109.77,3,Victor Flores,Laredo Johnson,102.29,158.76,108.86,190.51,458.13,Single-ply,SBD,M
Boys,109.77,4,Diego Montoya,Roma,101.92,183.7,90.72,147.42,421.84,Single-ply,SBD,M
Boys,109.77,5,Brian Gutierrez,Laredo Nixon,106.5,156.49,99.79,163.29,419.57,Single-ply,SBD,M
Boys,109.77,6,Akileo Guerra,Roma,107.73,170.1,83.91,147.42,401.43,Single-ply,SBD,M
Boys,109.77,7,Pedro Garcia,Laredo Alexander,100.92,140.61,79.38,170.1,390.09,Single-ply,SBD,M
Boys,109.77,8,Jesus Vargas,Laredo Alexander,109.13,127.01,83.91,154.22,365.14,Single-ply,SBD,M
Boys,109.77,9,David Romagnoli,Laredo Nixon,103.83,127.01,72.57,163.29,362.87,Single-ply,SBD,M
Boys,109.77,10,Nikolas Ruiz,Laredo United,105.1,113.4,61.23,151.95,326.59,Single-ply,SBD,M
Boys,109.77,11,Alfredo Martinez,Laredo Alexander,102.78,113.4,56.7,154.22,324.32,Single-ply,SBD,M
Boys,109.77,12,Alejandro Arenazas,Laredo Nixon,103.37,113.4,79.38,127.01,319.78,Single-ply,SBD,M
Boys,124.74,1,Luis Rios,Laredo Johnson,114.94,185.97,99.79,176.9,462.66,Single-ply,SBD,M
Boys,124.74,2,Claudio Padilla,Laredo Johnson,115.62,163.29,92.99,199.58,455.86,Single-ply,SBD,M
Boys,124.74,3,Rafael Zertuche,Laredo Cigarroa,112.04,154.22,83.91,156.49,394.63,Single-ply,SBD,M
Boys,124.74,4,Luis Cerda,Laredo Martin,117.34,115.67,47.63,124.74,288.03,Single-ply,SBD,M
Boys,124.74+,1,Daniel Torres,Laredo Cigarroa,125.51,120.2,61.23,147.42,328.85,Single-ply,SBD,M
Boys,124.74+,2,JJ Benavidez,Roma,127.73,92.99,56.7,113.4,263.08,Single-ply,SBD,M
