Name,Equipment,Tested,Sex,Event,BirthDate,BodyweightKg,WeightClassKg,Division,Country,Squat1Kg,Squat2Kg,Squat3Kg,Squat4Kg,Best3SquatKg,Bench1Kg,Bench2Kg,Bench3Kg,Bench4Kg,Best3BenchKg,Deadlift1Kg,Deadlift2Kg,Deadlift3Kg,Best3DeadliftKg,TotalKg,Place
Rostom Rusitashvili,Wraps,No,M,SBD,1999-04-13,50,52,16-17,Georgia,115,-125,125,,125,85,95,-100,,95,150,160,-170,160,380,1
Anastasia Drygant,Wraps,No,F,SBD,1996-02-07,56.9,60,20-23,Kazakhstan,70,80,90,,90,35,45,50,,50,110,120,125,125,265,1
Marianna Gasparyan,Wraps,No,F,SBD,1989-02-25,58,60,Open,Kazakhstan,170,,,,170,100,110,,,110,170,180,,180,460,1
Samvel Madoyan,Wraps,No,M,SBD,1988-09-11,59.3,60,Open,Georgia,120,-140,140,,140,90,102.5,105,,105,190,200,205,205,450,1
Eter Shatirishvili,Wraps,No,F,SBD,1993-08-02,67,67.5,20-23,Georgia,100,115,125,,125,45,-50,-50,,45,105,115,120,120,290,1
Revaz Patsuria,Wraps,No,M,SBD,1998-10-05,67.5,67.5,18-19,Georgia,100,-110,110,,110,70,-75,-75,,70,120,135,150,150,330,1
Beka Tsiklauri,Wraps,No,M,SBD,2000-06-26,65.4,67.5,16-17,Georgia,80,-90,90,,90,80,85,-90,,85,120,-125,-125,120,295,1
Nika Chakhaia,Wraps,No,M,SBD,1997-01-14,74.5,75,Sub-J,Georgia,260,280,300,,300,150,160,,,160,220,240,,240,700,1
Giorgi Kozashvili,Wraps,No,M,SBD,1999-11-14,74,75,16-17,Georgia,130,145,-155,,145,105,110,115,,115,175,190,205,205,465,1
Giorgi Gorashvili,Wraps,No,M,SBD,2001-11-01,70,75,13-15,Georgia,,110,120,,120,75,-85,-85,,75,110,120,130,130,325,2
Ali Hashemi,Wraps,No,M,SBD,1975-07-31,75,75,M-1,Iran,180,200,215,,215,115,122.5,125,,125,160,185,190,190,530,1
Davit Bezhanishvili,Wraps,No,M,SBD,1950-05-25,82.2,82.5,M-5,Georgia,160,180,202.5,212.5,202.5,90,100,-107.5,,100,160,180,,180,482.5,1
Solomon Chekurishvili,Wraps,No,M,SBD,1961-07-23,89,90,M-4,Georgia,160,180,-202.5,,180,100,115,125,,125,130,160,200,200,505,1
Mahboub Purjani,Wraps,No,M,SBD,1963-06-24,90,90,M-3,Iran,200,-220,-220,,200,110,120,,,120,200,230,250,250,570,1
Tamaz Tsikaradze,Wraps,No,M,SBD,1994-04-06,87.1,90,Open,Georgia,-210,210,220,-230,220,-130,130,-140,,130,230,-245,-245,230,580,1
Irakli Sanaia,Wraps,No,M,SBD,1980-09-24,99.4,100,Open,Georgia,200,220,240,,240,130,-140,150,,150,210,230,-250,230,620,1
Muradi Chrelashvili,Wraps,No,M,SBD,1997-09-24,90,100,Sub-J,Georgia,160,170,-190,,170,130,140,-150,,140,180,200,,200,510,1
Niko Zarandia,Wraps,No,M,SBD,1992-08-15,108.6,110,Open,Georgia,220,240,-250,,240,-160,160,-165,,160,220,240,,240,640,1
Zurab Chavchanidze,Wraps,No,M,SBD,1953-05-25,110,110,M-5,Georgia,205,210,215,,215,135,145,,,145,180,205,,205,565,1
Joni Shubitidze,Wraps,No,M,SBD,1974-07-22,125.2,140,M-1,Georgia,290,315,,,315,180,190,,,190,260,-290,290,290,795,1
Samvel Madoyan,Raw,No,M,BD,1988-11-09,59.3,60,Open,Georgia,,,,,,,,,,140,,,,205,345,1
Arkadi Chapanyan,Raw,No,M,BD,1993-03-13,60.4,67.5,20-23,Georgia,,,,,,105,110,115,,115,170,190,200,200,315,1
Genadi Sugua,Raw,No,M,BD,1949-06-21,80,82.5,M-6,Georgia,,,,,,-70,70,,,70,100,120,130,130,200,1
Giorgi Dvali,Raw,No,M,BD,1993-02-15,86.4,90,Open,Georgia,,,,,,130,-140,-140,,130,180,-195,,180,310,1
Davit Mzhavanadze,Raw,No,M,BD,1977-05-14,99.8,100,Open,Georgia,,,,,,170,180,,,180,210,230,240,240,420,1
Zurab Chavchanidze,Raw,No,M,BD,1953-05-25,110,110,M-5,Georgia,,,,,,135,,,,135,180,200,205,205,340,1
Mamuka Gegidze,Raw,No,M,BD,1974-04-23,110,110,M-1,Georgia,,,,,,125,135,140,,140,170,190,205,205,345,1
Davit Naroushvili,Raw,No,M,BD,1988-05-18,109.8,110,Open,Georgia,,,,,,160,165,170,,170,220,230,240,240,410,1
Davit Zhgenti,Raw,No,M,BD,1957-07-21,119.6,125,M-4,,,,,,,140,150,152.5,,152.5,180,200,205,205,357.5,1
Emzari Qiliftari,Raw,No,M,BD,1982-02-07,120.1,125,Open,Georgia,,,,,,175,185,190,,190,240,260,270,270,460,1
Eynulla Bakhshaliyev,Raw,Yes,M,BD,1982-08-28,126,140,Open,Azerbaijan,,,,,,180,200,230,,230,240,270,300,300,530,1
Israfil Mammedov,Raw,No,M,BD,1976-08-02,155.1,140+,Open,Azerbaijan,,,,,,210,225,248,,248,220,250,270,270,518,1
Hosein Asadi,Raw,No,M,B,1979-01-10,67.2,67.5,Open,Iran,,,,,,150,-155,,,150,,,,,150,1
Lile Shengelia,Raw,No,F,B,2000-10-30,63.1,67.5,15-17,Georgia,,,,,,50,55,60,,60,,,,,60,1
Giga Khatiashvili,Raw,No,M,B,1994-09-07,74,75,Jun,Georgia,,,,,,110,-120,120,,120,,,,,120,1
Luka Khimshiashvili,Raw,No,M,B,2000-09-27,69.5,75,15-17,Georgia,,,,,,70,75,80,,80,,,,,80,1
Anri Turmanidze,Raw,No,M,B,2002-10-18,70,75,14-Oct,Georgia,,,,,,65,70,-75,,70,,,,,70,2
Abdolfazl Muradi,Raw,No,M,B,1990-10-23,74.2,75,Open,Iran,,,,,,170,185,195,202.5,195,,,,,195,1
Ali Hashemi,Raw,No,M,B,1975-07-31,75,75,M-1,Iran,,,,,,,,,,115,,,,,115,1
Gocha Kekishvili,Raw,No,M,B,1966-11-25,78.5,82.5,M-2,Georgia,,,,,,130,140,-145,,140,,,,,140,1
Sergey Petrtosyan,Raw,No,M,B,1998-10-11,81.1,82.5,15-17,Armenia,,,,,,-146,146,155,,155,,,,,155,1
Giorgi Beridze,Raw,No,M,B,1994-06-02,80.1,82.5,Jun,Georgia,,,,,,130,140,145,,145,,,,,145,1
Meisam Vahid Nasiri,Raw,No,M,B,1989-01-01,82.1,82.5,Open,Iran,,,,,,160,170,,,170,,,,,170,2
Mehrdad Mohammadkhani,Raw,No,M,B,1986-12-07,79.1,82.5,Open,Iran,,,,,,175,180,185,,185,,,,,185,1
Mohammadkhasan Daneshvar,Raw,No,M,B,1937-08-27,79.6,82.5,M-8,Iran,,,,,,45,50,55,,55,,,,,55,1
Ruslan Greev,Raw,No,M,B,1986-02-26,90,90,Open,Kazakhstan,,,,,,230,240,250,255,250,,,,,250,1
Muslim Fili,Multi-ply,No,M,B,1987-01-10,85.1,90,Open,Iran,,,,,,232.5,,,,232.5,,,,,232.5,1
Otar Markhvashvili,Raw,No,M,B,1992-11-30,93.2,100,Jun,Georgia,,,,,,150,160,,,160,,,,,160,1
Gela Patiashvili,Raw,No,M,B,1985-12-16,92.1,100,Open,Georgia,,,,,,160,170,175,,175,,,,,175,1
Kamran Kloumarsi,Raw,No,M,B,1982-09-05,99.7,100,Open,Iran,,,,,,140,155,,,155,,,,,155,2
Aleksandre Jamaspishvili,Raw,No,M,B,1980-08-20,110,110,35-39,Georgia,,,,,,210,225,-230,,225,,,,,225,1
Zeinolabedin Mohammadian,Raw,No,M,B,1977-09-23,106.1,110,Sub-M,Iran,,,,,,130,140,150,,150,,,,,150,2
Reza Zamani,Raw,No,M,B,1977-01-01,103.4,110,Open,Iran,,,,,,150,160,165,,165,,,,,165,1
Pouria Bidme Shkihamedani,Raw,No,M,B,1992-05-26,108.1,110,Jun,Iran,,,,,,125,135,-145,,135,,,,,135,1
Georgi Beroshvili,Raw,No,M,B,1984-04-27,120,125,Open,Georgia,,,,,,270,287.5,,,287.5,,,,,287.5,1
Mahmoud Shah Mohammadi,Raw,No,M,B,1981-08-18,112.1,125,Sub-M,Iran,,,,,,130,135,-140,,135,,,,,135,1
Seyedabdolreza Sajadi,Raw,No,M,B,1982-10-27,121.5,125,Open,Iran,,,,,,180,190,-195,,190,,,,,190,2
Ashot Khazaryan,Raw,No,M,B,1980-06-23,139.9,140,Sub-M,Russia,,,,,,165,175,180,,180,,,,,180,1
Dmitry Rezakin,Raw,No,M,B,1984-02-12,130.7,140,Open,Russia,,,,,,220,230,-240,,230,,,,,230,1
Shahram Sebzi Eidi,Raw,No,M,D,1989-12-14,60,60,Open,Iran,,,,,,,,,,,140,150,160,160,160,1
Svetlana Korolenko,Raw,No,F,D,1935-12-06,60.1,67.5,M-9,Georgia,,,,,,,,,,,60,65,70,70,70,1
Nukri Diasamidze,Raw,No,M,D,1996-05-10,71.3,75,Jun,Georgia,,,,,,,,,,,170,190,205,205,205,1
Giorgi Urotadze,Raw,No,M,D,1989-11-11,79,82.5,Open,Georgia,,,,,,,,,,,180,-190,190,190,190,1
Alakhverdi Muradkhani,Raw,No,M,D,1946-03-27,82.4,82.5,M-7,Iran,,,,,,,,,,,120,135,140,140,140,1
Mohammadkhasan Daneshvar,Raw,No,M,D,1937-08-27,79.6,82.5,M-8,Iran,,,,,,,,,,,85,90,100,100,100,1
Gasimli Serkhan,Raw,No,M,D,1998-07-26,83.5,90,Sub-J,Azerbaijan,,,,,,,,,,,170,200,,200,200,1
Mindia Zoidze,Raw,No,M,D,1991-11-20,83.9,90,Open,Georgia,,,,,,,,,,,170,190,205,205,205,1
Nizam Gasimov,Raw,No,M,D,1961-08-11,83.3,90,M-4,Azerbaijan,,,,,,,,,,,130,150,,150,150,1
Kamran Kloumarsi,Raw,No,M,D,1982-09-05,99.7,100,Open,Iran,,,,,,,,,,,250,260,280,280,280,1
Zurab Chantlaze,Raw,No,M,D,1973-06-29,109.4,110,M-1,Georgia,,,,,,,,,,,185,200,210,210,210,1
Zeinolabedin Mahammadian,Raw,No,M,D,1977-09-23,106.1,110,Sub-M,Iran,,,,,,,,,,,-190,190,200,200,200,1
Reza Zamani,Raw,No,M,D,1977-01-01,103.4,110,Open,Iran,,,,,,,,,,,220,230,240,240,240,1
Pouria Bidme Shkihamedani,Raw,No,M,D,1992-05-26,108.1,110,Open,Iran,,,,,,,,,,,160,190,200,200,200,2
Nijat Khosrovzade,Raw,No,M,D,1984-05-19,120,125,Open,Azerbaijan,,,,,,,,,,,280,300,310,310,310,1
Seyedabdolreza Sajadi,Raw,No,M,D,1982-10-27,121.5,125,Open,Iran,,,,,,,,,,,240,260,280,280,280,2
Giorgi Chlaidze,Raw,Yes,M,D,1979-08-08,115.5,125,Sub-M,Georgia,,,,,,,,,,,210,235,-260,235,235,1
Giorgi Tsiflashvili,Raw,No,M,D,1996-09-19,111.5,125,Sub-J,Georgia,,,,,,,,,,,260,270,280,280,280,1
Mahmoud Shah Mohammadi,Raw,No,M,D,1981-08-18,112.1,125,Sub-M,Iran,,,,,,,,,,,200,-210,,200,200,2
Eynullabakhsh,Raw,Yes,M,D,1982-08-28,126,140,Open,Azerbaijan,,,,,,,,,,,240,,,240,240,1
Zurab Shengelia,Raw,No,M,D,1999-08-24,129.4,140,15-17,Georgia,,,,,,,,,,,190,210,220,220,220,1
Irakli Gachava,Raw,No,M,D,1992-11-20,163.4,140+,20-23,Georgia,,,,,,,,,,,300,330,,330,330,1
